{
  "metadata": {
    "format": "2.0",
    "graph type": "bipartite",
    "nodes": "nodes",
    "links": "links",
    "time_slot": "an",
    "entity_type": "entity_type",
    "source_entity_type": "document",
    "target_entity_type": "marchand",
    "prior_knowledge": {
      "B": [
        2
      ],
      "A": [
        0
      ]
    }
  },
  "nodes": [
    {
      "id": 6,
      "entity_type": "marchand"
    },
    {
      "id": 133,
      "entity_type": "marchand"
    },
    {
      "id": 132,
      "entity_type": "marchand"
    },
    {
      "id": 131,
      "entity_type": "marchand"
    },
    {
      "id": 20,
      "entity_type": "marchand"
    },
    {
      "id": 29,
      "entity_type": "marchand"
    },
    {
      "id": 158,
      "entity_type": "marchand"
    },
    {
      "id": 89,
      "entity_type": "marchand"
    },
    {
      "id": 2,
      "entity_type": "marchand"
    },
    {
      "id": 53,
      "entity_type": "marchand"
    },
    {
      "id": 54,
      "entity_type": "marchand"
    },
    {
      "id": 55,
      "entity_type": "marchand"
    },
    {
      "id": 56,
      "entity_type": "marchand"
    },
    {
      "id": 57,
      "entity_type": "marchand"
    },
    {
      "id": 58,
      "entity_type": "marchand"
    },
    {
      "id": 59,
      "entity_type": "marchand"
    },
    {
      "id": 60,
      "entity_type": "marchand"
    },
    {
      "id": 69,
      "entity_type": "marchand"
    },
    {
      "id": 68,
      "entity_type": "marchand"
    },
    {
      "id": 63,
      "entity_type": "marchand"
    },
    {
      "id": 75,
      "entity_type": "marchand"
    },
    {
      "id": 61,
      "entity_type": "marchand"
    },
    {
      "id": 62,
      "entity_type": "marchand"
    },
    {
      "id": 64,
      "entity_type": "marchand"
    },
    {
      "id": 65,
      "entity_type": "marchand"
    },
    {
      "id": 66,
      "entity_type": "marchand"
    },
    {
      "id": 67,
      "entity_type": "marchand"
    },
    {
      "id": 70,
      "entity_type": "marchand"
    },
    {
      "id": 71,
      "entity_type": "marchand"
    },
    {
      "id": 72,
      "entity_type": "marchand"
    },
    {
      "id": 73,
      "entity_type": "marchand"
    },
    {
      "id": 74,
      "entity_type": "marchand"
    },
    {
      "id": 179,
      "entity_type": "marchand"
    },
    {
      "id": 96,
      "entity_type": "marchand"
    },
    {
      "id": 37,
      "entity_type": "marchand"
    },
    {
      "id": 83,
      "entity_type": "marchand"
    },
    {
      "id": 93,
      "entity_type": "marchand"
    },
    {
      "id": 94,
      "entity_type": "marchand"
    },
    {
      "id": 92,
      "entity_type": "marchand"
    },
    {
      "id": 91,
      "entity_type": "marchand"
    },
    {
      "id": 90,
      "entity_type": "marchand"
    },
    {
      "id": 78,
      "entity_type": "marchand"
    },
    {
      "id": 88,
      "entity_type": "marchand"
    },
    {
      "id": 87,
      "entity_type": "marchand"
    },
    {
      "id": 86,
      "entity_type": "marchand"
    },
    {
      "id": 85,
      "entity_type": "marchand"
    },
    {
      "id": 84,
      "entity_type": "marchand"
    },
    {
      "id": 95,
      "entity_type": "marchand"
    },
    {
      "id": 82,
      "entity_type": "marchand"
    },
    {
      "id": 81,
      "entity_type": "marchand"
    },
    {
      "id": 80,
      "entity_type": "marchand"
    },
    {
      "id": 79,
      "entity_type": "marchand"
    },
    {
      "id": 77,
      "entity_type": "marchand"
    },
    {
      "id": 76,
      "entity_type": "marchand"
    },
    {
      "id": 97,
      "entity_type": "marchand"
    },
    {
      "id": 178,
      "entity_type": "marchand"
    },
    {
      "id": 180,
      "entity_type": "marchand"
    },
    {
      "id": 99,
      "entity_type": "marchand"
    },
    {
      "id": 106,
      "entity_type": "marchand"
    },
    {
      "id": 104,
      "entity_type": "marchand"
    },
    {
      "id": 103,
      "entity_type": "marchand"
    },
    {
      "id": 105,
      "entity_type": "marchand"
    },
    {
      "id": 102,
      "entity_type": "marchand"
    },
    {
      "id": 101,
      "entity_type": "marchand"
    },
    {
      "id": 100,
      "entity_type": "marchand"
    },
    {
      "id": 98,
      "entity_type": "marchand"
    },
    {
      "id": 34,
      "entity_type": "marchand"
    },
    {
      "id": 154,
      "entity_type": "marchand"
    },
    {
      "id": 155,
      "entity_type": "marchand"
    },
    {
      "id": 153,
      "entity_type": "marchand"
    },
    {
      "id": 183,
      "entity_type": "marchand"
    },
    {
      "id": 156,
      "entity_type": "marchand"
    },
    {
      "id": 108,
      "entity_type": "marchand"
    },
    {
      "id": 109,
      "entity_type": "marchand"
    },
    {
      "id": 107,
      "entity_type": "marchand"
    },
    {
      "id": 110,
      "entity_type": "marchand"
    },
    {
      "id": 181,
      "entity_type": "marchand"
    },
    {
      "id": 182,
      "entity_type": "marchand"
    },
    {
      "id": 111,
      "entity_type": "marchand"
    },
    {
      "id": 0,
      "entity_type": "marchand"
    },
    {
      "id": 125,
      "entity_type": "marchand"
    },
    {
      "id": 25,
      "entity_type": "marchand"
    },
    {
      "id": 113,
      "entity_type": "marchand"
    },
    {
      "id": 122,
      "entity_type": "marchand"
    },
    {
      "id": 124,
      "entity_type": "marchand"
    },
    {
      "id": 186,
      "entity_type": "marchand"
    },
    {
      "id": 185,
      "entity_type": "marchand"
    },
    {
      "id": 184,
      "entity_type": "marchand"
    },
    {
      "id": 116,
      "entity_type": "marchand"
    },
    {
      "id": 112,
      "entity_type": "marchand"
    },
    {
      "id": 114,
      "entity_type": "marchand"
    },
    {
      "id": 115,
      "entity_type": "marchand"
    },
    {
      "id": 117,
      "entity_type": "marchand"
    },
    {
      "id": 118,
      "entity_type": "marchand"
    },
    {
      "id": 119,
      "entity_type": "marchand"
    },
    {
      "id": 120,
      "entity_type": "marchand"
    },
    {
      "id": 121,
      "entity_type": "marchand"
    },
    {
      "id": 123,
      "entity_type": "marchand"
    },
    {
      "id": 35,
      "entity_type": "marchand"
    },
    {
      "id": 164,
      "entity_type": "marchand"
    },
    {
      "id": 166,
      "entity_type": "marchand"
    },
    {
      "id": 165,
      "entity_type": "marchand"
    },
    {
      "id": 163,
      "entity_type": "marchand"
    },
    {
      "id": 175,
      "entity_type": "marchand"
    },
    {
      "id": 174,
      "entity_type": "marchand"
    },
    {
      "id": 171,
      "entity_type": "marchand"
    },
    {
      "id": 172,
      "entity_type": "marchand"
    },
    {
      "id": 177,
      "entity_type": "marchand"
    },
    {
      "id": 170,
      "entity_type": "marchand"
    },
    {
      "id": 169,
      "entity_type": "marchand"
    },
    {
      "id": 168,
      "entity_type": "marchand"
    },
    {
      "id": 167,
      "entity_type": "marchand"
    },
    {
      "id": 176,
      "entity_type": "marchand"
    },
    {
      "id": 173,
      "entity_type": "marchand"
    },
    {
      "id": 128,
      "entity_type": "marchand"
    },
    {
      "id": 129,
      "entity_type": "marchand"
    },
    {
      "id": 127,
      "entity_type": "marchand"
    },
    {
      "id": 130,
      "entity_type": "marchand"
    },
    {
      "id": 126,
      "entity_type": "marchand"
    },
    {
      "id": 143,
      "entity_type": "marchand"
    },
    {
      "id": 142,
      "entity_type": "marchand"
    },
    {
      "id": 3,
      "entity_type": "marchand"
    },
    {
      "id": 140,
      "entity_type": "marchand"
    },
    {
      "id": 187,
      "entity_type": "marchand"
    },
    {
      "id": 188,
      "entity_type": "marchand"
    },
    {
      "id": 189,
      "entity_type": "marchand"
    },
    {
      "id": 151,
      "entity_type": "marchand"
    },
    {
      "id": 150,
      "entity_type": "marchand"
    },
    {
      "id": 144,
      "entity_type": "marchand"
    },
    {
      "id": 146,
      "entity_type": "marchand"
    },
    {
      "id": 147,
      "entity_type": "marchand"
    },
    {
      "id": 148,
      "entity_type": "marchand"
    },
    {
      "id": 149,
      "entity_type": "marchand"
    },
    {
      "id": 141,
      "entity_type": "marchand"
    },
    {
      "id": 134,
      "entity_type": "marchand"
    },
    {
      "id": 135,
      "entity_type": "marchand"
    },
    {
      "id": 136,
      "entity_type": "marchand"
    },
    {
      "id": 137,
      "entity_type": "marchand"
    },
    {
      "id": 138,
      "entity_type": "marchand"
    },
    {
      "id": 139,
      "entity_type": "marchand"
    },
    {
      "id": 145,
      "entity_type": "marchand"
    },
    {
      "id": 152,
      "entity_type": "marchand"
    },
    {
      "id": 1,
      "entity_type": "marchand"
    },
    {
      "id": 159,
      "entity_type": "marchand"
    },
    {
      "id": 160,
      "entity_type": "marchand"
    },
    {
      "id": 161,
      "entity_type": "marchand"
    },
    {
      "id": 162,
      "entity_type": "marchand"
    },
    {
      "id": 19,
      "entity_type": "marchand"
    },
    {
      "id": 16,
      "entity_type": "marchand"
    },
    {
      "id": 18,
      "entity_type": "marchand"
    },
    {
      "id": 14,
      "entity_type": "marchand"
    },
    {
      "id": 21,
      "entity_type": "marchand"
    },
    {
      "id": 23,
      "entity_type": "marchand"
    },
    {
      "id": 12,
      "entity_type": "marchand"
    },
    {
      "id": 11,
      "entity_type": "marchand"
    },
    {
      "id": 10,
      "entity_type": "marchand"
    },
    {
      "id": 9,
      "entity_type": "marchand"
    },
    {
      "id": 4,
      "entity_type": "marchand"
    },
    {
      "id": 15,
      "entity_type": "marchand"
    },
    {
      "id": 17,
      "entity_type": "marchand"
    },
    {
      "id": 22,
      "entity_type": "marchand"
    },
    {
      "id": 13,
      "entity_type": "marchand"
    },
    {
      "id": 8,
      "entity_type": "marchand"
    },
    {
      "id": 7,
      "entity_type": "marchand"
    },
    {
      "id": 5,
      "entity_type": "marchand"
    },
    {
      "id": 24,
      "entity_type": "marchand"
    },
    {
      "id": 28,
      "entity_type": "marchand"
    },
    {
      "id": 26,
      "entity_type": "marchand"
    },
    {
      "id": 31,
      "entity_type": "marchand"
    },
    {
      "id": 30,
      "entity_type": "marchand"
    },
    {
      "id": 27,
      "entity_type": "marchand"
    },
    {
      "id": 32,
      "entity_type": "marchand"
    },
    {
      "id": 33,
      "entity_type": "marchand"
    },
    {
      "id": 38,
      "entity_type": "marchand"
    },
    {
      "id": 39,
      "entity_type": "marchand"
    },
    {
      "id": 49,
      "entity_type": "marchand"
    },
    {
      "id": 48,
      "entity_type": "marchand"
    },
    {
      "id": 42,
      "entity_type": "marchand"
    },
    {
      "id": 43,
      "entity_type": "marchand"
    },
    {
      "id": 44,
      "entity_type": "marchand"
    },
    {
      "id": 50,
      "entity_type": "marchand"
    },
    {
      "id": 41,
      "entity_type": "marchand"
    },
    {
      "id": 45,
      "entity_type": "marchand"
    },
    {
      "id": 46,
      "entity_type": "marchand"
    },
    {
      "id": 47,
      "entity_type": "marchand"
    },
    {
      "id": 36,
      "entity_type": "marchand"
    },
    {
      "id": 40,
      "entity_type": "marchand"
    },
    {
      "id": 51,
      "entity_type": "marchand"
    },
    {
      "id": 52,
      "entity_type": "marchand"
    },
    {
      "id": "_e_0",
      "ts": 0,
      "raw_ts": "1670",
      "entity_type": "document"
    },
    {
      "id": "_e_1",
      "ts": 0,
      "raw_ts": "1666",
      "entity_type": "document"
    },
    {
      "id": "_e_2",
      "ts": 0,
      "raw_ts": "1666",
      "entity_type": "document"
    },
    {
      "id": "_e_3",
      "ts": 0,
      "raw_ts": "1670",
      "entity_type": "document"
    },
    {
      "id": "_e_4",
      "ts": 0,
      "raw_ts": "1668",
      "entity_type": "document"
    },
    {
      "id": "_e_5",
      "ts": 0,
      "raw_ts": "1660",
      "entity_type": "document"
    },
    {
      "id": "_e_6",
      "ts": 0,
      "raw_ts": "1662",
      "entity_type": "document"
    },
    {
      "id": "_e_7",
      "ts": 0,
      "raw_ts": "1664",
      "entity_type": "document"
    },
    {
      "id": "_e_8",
      "ts": 0,
      "raw_ts": "1666",
      "entity_type": "document"
    },
    {
      "id": "_e_9",
      "ts": 0,
      "raw_ts": "1663",
      "entity_type": "document"
    },
    {
      "id": "_e_10",
      "ts": 0,
      "raw_ts": "1667",
      "entity_type": "document"
    },
    {
      "id": "_e_11",
      "ts": 0,
      "raw_ts": "1664",
      "entity_type": "document"
    },
    {
      "id": "_e_12",
      "ts": 0,
      "raw_ts": "1666",
      "entity_type": "document"
    },
    {
      "id": "_e_13",
      "ts": 0,
      "raw_ts": "1666",
      "entity_type": "document"
    },
    {
      "id": "_e_14",
      "ts": 0,
      "raw_ts": "1667",
      "entity_type": "document"
    },
    {
      "id": "_e_15",
      "ts": 0,
      "raw_ts": "1666",
      "entity_type": "document"
    },
    {
      "id": "_e_16",
      "ts": 0,
      "raw_ts": "1667",
      "entity_type": "document"
    },
    {
      "id": "_e_17",
      "ts": 0,
      "raw_ts": "1667",
      "entity_type": "document"
    },
    {
      "id": "_e_18",
      "ts": 0,
      "raw_ts": "1668",
      "entity_type": "document"
    },
    {
      "id": "_e_19",
      "ts": 0,
      "raw_ts": "1668",
      "entity_type": "document"
    },
    {
      "id": "_e_20",
      "ts": 0,
      "raw_ts": "1671",
      "entity_type": "document"
    },
    {
      "id": "_e_21",
      "ts": 0,
      "raw_ts": "1670",
      "entity_type": "document"
    },
    {
      "id": "_e_22",
      "ts": 0,
      "raw_ts": "1670",
      "entity_type": "document"
    },
    {
      "id": "_e_23",
      "ts": 0,
      "raw_ts": "1674",
      "entity_type": "document"
    },
    {
      "id": "_e_24",
      "ts": 0,
      "raw_ts": "1671",
      "entity_type": "document"
    },
    {
      "id": "_e_25",
      "ts": 0,
      "raw_ts": "1672",
      "entity_type": "document"
    },
    {
      "id": "_e_26",
      "ts": 0,
      "raw_ts": "1675",
      "entity_type": "document"
    },
    {
      "id": "_e_27",
      "ts": 0,
      "raw_ts": "1689",
      "entity_type": "document"
    },
    {
      "id": "_e_28",
      "ts": 0,
      "raw_ts": "1672",
      "entity_type": "document"
    },
    {
      "id": "_e_29",
      "ts": 0,
      "raw_ts": "1690",
      "entity_type": "document"
    },
    {
      "id": "_e_30",
      "ts": 0,
      "raw_ts": "1668",
      "entity_type": "document"
    },
    {
      "id": "_e_31",
      "ts": 0,
      "raw_ts": "1690",
      "entity_type": "document"
    },
    {
      "id": "_e_32",
      "ts": 0,
      "raw_ts": "1671",
      "entity_type": "document"
    },
    {
      "id": "_e_33",
      "ts": 0,
      "raw_ts": "1671",
      "entity_type": "document"
    },
    {
      "id": "_e_34",
      "ts": 0,
      "raw_ts": "1671",
      "entity_type": "document"
    },
    {
      "id": "_e_35",
      "ts": 0,
      "raw_ts": "1671",
      "entity_type": "document"
    },
    {
      "id": "_e_36",
      "ts": 0,
      "raw_ts": "1672",
      "entity_type": "document"
    },
    {
      "id": "_e_37",
      "ts": 0,
      "raw_ts": "1683",
      "entity_type": "document"
    },
    {
      "id": "_e_38",
      "ts": 0,
      "raw_ts": "1682",
      "entity_type": "document"
    },
    {
      "id": "_e_39",
      "ts": 0,
      "raw_ts": "1676",
      "entity_type": "document"
    },
    {
      "id": "_e_40",
      "ts": 0,
      "raw_ts": "1671",
      "entity_type": "document"
    },
    {
      "id": "_e_41",
      "ts": 0,
      "raw_ts": "1676",
      "entity_type": "document"
    },
    {
      "id": "_e_42",
      "ts": 0,
      "raw_ts": "1669",
      "entity_type": "document"
    },
    {
      "id": "_e_43",
      "ts": 0,
      "raw_ts": "1683",
      "entity_type": "document"
    },
    {
      "id": "_e_44",
      "ts": 0,
      "raw_ts": "1685",
      "entity_type": "document"
    },
    {
      "id": "_e_45",
      "ts": 0,
      "raw_ts": "1689",
      "entity_type": "document"
    },
    {
      "id": "_e_46",
      "ts": 0,
      "raw_ts": "1689",
      "entity_type": "document"
    },
    {
      "id": "_e_47",
      "ts": 0,
      "raw_ts": "1673",
      "entity_type": "document"
    },
    {
      "id": "_e_48",
      "ts": 0,
      "raw_ts": "1676",
      "entity_type": "document"
    },
    {
      "id": "_e_49",
      "ts": 0,
      "raw_ts": "1681",
      "entity_type": "document"
    },
    {
      "id": "_e_50",
      "ts": 0,
      "raw_ts": "1676",
      "entity_type": "document"
    },
    {
      "id": "_e_51",
      "ts": 0,
      "raw_ts": "1676",
      "entity_type": "document"
    },
    {
      "id": "_e_52",
      "ts": 0,
      "raw_ts": "1692",
      "entity_type": "document"
    },
    {
      "id": "_e_53",
      "ts": 0,
      "raw_ts": "1692",
      "entity_type": "document"
    },
    {
      "id": "_e_54",
      "ts": 0,
      "raw_ts": "1672",
      "entity_type": "document"
    },
    {
      "id": "_e_55",
      "ts": 0,
      "raw_ts": "1672",
      "entity_type": "document"
    },
    {
      "id": "_e_56",
      "ts": 0,
      "raw_ts": "1675",
      "entity_type": "document"
    },
    {
      "id": "_e_57",
      "ts": 0,
      "raw_ts": "1672",
      "entity_type": "document"
    }
  ],
  "links": [
    {
      "source": "_e_0",
      "target": 2,
      "ts": 0
    },
    {
      "source": "_e_0",
      "target": 118,
      "ts": 0
    },
    {
      "source": "_e_0",
      "target": 119,
      "ts": 0
    },
    {
      "source": "_e_0",
      "target": 120,
      "ts": 0
    },
    {
      "source": "_e_0",
      "target": 121,
      "ts": 0
    },
    {
      "source": "_e_1",
      "target": 2,
      "ts": 0
    },
    {
      "source": "_e_1",
      "target": 90,
      "ts": 0
    },
    {
      "source": "_e_1",
      "target": 91,
      "ts": 0
    },
    {
      "source": "_e_1",
      "target": 92,
      "ts": 0
    },
    {
      "source": "_e_1",
      "target": 93,
      "ts": 0
    },
    {
      "source": "_e_1",
      "target": 94,
      "ts": 0
    },
    {
      "source": "_e_2",
      "target": 2,
      "ts": 0
    },
    {
      "source": "_e_2",
      "target": 76,
      "ts": 0
    },
    {
      "source": "_e_2",
      "target": 77,
      "ts": 0
    },
    {
      "source": "_e_2",
      "target": 78,
      "ts": 0
    },
    {
      "source": "_e_3",
      "target": 2,
      "ts": 0
    },
    {
      "source": "_e_3",
      "target": 184,
      "ts": 0
    },
    {
      "source": "_e_3",
      "target": 185,
      "ts": 0
    },
    {
      "source": "_e_3",
      "target": 186,
      "ts": 0
    },
    {
      "source": "_e_4",
      "target": 2,
      "ts": 0
    },
    {
      "source": "_e_4",
      "target": 107,
      "ts": 0
    },
    {
      "source": "_e_4",
      "target": 108,
      "ts": 0
    },
    {
      "source": "_e_4",
      "target": 109,
      "ts": 0
    },
    {
      "source": "_e_4",
      "target": 110,
      "ts": 0
    },
    {
      "source": "_e_4",
      "target": 111,
      "ts": 0
    },
    {
      "source": "_e_5",
      "target": 2,
      "ts": 0
    },
    {
      "source": "_e_5",
      "target": 53,
      "ts": 0
    },
    {
      "source": "_e_6",
      "target": 2,
      "ts": 0
    },
    {
      "source": "_e_6",
      "target": 54,
      "ts": 0
    },
    {
      "source": "_e_6",
      "target": 55,
      "ts": 0
    },
    {
      "source": "_e_6",
      "target": 56,
      "ts": 0
    },
    {
      "source": "_e_6",
      "target": 57,
      "ts": 0
    },
    {
      "source": "_e_7",
      "target": 2,
      "ts": 0
    },
    {
      "source": "_e_7",
      "target": 54,
      "ts": 0
    },
    {
      "source": "_e_7",
      "target": 71,
      "ts": 0
    },
    {
      "source": "_e_7",
      "target": 72,
      "ts": 0
    },
    {
      "source": "_e_7",
      "target": 73,
      "ts": 0
    },
    {
      "source": "_e_7",
      "target": 74,
      "ts": 0
    },
    {
      "source": "_e_7",
      "target": 75,
      "ts": 0
    },
    {
      "source": "_e_8",
      "target": 2,
      "ts": 0
    },
    {
      "source": "_e_8",
      "target": 58,
      "ts": 0
    },
    {
      "source": "_e_9",
      "target": 58,
      "ts": 0
    },
    {
      "source": "_e_9",
      "target": 60,
      "ts": 0
    },
    {
      "source": "_e_9",
      "target": 2,
      "ts": 0
    },
    {
      "source": "_e_9",
      "target": 59,
      "ts": 0
    },
    {
      "source": "_e_10",
      "target": 2,
      "ts": 0
    },
    {
      "source": "_e_10",
      "target": 98,
      "ts": 0
    },
    {
      "source": "_e_10",
      "target": 99,
      "ts": 0
    },
    {
      "source": "_e_10",
      "target": 58,
      "ts": 0
    },
    {
      "source": "_e_11",
      "target": 61,
      "ts": 0
    },
    {
      "source": "_e_11",
      "target": 62,
      "ts": 0
    },
    {
      "source": "_e_11",
      "target": 63,
      "ts": 0
    },
    {
      "source": "_e_11",
      "target": 64,
      "ts": 0
    },
    {
      "source": "_e_11",
      "target": 65,
      "ts": 0
    },
    {
      "source": "_e_11",
      "target": 66,
      "ts": 0
    },
    {
      "source": "_e_11",
      "target": 67,
      "ts": 0
    },
    {
      "source": "_e_11",
      "target": 68,
      "ts": 0
    },
    {
      "source": "_e_11",
      "target": 69,
      "ts": 0
    },
    {
      "source": "_e_11",
      "target": 70,
      "ts": 0
    },
    {
      "source": "_e_11",
      "target": 2,
      "ts": 0
    },
    {
      "source": "_e_12",
      "target": 2,
      "ts": 0
    },
    {
      "source": "_e_12",
      "target": 178,
      "ts": 0
    },
    {
      "source": "_e_12",
      "target": 179,
      "ts": 0
    },
    {
      "source": "_e_13",
      "target": 2,
      "ts": 0
    },
    {
      "source": "_e_13",
      "target": 95,
      "ts": 0
    },
    {
      "source": "_e_13",
      "target": 96,
      "ts": 0
    },
    {
      "source": "_e_13",
      "target": 97,
      "ts": 0
    },
    {
      "source": "_e_14",
      "target": 2,
      "ts": 0
    },
    {
      "source": "_e_14",
      "target": 58,
      "ts": 0
    },
    {
      "source": "_e_14",
      "target": 96,
      "ts": 0
    },
    {
      "source": "_e_14",
      "target": 100,
      "ts": 0
    },
    {
      "source": "_e_14",
      "target": 101,
      "ts": 0
    },
    {
      "source": "_e_14",
      "target": 102,
      "ts": 0
    },
    {
      "source": "_e_14",
      "target": 103,
      "ts": 0
    },
    {
      "source": "_e_14",
      "target": 104,
      "ts": 0
    },
    {
      "source": "_e_14",
      "target": 105,
      "ts": 0
    },
    {
      "source": "_e_14",
      "target": 106,
      "ts": 0
    },
    {
      "source": "_e_15",
      "target": 2,
      "ts": 0
    },
    {
      "source": "_e_15",
      "target": 37,
      "ts": 0
    },
    {
      "source": "_e_15",
      "target": 79,
      "ts": 0
    },
    {
      "source": "_e_15",
      "target": 80,
      "ts": 0
    },
    {
      "source": "_e_15",
      "target": 81,
      "ts": 0
    },
    {
      "source": "_e_15",
      "target": 82,
      "ts": 0
    },
    {
      "source": "_e_15",
      "target": 83,
      "ts": 0
    },
    {
      "source": "_e_15",
      "target": 84,
      "ts": 0
    },
    {
      "source": "_e_15",
      "target": 85,
      "ts": 0
    },
    {
      "source": "_e_15",
      "target": 86,
      "ts": 0
    },
    {
      "source": "_e_15",
      "target": 87,
      "ts": 0
    },
    {
      "source": "_e_15",
      "target": 88,
      "ts": 0
    },
    {
      "source": "_e_16",
      "target": 2,
      "ts": 0
    },
    {
      "source": "_e_16",
      "target": 179,
      "ts": 0
    },
    {
      "source": "_e_16",
      "target": 180,
      "ts": 0
    },
    {
      "source": "_e_17",
      "target": 2,
      "ts": 0
    },
    {
      "source": "_e_17",
      "target": 69,
      "ts": 0
    },
    {
      "source": "_e_17",
      "target": 180,
      "ts": 0
    },
    {
      "source": "_e_18",
      "target": 2,
      "ts": 0
    },
    {
      "source": "_e_18",
      "target": 179,
      "ts": 0
    },
    {
      "source": "_e_18",
      "target": 180,
      "ts": 0
    },
    {
      "source": "_e_19",
      "target": 2,
      "ts": 0
    },
    {
      "source": "_e_19",
      "target": 181,
      "ts": 0
    },
    {
      "source": "_e_19",
      "target": 182,
      "ts": 0
    },
    {
      "source": "_e_19",
      "target": 183,
      "ts": 0
    },
    {
      "source": "_e_20",
      "target": 2,
      "ts": 0
    },
    {
      "source": "_e_20",
      "target": 0,
      "ts": 0
    },
    {
      "source": "_e_20",
      "target": 25,
      "ts": 0
    },
    {
      "source": "_e_21",
      "target": 2,
      "ts": 0
    },
    {
      "source": "_e_21",
      "target": 112,
      "ts": 0
    },
    {
      "source": "_e_21",
      "target": 113,
      "ts": 0
    },
    {
      "source": "_e_21",
      "target": 114,
      "ts": 0
    },
    {
      "source": "_e_21",
      "target": 115,
      "ts": 0
    },
    {
      "source": "_e_21",
      "target": 116,
      "ts": 0
    },
    {
      "source": "_e_21",
      "target": 117,
      "ts": 0
    },
    {
      "source": "_e_22",
      "target": 0,
      "ts": 0
    },
    {
      "source": "_e_22",
      "target": 2,
      "ts": 0
    },
    {
      "source": "_e_22",
      "target": 25,
      "ts": 0
    },
    {
      "source": "_e_22",
      "target": 34,
      "ts": 0
    },
    {
      "source": "_e_22",
      "target": 58,
      "ts": 0
    },
    {
      "source": "_e_22",
      "target": 122,
      "ts": 0
    },
    {
      "source": "_e_22",
      "target": 123,
      "ts": 0
    },
    {
      "source": "_e_22",
      "target": 124,
      "ts": 0
    },
    {
      "source": "_e_23",
      "target": 0,
      "ts": 0
    },
    {
      "source": "_e_23",
      "target": 2,
      "ts": 0
    },
    {
      "source": "_e_23",
      "target": 34,
      "ts": 0
    },
    {
      "source": "_e_23",
      "target": 122,
      "ts": 0
    },
    {
      "source": "_e_23",
      "target": 125,
      "ts": 0
    },
    {
      "source": "_e_23",
      "target": 153,
      "ts": 0
    },
    {
      "source": "_e_23",
      "target": 154,
      "ts": 0
    },
    {
      "source": "_e_23",
      "target": 155,
      "ts": 0
    },
    {
      "source": "_e_23",
      "target": 159,
      "ts": 0
    },
    {
      "source": "_e_23",
      "target": 160,
      "ts": 0
    },
    {
      "source": "_e_23",
      "target": 161,
      "ts": 0
    },
    {
      "source": "_e_23",
      "target": 162,
      "ts": 0
    },
    {
      "source": "_e_24",
      "target": 0,
      "ts": 0
    },
    {
      "source": "_e_24",
      "target": 163,
      "ts": 0
    },
    {
      "source": "_e_24",
      "target": 2,
      "ts": 0
    },
    {
      "source": "_e_24",
      "target": 122,
      "ts": 0
    },
    {
      "source": "_e_25",
      "target": 2,
      "ts": 0
    },
    {
      "source": "_e_25",
      "target": 3,
      "ts": 0
    },
    {
      "source": "_e_26",
      "target": 2,
      "ts": 0
    },
    {
      "source": "_e_26",
      "target": 0,
      "ts": 0
    },
    {
      "source": "_e_26",
      "target": 3,
      "ts": 0
    },
    {
      "source": "_e_27",
      "target": 25,
      "ts": 0
    },
    {
      "source": "_e_27",
      "target": 0,
      "ts": 0
    },
    {
      "source": "_e_27",
      "target": 3,
      "ts": 0
    },
    {
      "source": "_e_27",
      "target": 2,
      "ts": 0
    },
    {
      "source": "_e_27",
      "target": 30,
      "ts": 0
    },
    {
      "source": "_e_27",
      "target": 31,
      "ts": 0
    },
    {
      "source": "_e_27",
      "target": 32,
      "ts": 0
    },
    {
      "source": "_e_27",
      "target": 33,
      "ts": 0
    },
    {
      "source": "_e_28",
      "target": 144,
      "ts": 0
    },
    {
      "source": "_e_28",
      "target": 140,
      "ts": 0
    },
    {
      "source": "_e_28",
      "target": 145,
      "ts": 0
    },
    {
      "source": "_e_28",
      "target": 143,
      "ts": 0
    },
    {
      "source": "_e_28",
      "target": 146,
      "ts": 0
    },
    {
      "source": "_e_28",
      "target": 68,
      "ts": 0
    },
    {
      "source": "_e_28",
      "target": 147,
      "ts": 0
    },
    {
      "source": "_e_28",
      "target": 148,
      "ts": 0
    },
    {
      "source": "_e_28",
      "target": 149,
      "ts": 0
    },
    {
      "source": "_e_28",
      "target": 113,
      "ts": 0
    },
    {
      "source": "_e_28",
      "target": 142,
      "ts": 0
    },
    {
      "source": "_e_28",
      "target": 150,
      "ts": 0
    },
    {
      "source": "_e_28",
      "target": 69,
      "ts": 0
    },
    {
      "source": "_e_28",
      "target": 152,
      "ts": 0
    },
    {
      "source": "_e_28",
      "target": 151,
      "ts": 0
    },
    {
      "source": "_e_29",
      "target": 25,
      "ts": 0
    },
    {
      "source": "_e_29",
      "target": 36,
      "ts": 0
    },
    {
      "source": "_e_29",
      "target": 37,
      "ts": 0
    },
    {
      "source": "_e_29",
      "target": 38,
      "ts": 0
    },
    {
      "source": "_e_29",
      "target": 39,
      "ts": 0
    },
    {
      "source": "_e_29",
      "target": 40,
      "ts": 0
    },
    {
      "source": "_e_29",
      "target": 41,
      "ts": 0
    },
    {
      "source": "_e_29",
      "target": 42,
      "ts": 0
    },
    {
      "source": "_e_29",
      "target": 43,
      "ts": 0
    },
    {
      "source": "_e_29",
      "target": 44,
      "ts": 0
    },
    {
      "source": "_e_29",
      "target": 45,
      "ts": 0
    },
    {
      "source": "_e_29",
      "target": 46,
      "ts": 0
    },
    {
      "source": "_e_29",
      "target": 47,
      "ts": 0
    },
    {
      "source": "_e_29",
      "target": 48,
      "ts": 0
    },
    {
      "source": "_e_29",
      "target": 0,
      "ts": 0
    },
    {
      "source": "_e_29",
      "target": 49,
      "ts": 0
    },
    {
      "source": "_e_29",
      "target": 50,
      "ts": 0
    },
    {
      "source": "_e_30",
      "target": 34,
      "ts": 0
    },
    {
      "source": "_e_30",
      "target": 153,
      "ts": 0
    },
    {
      "source": "_e_30",
      "target": 154,
      "ts": 0
    },
    {
      "source": "_e_30",
      "target": 155,
      "ts": 0
    },
    {
      "source": "_e_30",
      "target": 156,
      "ts": 0
    },
    {
      "source": "_e_31",
      "target": 0,
      "ts": 0
    },
    {
      "source": "_e_31",
      "target": 34,
      "ts": 0
    },
    {
      "source": "_e_31",
      "target": 35,
      "ts": 0
    },
    {
      "source": "_e_31",
      "target": 25,
      "ts": 0
    },
    {
      "source": "_e_32",
      "target": 34,
      "ts": 0
    },
    {
      "source": "_e_32",
      "target": 35,
      "ts": 0
    },
    {
      "source": "_e_32",
      "target": 0,
      "ts": 0
    },
    {
      "source": "_e_32",
      "target": 125,
      "ts": 0
    },
    {
      "source": "_e_32",
      "target": 154,
      "ts": 0
    },
    {
      "source": "_e_32",
      "target": 164,
      "ts": 0
    },
    {
      "source": "_e_32",
      "target": 165,
      "ts": 0
    },
    {
      "source": "_e_32",
      "target": 166,
      "ts": 0
    },
    {
      "source": "_e_33",
      "target": 34,
      "ts": 0
    },
    {
      "source": "_e_33",
      "target": 35,
      "ts": 0
    },
    {
      "source": "_e_33",
      "target": 0,
      "ts": 0
    },
    {
      "source": "_e_33",
      "target": 125,
      "ts": 0
    },
    {
      "source": "_e_33",
      "target": 154,
      "ts": 0
    },
    {
      "source": "_e_33",
      "target": 164,
      "ts": 0
    },
    {
      "source": "_e_33",
      "target": 165,
      "ts": 0
    },
    {
      "source": "_e_33",
      "target": 166,
      "ts": 0
    },
    {
      "source": "_e_34",
      "target": 34,
      "ts": 0
    },
    {
      "source": "_e_34",
      "target": 0,
      "ts": 0
    },
    {
      "source": "_e_34",
      "target": 125,
      "ts": 0
    },
    {
      "source": "_e_34",
      "target": 154,
      "ts": 0
    },
    {
      "source": "_e_34",
      "target": 164,
      "ts": 0
    },
    {
      "source": "_e_34",
      "target": 163,
      "ts": 0
    },
    {
      "source": "_e_34",
      "target": 122,
      "ts": 0
    },
    {
      "source": "_e_34",
      "target": 174,
      "ts": 0
    },
    {
      "source": "_e_34",
      "target": 175,
      "ts": 0
    },
    {
      "source": "_e_34",
      "target": 177,
      "ts": 0
    },
    {
      "source": "_e_35",
      "target": 34,
      "ts": 0
    },
    {
      "source": "_e_35",
      "target": 35,
      "ts": 0
    },
    {
      "source": "_e_35",
      "target": 0,
      "ts": 0
    },
    {
      "source": "_e_35",
      "target": 125,
      "ts": 0
    },
    {
      "source": "_e_35",
      "target": 164,
      "ts": 0
    },
    {
      "source": "_e_35",
      "target": 154,
      "ts": 0
    },
    {
      "source": "_e_35",
      "target": 165,
      "ts": 0
    },
    {
      "source": "_e_35",
      "target": 166,
      "ts": 0
    },
    {
      "source": "_e_35",
      "target": 167,
      "ts": 0
    },
    {
      "source": "_e_35",
      "target": 168,
      "ts": 0
    },
    {
      "source": "_e_35",
      "target": 169,
      "ts": 0
    },
    {
      "source": "_e_35",
      "target": 170,
      "ts": 0
    },
    {
      "source": "_e_35",
      "target": 171,
      "ts": 0
    },
    {
      "source": "_e_35",
      "target": 172,
      "ts": 0
    },
    {
      "source": "_e_35",
      "target": 173,
      "ts": 0
    },
    {
      "source": "_e_35",
      "target": 163,
      "ts": 0
    },
    {
      "source": "_e_35",
      "target": 122,
      "ts": 0
    },
    {
      "source": "_e_35",
      "target": 174,
      "ts": 0
    },
    {
      "source": "_e_35",
      "target": 175,
      "ts": 0
    },
    {
      "source": "_e_35",
      "target": 176,
      "ts": 0
    },
    {
      "source": "_e_36",
      "target": 143,
      "ts": 0
    },
    {
      "source": "_e_36",
      "target": 189,
      "ts": 0
    },
    {
      "source": "_e_36",
      "target": 183,
      "ts": 0
    },
    {
      "source": "_e_37",
      "target": 0,
      "ts": 0
    },
    {
      "source": "_e_37",
      "target": 28,
      "ts": 0
    },
    {
      "source": "_e_38",
      "target": 0,
      "ts": 0
    },
    {
      "source": "_e_38",
      "target": 24,
      "ts": 0
    },
    {
      "source": "_e_39",
      "target": 22,
      "ts": 0
    },
    {
      "source": "_e_39",
      "target": 21,
      "ts": 0
    },
    {
      "source": "_e_39",
      "target": 0,
      "ts": 0
    },
    {
      "source": "_e_39",
      "target": 23,
      "ts": 0
    },
    {
      "source": "_e_40",
      "target": 126,
      "ts": 0
    },
    {
      "source": "_e_40",
      "target": 0,
      "ts": 0
    },
    {
      "source": "_e_40",
      "target": 127,
      "ts": 0
    },
    {
      "source": "_e_40",
      "target": 128,
      "ts": 0
    },
    {
      "source": "_e_40",
      "target": 129,
      "ts": 0
    },
    {
      "source": "_e_40",
      "target": 130,
      "ts": 0
    },
    {
      "source": "_e_41",
      "target": 4,
      "ts": 0
    },
    {
      "source": "_e_41",
      "target": 5,
      "ts": 0
    },
    {
      "source": "_e_41",
      "target": 7,
      "ts": 0
    },
    {
      "source": "_e_41",
      "target": 8,
      "ts": 0
    },
    {
      "source": "_e_41",
      "target": 9,
      "ts": 0
    },
    {
      "source": "_e_41",
      "target": 10,
      "ts": 0
    },
    {
      "source": "_e_41",
      "target": 0,
      "ts": 0
    },
    {
      "source": "_e_41",
      "target": 11,
      "ts": 0
    },
    {
      "source": "_e_41",
      "target": 12,
      "ts": 0
    },
    {
      "source": "_e_42",
      "target": 125,
      "ts": 0
    },
    {
      "source": "_e_42",
      "target": 0,
      "ts": 0
    },
    {
      "source": "_e_43",
      "target": 0,
      "ts": 0
    },
    {
      "source": "_e_43",
      "target": 25,
      "ts": 0
    },
    {
      "source": "_e_44",
      "target": 0,
      "ts": 0
    },
    {
      "source": "_e_44",
      "target": 25,
      "ts": 0
    },
    {
      "source": "_e_45",
      "target": 25,
      "ts": 0
    },
    {
      "source": "_e_45",
      "target": 0,
      "ts": 0
    },
    {
      "source": "_e_45",
      "target": 26,
      "ts": 0
    },
    {
      "source": "_e_45",
      "target": 27,
      "ts": 0
    },
    {
      "source": "_e_46",
      "target": 0,
      "ts": 0
    },
    {
      "source": "_e_46",
      "target": 3,
      "ts": 0
    },
    {
      "source": "_e_47",
      "target": 0,
      "ts": 0
    },
    {
      "source": "_e_47",
      "target": 1,
      "ts": 0
    },
    {
      "source": "_e_48",
      "target": 0,
      "ts": 0
    },
    {
      "source": "_e_48",
      "target": 19,
      "ts": 0
    },
    {
      "source": "_e_49",
      "target": 0,
      "ts": 0
    },
    {
      "source": "_e_49",
      "target": 19,
      "ts": 0
    },
    {
      "source": "_e_50",
      "target": 16,
      "ts": 0
    },
    {
      "source": "_e_50",
      "target": 19,
      "ts": 0
    },
    {
      "source": "_e_50",
      "target": 14,
      "ts": 0
    },
    {
      "source": "_e_50",
      "target": 18,
      "ts": 0
    },
    {
      "source": "_e_50",
      "target": 0,
      "ts": 0
    },
    {
      "source": "_e_50",
      "target": 1,
      "ts": 0
    },
    {
      "source": "_e_51",
      "target": 13,
      "ts": 0
    },
    {
      "source": "_e_51",
      "target": 14,
      "ts": 0
    },
    {
      "source": "_e_51",
      "target": 15,
      "ts": 0
    },
    {
      "source": "_e_51",
      "target": 16,
      "ts": 0
    },
    {
      "source": "_e_51",
      "target": 0,
      "ts": 0
    },
    {
      "source": "_e_51",
      "target": 17,
      "ts": 0
    },
    {
      "source": "_e_51",
      "target": 18,
      "ts": 0
    },
    {
      "source": "_e_52",
      "target": 51,
      "ts": 0
    },
    {
      "source": "_e_52",
      "target": 25,
      "ts": 0
    },
    {
      "source": "_e_53",
      "target": 52,
      "ts": 0
    },
    {
      "source": "_e_53",
      "target": 25,
      "ts": 0
    },
    {
      "source": "_e_54",
      "target": 134,
      "ts": 0
    },
    {
      "source": "_e_54",
      "target": 135,
      "ts": 0
    },
    {
      "source": "_e_54",
      "target": 136,
      "ts": 0
    },
    {
      "source": "_e_54",
      "target": 137,
      "ts": 0
    },
    {
      "source": "_e_54",
      "target": 138,
      "ts": 0
    },
    {
      "source": "_e_54",
      "target": 139,
      "ts": 0
    },
    {
      "source": "_e_54",
      "target": 140,
      "ts": 0
    },
    {
      "source": "_e_54",
      "target": 141,
      "ts": 0
    },
    {
      "source": "_e_54",
      "target": 142,
      "ts": 0
    },
    {
      "source": "_e_54",
      "target": 143,
      "ts": 0
    },
    {
      "source": "_e_54",
      "target": 113,
      "ts": 0
    },
    {
      "source": "_e_55",
      "target": 113,
      "ts": 0
    },
    {
      "source": "_e_55",
      "target": 142,
      "ts": 0
    },
    {
      "source": "_e_55",
      "target": 143,
      "ts": 0
    },
    {
      "source": "_e_55",
      "target": 187,
      "ts": 0
    },
    {
      "source": "_e_55",
      "target": 188,
      "ts": 0
    },
    {
      "source": "_e_56",
      "target": 143,
      "ts": 0
    },
    {
      "source": "_e_56",
      "target": 187,
      "ts": 0
    },
    {
      "source": "_e_56",
      "target": 188,
      "ts": 0
    },
    {
      "source": "_e_56",
      "target": 113,
      "ts": 0
    },
    {
      "source": "_e_56",
      "target": 142,
      "ts": 0
    },
    {
      "source": "_e_57",
      "target": 143,
      "ts": 0
    },
    {
      "source": "_e_57",
      "target": 189,
      "ts": 0
    },
    {
      "source": "_e_57",
      "target": 113,
      "ts": 0
    },
    {
      "source": "_e_57",
      "target": 142,
      "ts": 0
    }
  ]
}