{"nodes": [{"community": "3", "id": "33", "name": "33"},  
			{"community": "0", "id": "1", "name": "1"},  
			{"community": "5", "id": "57", "name": "57"}, 
			{"community": "2", "id": "28", "name": "28"},  
			{"community": "2", "id": "24", "name": "24"}, 
			{"community": "1", "id": "12", "name": "12"}, 
			{"community": "4", "id": "46", "name": "46"}, 
			{"community": "4", "id": "42", "name": "42"}, 
			{"community": "4", "id": "45", "name": "45"}, 
			{"community": "6", "id": "69", "name": "69"}, 
			{"community": "1", "id": "20", "name": "20"}, 
			{"community": "3", "id": "38", "name": "38"}, 
			{"community": "0", "id": "8", "name": "8"}, 
			{"community": "1", "id": "16", "name": "16"}, 
			{"community": "undefined", "id": "76", "name": "76"}, 
			{"community": "6", "id": "66", "name": "66"}, 
			{"community": "6", "id": "73", "name": "73"}, 
			{"community": "5", "id": "62", "name": "62"}, 
			{"community": "5", "id": "56", "name": "56"}, 
			{"community": "4", "id": "52", "name": "52"}, 
			{"community": "3", "id": "32", "name": "32"}, 
			{"community": "4", "id": "43", "name": "43"}, 
			{"community": "undefined", "id": "77", "name": "77"}, 
			{"community": "1", "id": "15", "name": "15"}, 
			{"community": "2", "id": "25", "name": "25"}, 
			{"community": "4", "id": "53", "name": "53"}, 
			{"community": "3", "id": "35", "name": "35"}, 
			{"community": "1", "id": "13", "name": "13"}, 
			{"community": "4", "id": "50", "name": "50"}, 
			{"community": "5", "id": "61", "name": "61"}, 
			{"community": "5", "id": "60", "name": "60"}, 
			{"community": "2", "id": "31", "name": "31"}, 
			{"community": "6", "id": "68", "name": "68"}, 
			{"community": "2", "id": "30", "name": "30"}, 
			{"community": "4", "id": "48", "name": "48"}, 
			{"community": "3", "id": "41", "name": "41"}, 
			{"community": "2", "id": "29", "name": "29"}, 
			{"community": "undefined", "id": "79", "name": "79"}, 
			{"community": "6", "id": "70", "name": "70"}, 
			{"community": "2", "id": "22", "name": "22"}, 
			{"community": "5", "id": "63", "name": "63"}, 
			{"community": "1", "id": "17", "name": "17"}, 
			{"community": "0", "id": "4", "name": "4"}, 
			{"community": "6", "id": "65", "name": "65"}, 
			{"community": "5", "id": "59", "name": "59"}, 
			{"community": "3", "id": "37", "name": "37"}, 
			{"community": "5", "id": "58", "name": "58"}, 
			{"community": "6", "id": "72", "name": "72"}, 
			{"community": "0", "id": "6", "name": "6"}, 
			{"community": "undefined", "id": "78", "name": "78"}, 
			{"community": "2", "id": "26", "name": "26"}, 
			{"community": "undefined", "id": "75", "name": "75"}, 
			{"community": "1", "id": "11", "name": "11"}, 
			{"community": "6", "id": "71", "name": "71"}, 
			{"community": "5", "id": "55", "name": "55"},  
			{"community": "4", "id": "44", "name": "44"}, 
			{"community": "3", "id": "36", "name": "36"}, 
			{"community": "4", "id": "47", "name": "47"}, 
			{"community": "0", "id": "7", "name": "7"}, 
			{"community": "1", "id": "19", "name": "19"}, 
			{"community": "undefined", "id": "80", "name": "80"}, 
			{"community": "4", "id": "49", "name": "49"}, 
			{"community": "0", "id": "3", "name": "3"}, 
			{"community": "6", "id": "64", "name": "64"}, 
			{"community": "6", "id": "67", "name": "67"}, 
			{"community": "0", "id": "2", "name": "2"}, 
			{"community": "1", "id": "18", "name": "18"}, 
			{"community": "2", "id": "27", "name": "27"}, 
			{"community": "3", "id": "39", "name": "39"}, 
			{"community": "3", "id": "40", "name": "40"}, 
			{"community": "3", "id": "34", "name": "34"}, 
			{"community": "0", "id": "0", "name": "0"}, 
			{"community": "4", "id": "51", "name": "51"},
			{"community": "0", "id": "10", "name": "10"}, 
			{"community": "5", "id": "54", "name": "54"}, 
			{"community": "2", "id": "23", "name": "23"}, 
			{"community": "0", "id": "5", "name": "5"}, 
			{"community": "0", "id": "9", "name": "9"}, 
			{"community": "1", "id": "21", "name": "21"}, 
			{"community": "6", "id": "74", "name": "74"},
			{"community": "1", "id": "14", "name": "14"}
			], "edges": [{"ids": ["2", "1"], "ts": "1"}, 
						{"ids": ["3", "1"], "ts": "1"}, 
						{"ids": ["3", "2"], "ts": "1"}, 
						{"ids": ["4", "1"], "ts": "1"}, 
						{"ids": ["4", "2"], "ts": "1"}, 
						{"ids": ["4", "3"], "ts": "1"}, 
						{"ids": ["5", "1"], "ts": "1"}, 
						{"ids": ["5", "2"], "ts": "1"}, 
						{"ids": ["5", "3"], "ts": "1"}, 
						{"ids": ["5", "4"], "ts": "1"}, 
						{"ids": ["6", "1"], "ts": "1"}, 
						{"ids": ["6", "2"], "ts": "1"}, 
						{"ids": ["6", "3"], "ts": "1"}, 
						{"ids": ["6", "4"], "ts": "1"}, 
						{"ids": ["6", "5"], "ts": "1"}, 
						{"ids": ["7", "1"], "ts": "1"}, 
						{"ids": ["7", "2"], "ts": "1"}, 
						{"ids": ["7", "3"], "ts": "1"}, 
						{"ids": ["7", "4"], "ts": "1"}, 
						{"ids": ["7", "5"], "ts": "1"}, 
						{"ids": ["7", "6"], "ts": "1"}, 
						{"ids": ["8", "1"], "ts": "1"}, 
						{"ids": ["8", "2"], "ts": "1"}, 
						{"ids": ["8", "3"], "ts": "1"}, 
						{"ids": ["8", "4"], "ts": "1"}, 
						{"ids": ["8", "5"], "ts": "1"}, 
						{"ids": ["8", "6"], "ts": "1"}, 
						{"ids": ["8", "7"], "ts": "1"}, 
						{"ids": ["9", "1"], "ts": "1"}, 
						{"ids": ["9", "2"], "ts": "1"}, 
						{"ids": ["9", "3"], "ts": "1"}, 
						{"ids": ["9", "4"], "ts": "1"}, 
						{"ids": ["9", "5"], "ts": "1"}, 
						{"ids": ["9", "6"], "ts": "1"}, 
						{"ids": ["9", "7"], "ts": "1"}, 
						{"ids": ["9", "8"], "ts": "1"}, 
						{"ids": ["10", "1"], "ts": "1"},
						{"ids": ["10", "2"], "ts": "1"}, 
						{"ids": ["10", "3"], "ts": "1"}, 
						{"ids": ["10", "4"], "ts": "1"}, 
						{"ids": ["10", "5"], "ts": "1"}, 
						{"ids": ["10", "6"], "ts": "1"}, 
						{"ids": ["10", "7"], "ts": "1"}, 
						{"ids": ["10", "8"], "ts": "1"}, 
						{"ids": ["10", "9"], "ts": "1"}, 
						{"ids": ["14", "13"], "ts": "1"}, 
						{"ids": ["15", "13"], "ts": "1"}, 
						{"ids": ["15", "14"], "ts": "1"}, 
						{"ids": ["16", "13"], "ts": "1"}, 
						{"ids": ["16", "14"], "ts": "1"}, 
						{"ids": ["16", "15"], "ts": "1"}, 
						{"ids": ["17", "13"], "ts": "1"}, 
						{"ids": ["17", "14"], "ts": "1"}, 
						{"ids": ["17", "15"], "ts": "1"}, 
						{"ids": ["17", "16"], "ts": "1"}, 
						{"ids": ["18", "13"], "ts": "1"}, 
						{"ids": ["18", "14"], "ts": "1"}, 
						{"ids": ["18", "15"], "ts": "1"}, 
						{"ids": ["18", "16"], "ts": "1"}, 
						{"ids": ["18", "17"], "ts": "1"}, 
						{"ids": ["19", "13"], "ts": "1"}, 
						{"ids": ["19", "14"], "ts": "1"}, 
						{"ids": ["19", "15"], "ts": "1"}, 
						{"ids": ["19", "16"], "ts": "1"}, 
						{"ids": ["19", "17"], "ts": "1"}, 
						{"ids": ["19", "18"], "ts": "1"}, 
						{"ids": ["20", "13"], "ts": "1"}, 
						{"ids": ["20", "14"], "ts": "1"}, 
						{"ids": ["20", "15"], "ts": "1"}, 
						{"ids": ["20", "16"], "ts": "1"}, 
						{"ids": ["20", "17"], "ts": "1"}, 
						{"ids": ["20", "18"], "ts": "1"}, 
						{"ids": ["20", "19"], "ts": "1"}, 
						{"ids": ["21", "13"], "ts": "1"}, 
						{"ids": ["21", "14"], "ts": "1"}, 
						{"ids": ["21", "15"], "ts": "1"}, 
						{"ids": ["21", "16"], "ts": "1"}, 
						{"ids": ["21", "17"], "ts": "1"}, 
						{"ids": ["21", "18"], "ts": "1"}, 
						{"ids": ["21", "19"], "ts": "1"}, 
						{"ids": ["21", "20"], "ts": "1"}, 
						{"ids": ["24", "23"], "ts": "1"}, 
						{"ids": ["25", "23"], "ts": "1"}, 
						{"ids": ["25", "24"], "ts": "1"}, 
						{"ids": ["26", "23"], "ts": "1"}, 
						{"ids": ["26", "24"], "ts": "1"}, 
						{"ids": ["26", "25"], "ts": "1"}, 
						{"ids": ["27", "23"], "ts": "1"}, 
						{"ids": ["27", "24"], "ts": "1"}, 
						{"ids": ["27", "25"], "ts": "1"}, 
						{"ids": ["27", "26"], "ts": "1"}, 
						{"ids": ["28", "23"], "ts": "1"}, 
						{"ids": ["28", "24"], "ts": "1"}, 
						{"ids": ["28", "25"], "ts": "1"}, 
						{"ids": ["28", "26"], "ts": "1"}, 
						{"ids": ["28", "27"], "ts": "1"}, 
						{"ids": ["29", "23"], "ts": "1"}, 
						{"ids": ["29", "24"], "ts": "1"}, 
						{"ids": ["29", "25"], "ts": "1"}, 
						{"ids": ["29", "26"], "ts": "1"}, 
						{"ids": ["29", "27"], "ts": "1"}, 
						{"ids": ["29", "28"], "ts": "1"}, 
						{"ids": ["30", "23"], "ts": "1"}, 
						{"ids": ["30", "24"], "ts": "1"}, 
						{"ids": ["30", "25"], "ts": "1"}, 
						{"ids": ["30", "26"], "ts": "1"}, 
						{"ids": ["30", "27"], "ts": "1"}, 
						{"ids": ["30", "28"], "ts": "1"}, 
						{"ids": ["30", "29"], "ts": "1"}, 
						{"ids": ["31", "23"], "ts": "1"}, 
						{"ids": ["31", "24"], "ts": "1"}, 
						{"ids": ["31", "25"], "ts": "1"}, 
						{"ids": ["31", "26"], "ts": "1"}, 
						{"ids": ["31", "27"], "ts": "1"}, 
						{"ids": ["31", "28"], "ts": "1"}, 
						{"ids": ["31", "29"], "ts": "1"}, 
						{"ids": ["31", "30"], "ts": "1"}, 
						{"ids": ["34", "33"], "ts": "1"}, 
						{"ids": ["35", "33"], "ts": "1"}, 
						{"ids": ["35", "34"], "ts": "1"}, 
						{"ids": ["36", "33"], "ts": "1"}, 
						{"ids": ["36", "34"], "ts": "1"}, 
						{"ids": ["36", "35"], "ts": "1"}, 
						{"ids": ["37", "33"], "ts": "1"}, 
						{"ids": ["37", "34"], "ts": "1"}, 
						{"ids": ["37", "35"], "ts": "1"}, 
						{"ids": ["37", "36"], "ts": "1"}, 
						{"ids": ["38", "33"], "ts": "1"}, 
						{"ids": ["38", "34"], "ts": "1"}, 
						{"ids": ["38", "35"], "ts": "1"}, 
						{"ids": ["38", "36"], "ts": "1"}, 
						{"ids": ["38", "37"], "ts": "1"}, 
						{"ids": ["39", "33"], "ts": "1"}, 
						{"ids": ["39", "34"], "ts": "1"}, 
						{"ids": ["39", "35"], "ts": "1"}, 
						{"ids": ["39", "36"], "ts": "1"}, 
						{"ids": ["39", "37"], "ts": "1"}, 
						{"ids": ["39", "38"], "ts": "1"}, 
						{"ids": ["40", "33"], "ts": "1"}, 
						{"ids": ["40", "34"], "ts": "1"}, 
						{"ids": ["40", "35"], "ts": "1"}, 
						{"ids": ["40", "36"], "ts": "1"}, 
						{"ids": ["40", "37"], "ts": "1"}, 
						{"ids": ["40", "38"], "ts": "1"}, 
						{"ids": ["40", "39"], "ts": "1"}, 
						{"ids": ["41", "33"], "ts": "1"}, 
						{"ids": ["41", "34"], "ts": "1"},
						{"ids": ["41", "35"], "ts": "1"},
						{"ids": ["41", "36"], "ts": "1"},
						{"ids": ["41", "37"], "ts": "1"},
						{"ids": ["41", "38"], "ts": "1"},
						{"ids": ["41", "39"], "ts": "1"}, 
						{"ids": ["41", "40"], "ts": "1"}, 
						{"ids": ["44", "43"], "ts": "1"}, 
						{"ids": ["45", "43"], "ts": "1"}, 
						{"ids": ["45", "44"], "ts": "1"}, 
						{"ids": ["46", "43"], "ts": "1"}, 
						{"ids": ["46", "44"], "ts": "1"}, 
						{"ids": ["46", "45"], "ts": "1"}, 
						{"ids": ["47", "43"], "ts": "1"}, 
						{"ids": ["47", "44"], "ts": "1"},
						{"ids": ["47", "45"], "ts": "1"},
						{"ids": ["47", "46"], "ts": "1"},
						{"ids": ["48", "43"], "ts": "1"},
						{"ids": ["48", "44"], "ts": "1"},
						{"ids": ["48", "45"], "ts": "1"},
						{"ids": ["48", "46"], "ts": "1"},
						{"ids": ["48", "47"], "ts": "1"},
						{"ids": ["49", "43"], "ts": "1"},
						{"ids": ["49", "44"], "ts": "1"},
						{"ids": ["49", "45"], "ts": "1"},
						{"ids": ["49", "46"], "ts": "1"},
						{"ids": ["49", "47"], "ts": "1"},
						{"ids": ["49", "48"], "ts": "1"},
						{"ids": ["50", "43"], "ts": "1"},
						{"ids": ["50", "44"], "ts": "1"},
						{"ids": ["50", "45"], "ts": "1"},
						{"ids": ["50", "46"], "ts": "1"},
						{"ids": ["50", "47"], "ts": "1"},
						{"ids": ["50", "48"], "ts": "1"},
						{"ids": ["50", "49"], "ts": "1"},
						{"ids": ["51", "43"], "ts": "1"},
						{"ids": ["51", "44"], "ts": "1"},
						{"ids": ["51", "45"], "ts": "1"},
						{"ids": ["51", "46"], "ts": "1"},
						{"ids": ["51", "47"], "ts": "1"},
						{"ids": ["51", "48"], "ts": "1"},
						{"ids": ["51", "49"], "ts": "1"},
						{"ids": ["51", "50"], "ts": "1"},
						{"ids": ["52", "43"], "ts": "1"},
						{"ids": ["52", "44"], "ts": "1"},
						{"ids": ["52", "45"], "ts": "1"},
						{"ids": ["52", "46"], "ts": "1"},
						{"ids": ["52", "47"], "ts": "1"},
						{"ids": ["52", "48"], "ts": "1"},
						{"ids": ["52", "49"], "ts": "1"},
						{"ids": ["52", "50"], "ts": "1"},
						{"ids": ["52", "51"], "ts": "1"},
						{"ids": ["53", "43"], "ts": "1"},
						{"ids": ["53", "44"], "ts": "1"},
						{"ids": ["53", "45"], "ts": "1"}, 
						{"ids": ["53", "46"], "ts": "1"}, 
						{"ids": ["53", "47"], "ts": "1"}, 
						{"ids": ["53", "48"], "ts": "1"}, 
						{"ids": ["53", "49"], "ts": "1"}, 
						{"ids": ["53", "50"], "ts": "1"}, 
						{"ids": ["53", "51"], "ts": "1"}, 
						{"ids": ["53", "52"], "ts": "1"}, 
						{"ids": ["56", "55"], "ts": "1"}, 
						{"ids": ["57", "55"], "ts": "1"}, 
						{"ids": ["57", "56"], "ts": "1"}, 
						{"ids": ["58", "55"], "ts": "1"}, 
						{"ids": ["58", "56"], "ts": "1"}, 
						{"ids": ["58", "57"], "ts": "1"}, 
						{"ids": ["59", "55"], "ts": "1"}, 
						{"ids": ["59", "56"], "ts": "1"}, 
						{"ids": ["59", "57"], "ts": "1"}, 
						{"ids": ["59", "58"], "ts": "1"}, 
						{"ids": ["60", "55"], "ts": "1"}, 
						{"ids": ["60", "56"], "ts": "1"}, 
						{"ids": ["60", "57"], "ts": "1"}, 
						{"ids": ["60", "58"], "ts": "1"}, 
						{"ids": ["60", "59"], "ts": "1"}, 
						{"ids": ["61", "55"], "ts": "1"}, 
						{"ids": ["61", "56"], "ts": "1"}, 
						{"ids": ["61", "57"], "ts": "1"}, 
						{"ids": ["61", "58"], "ts": "1"}, 
						{"ids": ["61", "59"], "ts": "1"}, 
						{"ids": ["61", "60"], "ts": "1"}, 
						{"ids": ["62", "55"], "ts": "1"}, 
						{"ids": ["62", "56"], "ts": "1"}, 
						{"ids": ["62", "57"], "ts": "1"}, 
						{"ids": ["62", "58"], "ts": "1"}, 
						{"ids": ["62", "59"], "ts": "1"}, 
						{"ids": ["62", "60"], "ts": "1"}, 
						{"ids": ["62", "61"], "ts": "1"}, 
						{"ids": ["63", "55"], "ts": "1"}, 
						{"ids": ["63", "56"], "ts": "1"}, 
						{"ids": ["63", "57"], "ts": "1"}, 
						{"ids": ["63", "58"], "ts": "1"}, 
						{"ids": ["63", "59"], "ts": "1"}, 
						{"ids": ["63", "60"], "ts": "1"}, 
						{"ids": ["63", "61"], "ts": "1"}, 
						{"ids": ["63", "62"], "ts": "1"}, 
						{"ids": ["66", "65"], "ts": "1"}, 
						{"ids": ["67", "65"], "ts": "1"}, 
						{"ids": ["67", "66"], "ts": "1"}, 
						{"ids": ["68", "65"], "ts": "1"}, 
						{"ids": ["68", "66"], "ts": "1"}, 
						{"ids": ["68", "67"], "ts": "1"}, 
						{"ids": ["69", "65"], "ts": "1"}, 
						{"ids": ["69", "66"], "ts": "1"}, 
						{"ids": ["69", "67"], "ts": "1"}, 
						{"ids": ["69", "68"], "ts": "1"}, 
						{"ids": ["70", "65"], "ts": "1"}, 
						{"ids": ["70", "66"], "ts": "1"}, 
						{"ids": ["70", "67"], "ts": "1"}, 
						{"ids": ["70", "68"], "ts": "1"}, 
						{"ids": ["70", "69"], "ts": "1"}, 
						{"ids": ["71", "65"], "ts": "1"}, 
						{"ids": ["71", "66"], "ts": "1"}, 
						{"ids": ["71", "67"], "ts": "1"}, 
						{"ids": ["71", "68"], "ts": "1"}, 
						{"ids": ["71", "69"], "ts": "1"}, 
						{"ids": ["71", "70"], "ts": "1"}, 
						{"ids": ["72", "65"], "ts": "1"}, 
						{"ids": ["72", "66"], "ts": "1"}, 
						{"ids": ["72", "67"], "ts": "1"}, 
						{"ids": ["72", "68"], "ts": "1"}, 
						{"ids": ["72", "69"], "ts": "1"}, 
						{"ids": ["72", "70"], "ts": "1"}, 
						{"ids": ["72", "71"], "ts": "1"}, 
						{"ids": ["73", "65"], "ts": "1"}, 
						{"ids": ["73", "66"], "ts": "1"}, 
						{"ids": ["73", "67"], "ts": "1"}, 
						{"ids": ["73", "68"], "ts": "1"}, 
						{"ids": ["73", "69"], "ts": "1"}, 
						{"ids": ["73", "70"], "ts": "1"}, 
						{"ids": ["73", "71"], "ts": "1"}, 
						{"ids": ["73", "72"], "ts": "1"}, 
						{"ids": ["74", "65"], "ts": "1"}, 
						{"ids": ["74", "66"], "ts": "1"}, 
						{"ids": ["74", "67"], "ts": "1"}, 
						{"ids": ["74", "68"], "ts": "1"}, 
						{"ids": ["74", "69"], "ts": "1"}, 
						{"ids": ["74", "70"], "ts": "1"}, 
						{"ids": ["74", "71"], "ts": "1"}, 
						{"ids": ["74", "72"], "ts": "1"}, 
						{"ids": ["74", "73"], "ts": "1"}, 
						{"ids": ["76", "76"], "ts": "1"}, 
						{"ids": ["77", "76"], "ts": "1"}, 
						{"ids": ["77", "77"], "ts": "1"}, 
						{"ids": ["78", "76"], "ts": "1"}, 
						{"ids": ["78", "77"], "ts": "1"}, 
						{"ids": ["78", "78"], "ts": "1"}, 
						{"ids": ["79", "76"], "ts": "1"}, 
						{"ids": ["79", "77"], "ts": "1"}, 
						{"ids": ["79", "78"], "ts": "1"}, 
						{"ids": ["79", "79"], "ts": "1"}, 
						{"ids": ["80", "76"], "ts": "1"}, 
						{"ids": ["80", "77"], "ts": "1"}, 
						{"ids": ["80", "78"], "ts": "1"}, 
						{"ids": ["80", "79"], "ts": "1"}, 
						{"ids": ["80", "80"], "ts": "1"}, 
						{"ids": ["30", "57"], "ts": "1"}, 
						{"ids": ["26", "6"], "ts": "1"}, 
						{"ids": ["41", "16"], "ts": "1"}, 
						{"ids": ["59", "47"], "ts": "1"}, 
						{"ids": ["47", "48"], "ts": "1"}, 
						{"ids": ["28", "48"], "ts": "1"}, 
						{"ids": ["52", "20"], "ts": "1"}, 
						{"ids": ["80", "18"], "ts": "1"}, 
						{"ids": ["3", "2"], "ts": "2"}, 
						{"ids": ["4", "2"], "ts": "2"}, 
						{"ids": ["4", "3"], "ts": "2"}, 
						{"ids": ["5", "2"], "ts": "2"}, 
						{"ids": ["5", "3"], "ts": "2"}, 
						{"ids": ["5", "4"], "ts": "2"}, 
						{"ids": ["6", "2"], "ts": "2"}, 
						{"ids": ["6", "3"], "ts": "2"}, 
						{"ids": ["6", "4"], "ts": "2"}, 
						{"ids": ["6", "5"], "ts": "2"}, 
						{"ids": ["7", "2"], "ts": "2"}, 
						{"ids": ["7", "3"], "ts": "2"}, 
						{"ids": ["7", "4"], "ts": "2"}, 
						{"ids": ["7", "5"], "ts": "2"}, 
						{"ids": ["7", "6"], "ts": "2"}, 
						{"ids": ["8", "2"], "ts": "2"}, 
						{"ids": ["8", "3"], "ts": "2"}, 
						{"ids": ["8", "4"], "ts": "2"}, 
						{"ids": ["8", "5"], "ts": "2"}, 
						{"ids": ["8", "6"], "ts": "2"}, 
						{"ids": ["8", "7"], "ts": "2"}, 
						{"ids": ["9", "2"], "ts": "2"}, 
						{"ids": ["9", "3"], "ts": "2"}, 
						{"ids": ["9", "4"], "ts": "2"}, 
						{"ids": ["9", "5"], "ts": "2"}, 
						{"ids": ["9", "6"], "ts": "2"}, 
						{"ids": ["9", "7"], "ts": "2"}, 
						{"ids": ["9", "8"], "ts": "2"}, 
						{"ids": ["10", "2"], "ts": "2"},
						{"ids": ["10", "3"], "ts": "2"},
						{"ids": ["10", "4"], "ts": "2"},
						{"ids": ["10", "5"], "ts": "2"},
						{"ids": ["10", "6"], "ts": "2"},
						{"ids": ["10", "7"], "ts": "2"},
						{"ids": ["10", "8"], "ts": "2"},
						{"ids": ["10", "9"], "ts": "2"},
						{"ids": ["13", "12"], "ts": "2"},
						{"ids": ["15", "12"], "ts": "2"}, 
						{"ids": ["15", "13"], "ts": "2"}, 
						{"ids": ["16", "12"], "ts": "2"}, 
						{"ids": ["16", "13"], "ts": "2"}, 
						{"ids": ["16", "15"], "ts": "2"}, 
						{"ids": ["17", "12"], "ts": "2"}, 
						{"ids": ["17", "13"], "ts": "2"}, 
						{"ids": ["17", "15"], "ts": "2"}, 
						{"ids": ["17", "16"], "ts": "2"}, 
						{"ids": ["18", "12"], "ts": "2"}, 
						{"ids": ["18", "13"], "ts": "2"}, 
						{"ids": ["18", "15"], "ts": "2"}, 
						{"ids": ["18", "16"], "ts": "2"}, 
						{"ids": ["18", "17"], "ts": "2"}, 
						{"ids": ["19", "12"], "ts": "2"}, 
						{"ids": ["19", "13"], "ts": "2"},
						{"ids": ["19", "15"], "ts": "2"}, 
						{"ids": ["19", "16"], "ts": "2"}, 
						{"ids": ["19", "17"], "ts": "2"}, 
						{"ids": ["19", "18"], "ts": "2"}, 
						{"ids": ["20", "12"], "ts": "2"}, 
						{"ids": ["20", "13"], "ts": "2"}, 
						{"ids": ["20", "15"], "ts": "2"}, 
						{"ids": ["20", "16"], "ts": "2"}, 
						{"ids": ["20", "17"], "ts": "2"}, 
						{"ids": ["20", "18"], "ts": "2"}, 
						{"ids": ["20", "19"], "ts": "2"}, 
						{"ids": ["21", "12"], "ts": "2"}, 
						{"ids": ["21", "13"], "ts": "2"}, 
						{"ids": ["21", "15"], "ts": "2"}, 
						{"ids": ["21", "16"], "ts": "2"}, 
						{"ids": ["21", "17"], "ts": "2"}, 
						{"ids": ["21", "18"], "ts": "2"}, 
						{"ids": ["21", "19"], "ts": "2"}, 
						{"ids": ["21", "20"], "ts": "2"}, 
						{"ids": ["24", "23"], "ts": "2"}, 
						{"ids": ["25", "23"], "ts": "2"}, 
						{"ids": ["25", "24"], "ts": "2"}, 
						{"ids": ["26", "23"], "ts": "2"}, 
						{"ids": ["26", "24"], "ts": "2"}, 
						{"ids": ["26", "25"], "ts": "2"}, 
						{"ids": ["27", "23"], "ts": "2"}, 
						{"ids": ["27", "24"], "ts": "2"}, 
						{"ids": ["27", "25"], "ts": "2"}, 
						{"ids": ["27", "26"], "ts": "2"}, 
						{"ids": ["28", "23"], "ts": "2"}, 
						{"ids": ["28", "24"], "ts": "2"}, 
						{"ids": ["28", "25"], "ts": "2"}, 
						{"ids": ["28", "26"], "ts": "2"}, 
						{"ids": ["28", "27"], "ts": "2"}, 
						{"ids": ["29", "23"], "ts": "2"}, 
						{"ids": ["29", "24"], "ts": "2"}, 
						{"ids": ["29", "25"], "ts": "2"}, 
						{"ids": ["29", "26"], "ts": "2"}, 
						{"ids": ["29", "27"], "ts": "2"}, 
						{"ids": ["29", "28"], "ts": "2"},
						{"ids": ["30", "23"], "ts": "2"}, 
						{"ids": ["30", "24"], "ts": "2"}, 
						{"ids": ["30", "25"], "ts": "2"}, 
						{"ids": ["30", "26"], "ts": "2"}, 
						{"ids": ["30", "27"], "ts": "2"}, 
						{"ids": ["30", "28"], "ts": "2"}, 
						{"ids": ["30", "29"], "ts": "2"}, 
						{"ids": ["35", "33"], "ts": "2"}, 
						{"ids": ["36", "33"], "ts": "2"}, 
						{"ids": ["36", "35"], "ts": "2"}, 
						{"ids": ["37", "33"], "ts": "2"}, 
						{"ids": ["37", "35"], "ts": "2"}, 
						{"ids": ["37", "36"], "ts": "2"}, 
						{"ids": ["38", "33"], "ts": "2"}, 
						{"ids": ["38", "35"], "ts": "2"}, 
						{"ids": ["38", "36"], "ts": "2"}, 
						{"ids": ["38", "37"], "ts": "2"}, 
						{"ids": ["39", "33"], "ts": "2"}, 
						{"ids": ["39", "35"], "ts": "2"}, 
						{"ids": ["39", "36"], "ts": "2"}, 
						{"ids": ["39", "37"], "ts": "2"}, 
						{"ids": ["39", "38"], "ts": "2"}, 
						{"ids": ["40", "33"], "ts": "2"}, 
						{"ids": ["40", "35"], "ts": "2"}, 
						{"ids": ["40", "36"], "ts": "2"}, 
						{"ids": ["40", "37"], "ts": "2"}, 
						{"ids": ["40", "38"], "ts": "2"},
						{"ids": ["40", "39"], "ts": "2"}, 
						{"ids": ["41", "33"], "ts": "2"}, 
						{"ids": ["41", "35"], "ts": "2"}, 
						{"ids": ["41", "36"], "ts": "2"}, 
						{"ids": ["41", "37"], "ts": "2"}, 
						{"ids": ["41", "38"], "ts": "2"}, 
						{"ids": ["41", "39"], "ts": "2"}, 
						{"ids": ["41", "40"], "ts": "2"}, 
						{"ids": ["44", "43"], "ts": "2"}, 
						{"ids": ["45", "43"], "ts": "2"}, 
						{"ids": ["45", "44"], "ts": "2"}, 
						{"ids": ["46", "43"], "ts": "2"}, 
						{"ids": ["46", "44"], "ts": "2"}, 
						{"ids": ["46", "45"], "ts": "2"}, 
						{"ids": ["47", "43"], "ts": "2"}, 
						{"ids": ["47", "44"], "ts": "2"}, 
						{"ids": ["47", "45"], "ts": "2"}, 
						{"ids": ["47", "46"], "ts": "2"}, 
						{"ids": ["48", "43"], "ts": "2"}, 
						{"ids": ["48", "44"], "ts": "2"}, 
						{"ids": ["48", "45"], "ts": "2"}, 
						{"ids": ["48", "46"], "ts": "2"}, 
						{"ids": ["48", "47"], "ts": "2"}, 
						{"ids": ["49", "43"], "ts": "2"}, 
						{"ids": ["49", "44"], "ts": "2"}, 
						{"ids": ["49", "45"], "ts": "2"}, 
						{"ids": ["49", "46"], "ts": "2"}, 
						{"ids": ["49", "47"], "ts": "2"}, 
						{"ids": ["49", "48"], "ts": "2"}, 
						{"ids": ["50", "43"], "ts": "2"}, 
						{"ids": ["50", "44"], "ts": "2"}, 
						{"ids": ["50", "45"], "ts": "2"}, 
						{"ids": ["50", "46"], "ts": "2"}, 
						{"ids": ["50", "47"], "ts": "2"},
						{"ids": ["50", "48"], "ts": "2"},
						{"ids": ["50", "49"], "ts": "2"},
						{"ids": ["51", "43"], "ts": "2"},
						{"ids": ["51", "44"], "ts": "2"},
						{"ids": ["51", "45"], "ts": "2"},
						{"ids": ["51", "46"], "ts": "2"},
						{"ids": ["51", "47"], "ts": "2"},
						{"ids": ["51", "48"], "ts": "2"},
						{"ids": ["51", "49"], "ts": "2"},
						{"ids": ["51", "50"], "ts": "2"},
						{"ids": ["52", "43"], "ts": "2"},
						{"ids": ["52", "44"], "ts": "2"},
						{"ids": ["52", "45"], "ts": "2"},
						{"ids": ["52", "46"], "ts": "2"},
						{"ids": ["52", "47"], "ts": "2"},
						{"ids": ["52", "48"], "ts": "2"},
						{"ids": ["52", "49"], "ts": "2"},
						{"ids": ["52", "50"], "ts": "2"},
						{"ids": ["52", "51"], "ts": "2"},
						{"ids": ["57", "55"], "ts": "2"},
						{"ids": ["58", "55"], "ts": "2"},
						{"ids": ["58", "57"], "ts": "2"},
						{"ids": ["59", "55"], "ts": "2"},
						{"ids": ["59", "57"], "ts": "2"},
						{"ids": ["59", "58"], "ts": "2"},
						{"ids": ["60", "55"], "ts": "2"},
						{"ids": ["60", "57"], "ts": "2"}, 
						{"ids": ["60", "58"], "ts": "2"}, 
						{"ids": ["60", "59"], "ts": "2"}, 
						{"ids": ["61", "55"], "ts": "2"}, 
						{"ids": ["61", "57"], "ts": "2"}, 
						{"ids": ["61", "58"], "ts": "2"}, 
						{"ids": ["61", "59"], "ts": "2"}, 
						{"ids": ["61", "60"], "ts": "2"}, 
						{"ids": ["62", "55"], "ts": "2"}, 
						{"ids": ["62", "57"], "ts": "2"}, 
						{"ids": ["62", "58"], "ts": "2"}, 
						{"ids": ["62", "59"], "ts": "2"}, 
						{"ids": ["62", "60"], "ts": "2"},
						{"ids": ["62", "61"], "ts": "2"}, 
						{"ids": ["63", "55"], "ts": "2"}, 
						{"ids": ["63", "57"], "ts": "2"}, 
						{"ids": ["63", "58"], "ts": "2"}, 
						{"ids": ["63", "59"], "ts": "2"}, 
						{"ids": ["63", "60"], "ts": "2"}, 
						{"ids": ["63", "61"], "ts": "2"}, 
						{"ids": ["63", "62"], "ts": "2"}, 
						{"ids": ["66", "65"], "ts": "2"}, 
						{"ids": ["67", "65"], "ts": "2"}, 
						{"ids": ["67", "66"], "ts": "2"}, 
						{"ids": ["68", "65"], "ts": "2"}, 
						{"ids": ["68", "66"], "ts": "2"}, 
						{"ids": ["68", "67"], "ts": "2"}, 
						{"ids": ["70", "65"], "ts": "2"}, 
						{"ids": ["70", "66"], "ts": "2"}, 
						{"ids": ["70", "67"], "ts": "2"}, 
						{"ids": ["70", "68"], "ts": "2"}, 
						{"ids": ["72", "65"], "ts": "2"}, 
						{"ids": ["72", "66"], "ts": "2"}, 
						{"ids": ["72", "67"], "ts": "2"}, 
						{"ids": ["72", "68"], "ts": "2"}, 
						{"ids": ["72", "70"], "ts": "2"}, 
						{"ids": ["73", "65"], "ts": "2"}, 
						{"ids": ["73", "66"], "ts": "2"}, 
						{"ids": ["73", "67"], "ts": "2"}, 
						{"ids": ["73", "68"], "ts": "2"}, 
						{"ids": ["73", "70"], "ts": "2"}, 
						{"ids": ["73", "72"], "ts": "2"}, 
						{"ids": ["74", "65"], "ts": "2"}, 
						{"ids": ["74", "66"], "ts": "2"}, 
						{"ids": ["74", "67"], "ts": "2"}, 
						{"ids": ["74", "68"], "ts": "2"}, 
						{"ids": ["74", "70"], "ts": "2"}, 
						{"ids": ["74", "72"], "ts": "2"}, 
						{"ids": ["74", "73"], "ts": "2"}, 
						{"ids": ["76", "76"], "ts": "2"}, 
						{"ids": ["76", "48"], "ts": "2"},
						{"ids": ["77", "76"], "ts": "2"}, 
						{"ids": ["77", "77"], "ts": "2"}, 
						{"ids": ["78", "76"], "ts": "2"}, 
						{"ids": ["78", "77"], "ts": "2"}, 
						{"ids": ["78", "78"], "ts": "2"}, 
						{"ids": ["79", "76"], "ts": "2"}, 
						{"ids": ["79", "77"], "ts": "2"}, 
						{"ids": ["79", "78"], "ts": "2"}, 
						{"ids": ["79", "79"], "ts": "2"}, 
						{"ids": ["80", "76"], "ts": "2"}, 
						{"ids": ["80", "77"], "ts": "2"}, 
						{"ids": ["80", "78"], "ts": "2"}, 
						{"ids": ["80", "79"], "ts": "2"}, 
						{"ids": ["80", "80"], "ts": "2"}, 
						{"ids": ["30", "57"], "ts": "2"}, 
						{"ids": ["26", "6"], "ts": "2"}, 
						{"ids": ["52", "12"], "ts": "2"}, 
						{"ids": ["41", "16"], "ts": "2"}, 
						{"ids": ["59", "47"], "ts": "2"}, 
						{"ids": ["47", "48"], "ts": "2"}, 
						{"ids": ["28", "48"], "ts": "2"}, 
						{"ids": ["52", "20"], "ts": "2"}, 
						{"ids": ["80", "18"], "ts": "2"}, 
						{"ids": ["25", "39"], "ts": "2"}, 
						{"ids": ["43", "70"], "ts": "2"}, 
						{"ids": ["13", "23"], "ts": "2"}, 
						{"ids": ["57", "2"], "ts": "2"}, 
						{"ids": ["76", "44"], "ts": "2"}, 
						{"ids": ["9", "38"], "ts": "2"}, 
						{"ids": ["33", "13"], "ts": "2"}, 
						{"ids": ["46", "8"], "ts": "2"}, 
						{"ids": ["40", "47"], "ts": "2"}, 
						{"ids": ["24", "61"], "ts": "2"}, 
						{"ids": ["65", "61"], "ts": "2"}, 
						{"ids": ["2", "26"], "ts": "2"}, 
						{"ids": ["5", "55"], "ts": "2"}, 
						{"ids": ["57", "28"], "ts": "2"}, 
						{"ids": ["47", "23"], "ts": "2"}, 
						{"ids": ["79", "30"], "ts": "2"}, 
						{"ids": ["76", "12"], "ts": "2"}, 
						{"ids": ["33", "60"], "ts": "2"}, 
						{"ids": ["48", "26"], "ts": "2"}, 
						{"ids": ["37", "3"], "ts": "2"}, 
						{"ids": ["16", "50"], "ts": "2"}, 
						{"ids": ["16", "23"], "ts": "2"},
						{"ids": ["29", "5"], "ts": "2"}, 
						{"ids": ["40", "30"], "ts": "2"},
						{"ids": ["57", "18"], "ts": "2"},
						{"ids": ["41", "48"], "ts": "2"},
						{"ids": ["3", "2"], "ts": "3"}, 
						{"ids": ["4", "2"], "ts": "3"}, 
						{"ids": ["4", "3"], "ts": "3"}, 
						{"ids": ["5", "2"], "ts": "3"}, 
						{"ids": ["5", "3"], "ts": "3"}, 
						{"ids": ["5", "4"], "ts": "3"}, 
						{"ids": ["6", "2"], "ts": "3"}, 
						{"ids": ["6", "3"], "ts": "3"}, 
						{"ids": ["6", "4"], "ts": "3"}, 
						{"ids": ["6", "5"], "ts": "3"}, 
						{"ids": ["8", "2"], "ts": "3"}, 
						{"ids": ["8", "3"], "ts": "3"}, 
						{"ids": ["8", "4"], "ts": "3"}, 
						{"ids": ["8", "5"], "ts": "3"}, 
						{"ids": ["8", "6"], "ts": "3"}, 
						{"ids": ["9", "2"], "ts": "3"}, 
						{"ids": ["9", "3"], "ts": "3"}, 
						{"ids": ["9", "4"], "ts": "3"}, 
						{"ids": ["9", "5"], "ts": "3"}, 
						{"ids": ["9", "6"], "ts": "3"}, 
						{"ids": ["9", "8"], "ts": "3"}, 
						{"ids": ["13", "12"], "ts": "3"}, 
						{"ids": ["16", "12"], "ts": "3"}, 
						{"ids": ["16", "13"], "ts": "3"}, 
						{"ids": ["17", "12"], "ts": "3"}, 
						{"ids": ["17", "13"], "ts": "3"}, 
						{"ids": ["17", "16"], "ts": "3"}, 
						{"ids": ["18", "12"], "ts": "3"}, 
						{"ids": ["18", "13"], "ts": "3"}, 
						{"ids": ["18", "16"], "ts": "3"}, 
						{"ids": ["18", "17"], "ts": "3"}, 
						{"ids": ["19", "12"], "ts": "3"}, 
						{"ids": ["19", "13"], "ts": "3"}, 
						{"ids": ["19", "16"], "ts": "3"}, 
						{"ids": ["19", "17"], "ts": "3"}, 
						{"ids": ["19", "18"], "ts": "3"}, 
						{"ids": ["20", "12"], "ts": "3"}, 
						{"ids": ["20", "13"], "ts": "3"}, 
						{"ids": ["20", "16"], "ts": "3"}, 
						{"ids": ["20", "17"], "ts": "3"}, 
						{"ids": ["20", "18"], "ts": "3"}, 
						{"ids": ["20", "19"], "ts": "3"}, 
						{"ids": ["21", "12"], "ts": "3"}, 
						{"ids": ["21", "13"], "ts": "3"}, 
						{"ids": ["21", "16"], "ts": "3"}, 
						{"ids": ["21", "17"], "ts": "3"}, 
						{"ids": ["21", "18"], "ts": "3"}, 
						{"ids": ["21", "19"], "ts": "3"}, 
						{"ids": ["21", "20"], "ts": "3"}, 
						{"ids": ["24", "23"], "ts": "3"}, 
						{"ids": ["25", "23"], "ts": "3"}, 
						{"ids": ["25", "24"], "ts": "3"}, 
						{"ids": ["26", "23"], "ts": "3"}, 
						{"ids": ["26", "24"], "ts": "3"}, 
						{"ids": ["26", "25"], "ts": "3"}, 
						{"ids": ["28", "23"], "ts": "3"}, 
						{"ids": ["28", "24"], "ts": "3"}, 
						{"ids": ["28", "25"], "ts": "3"}, 
						{"ids": ["28", "26"], "ts": "3"}, 
						{"ids": ["29", "23"], "ts": "3"}, 
						{"ids": ["29", "24"], "ts": "3"}, 
						{"ids": ["29", "25"], "ts": "3"}, 
						{"ids": ["29", "26"], "ts": "3"}, 
						{"ids": ["29", "28"], "ts": "3"}, 
						{"ids": ["30", "23"], "ts": "3"}, 
						{"ids": ["30", "24"], "ts": "3"}, 
						{"ids": ["30", "25"], "ts": "3"}, 
						{"ids": ["30", "26"], "ts": "3"}, 
						{"ids": ["30", "28"], "ts": "3"}, 
						{"ids": ["30", "29"], "ts": "3"}, 
						{"ids": ["35", "33"], "ts": "3"}, 
						{"ids": ["36", "33"], "ts": "3"}, 
						{"ids": ["36", "35"], "ts": "3"}, 
						{"ids": ["37", "33"], "ts": "3"}, 
						{"ids": ["37", "35"], "ts": "3"}, 
						{"ids": ["37", "36"], "ts": "3"}, 
						{"ids": ["38", "33"], "ts": "3"}, 
						{"ids": ["38", "35"], "ts": "3"}, 
						{"ids": ["38", "36"], "ts": "3"}, 
						{"ids": ["38", "37"], "ts": "3"}, 
						{"ids": ["40", "33"], "ts": "3"}, 
						{"ids": ["40", "35"], "ts": "3"}, 
						{"ids": ["40", "36"], "ts": "3"}, 
						{"ids": ["40", "37"], "ts": "3"}, 
						{"ids": ["40", "38"], "ts": "3"}, 
						{"ids": ["41", "33"], "ts": "3"}, 
						{"ids": ["41", "35"], "ts": "3"}, 
						{"ids": ["41", "36"], "ts": "3"}, 
						{"ids": ["41", "37"], "ts": "3"}, 
						{"ids": ["41", "38"], "ts": "3"}, 
						{"ids": ["41", "40"], "ts": "3"}, 
						{"ids": ["44", "43"], "ts": "3"}, 
						{"ids": ["45", "43"], "ts": "3"}, 
						{"ids": ["45", "44"], "ts": "3"}, 
						{"ids": ["46", "43"], "ts": "3"}, 
						{"ids": ["46", "44"], "ts": "3"}, 
						{"ids": ["46", "45"], "ts": "3"}, 
						{"ids": ["48", "43"], "ts": "3"}, 
						{"ids": ["48", "44"], "ts": "3"}, 
						{"ids": ["48", "45"], "ts": "3"}, 
						{"ids": ["48", "46"], "ts": "3"}, 
						{"ids": ["49", "43"], "ts": "3"}, 
						{"ids": ["49", "44"], "ts": "3"}, 
						{"ids": ["49", "45"], "ts": "3"}, 
						{"ids": ["49", "46"], "ts": "3"}, 
						{"ids": ["49", "48"], "ts": "3"}, 
						{"ids": ["50", "43"], "ts": "3"}, 
						{"ids": ["50", "44"], "ts": "3"}, 
						{"ids": ["50", "45"], "ts": "3"}, 
						{"ids": ["50", "46"], "ts": "3"}, 
						{"ids": ["50", "48"], "ts": "3"}, 
						{"ids": ["50", "49"], "ts": "3"}, 
						{"ids": ["51", "43"], "ts": "3"}, 
						{"ids": ["51", "44"], "ts": "3"}, 
						{"ids": ["51", "45"], "ts": "3"}, 
						{"ids": ["51", "46"], "ts": "3"}, 
						{"ids": ["51", "48"], "ts": "3"}, 
						{"ids": ["51", "49"], "ts": "3"}, 
						{"ids": ["51", "50"], "ts": "3"}, 
						{"ids": ["52", "43"], "ts": "3"}, 
						{"ids": ["52", "44"], "ts": "3"}, 
						{"ids": ["52", "45"], "ts": "3"}, 
						{"ids": ["52", "46"], "ts": "3"}, 
						{"ids": ["52", "48"], "ts": "3"}, 
						{"ids": ["52", "49"], "ts": "3"}, 
						{"ids": ["52", "50"], "ts": "3"}, 
						{"ids": ["52", "51"], "ts": "3"}, 
						{"ids": ["58", "55"], "ts": "3"}, 
						{"ids": ["59", "55"], "ts": "3"}, 
						{"ids": ["59", "58"], "ts": "3"}, 
						{"ids": ["60", "55"], "ts": "3"}, 
						{"ids": ["60", "58"], "ts": "3"}, 
						{"ids": ["60", "59"], "ts": "3"}, 
						{"ids": ["61", "55"], "ts": "3"}, 
						{"ids": ["61", "58"], "ts": "3"}, 
						{"ids": ["61", "59"], "ts": "3"}, 
						{"ids": ["61", "60"], "ts": "3"}, 
						{"ids": ["62", "55"], "ts": "3"}, 
						{"ids": ["62", "58"], "ts": "3"}, 
						{"ids": ["62", "59"], "ts": "3"}, 
						{"ids": ["62", "60"], "ts": "3"}, 
						{"ids": ["62", "61"], "ts": "3"}, 
						{"ids": ["63", "55"], "ts": "3"}, 
						{"ids": ["63", "58"], "ts": "3"}, 
						{"ids": ["63", "59"], "ts": "3"}, 
						{"ids": ["63", "60"], "ts": "3"}, 
						{"ids": ["63", "61"], "ts": "3"}, 
						{"ids": ["63", "62"], "ts": "3"}, 
						{"ids": ["66", "65"], "ts": "3"}, 
						{"ids": ["68", "65"], "ts": "3"}, 
						{"ids": ["68", "66"], "ts": "3"}, 
						{"ids": ["70", "65"], "ts": "3"}, 
						{"ids": ["70", "66"], "ts": "3"}, 
						{"ids": ["70", "68"], "ts": "3"}, 
						{"ids": ["72", "65"], "ts": "3"}, 
						{"ids": ["72", "66"], "ts": "3"}, 
						{"ids": ["72", "68"], "ts": "3"}, 
						{"ids": ["72", "70"], "ts": "3"}, 
						{"ids": ["73", "65"], "ts": "3"}, 
						{"ids": ["73", "66"], "ts": "3"}, 
						{"ids": ["73", "68"], "ts": "3"}, 
						{"ids": ["73", "70"], "ts": "3"}, 
						{"ids": ["73", "72"], "ts": "3"}, 
						{"ids": ["74", "65"], "ts": "3"}, 
						{"ids": ["74", "66"], "ts": "3"}, 
						{"ids": ["74", "68"], "ts": "3"}, 
						{"ids": ["74", "70"], "ts": "3"}, 
						{"ids": ["74", "72"], "ts": "3"}, 
						{"ids": ["74", "73"], "ts": "3"}, 
						{"ids": ["77", "77"], "ts": "3"}, 
						{"ids": ["78", "77"], "ts": "3"}, 
						{"ids": ["78", "78"], "ts": "3"}, 
						{"ids": ["79", "77"], "ts": "3"}, 
						{"ids": ["79", "78"], "ts": "3"}, 
						{"ids": ["79", "79"], "ts": "3"}, 
						{"ids": ["26", "6"], "ts": "3"}, 
						{"ids": ["52", "12"], "ts": "3"}, 
						{"ids": ["41", "16"], "ts": "3"}, 
						{"ids": ["28", "48"], "ts": "3"}, 
						{"ids": ["52", "20"], "ts": "3"}, 
						{"ids": ["70", "43"], "ts": "3"}, 
						{"ids": ["13", "23"], "ts": "3"}, 
						{"ids": ["9", "38"], "ts": "3"},  
						{"ids": ["33", "13"], "ts": "3"}, 
						{"ids": ["46", "8"], "ts": "3"}, 
						{"ids": ["80", "70"], "ts": "3"},  
						{"ids": ["24", "61"], "ts": "3"}, 
						{"ids": ["65", "61"], "ts": "3"}, 
						{"ids": ["2", "26"], "ts": "3"}, 
						{"ids": ["5", "55"], "ts": "3"}, 
						{"ids": ["33", "60"], "ts": "3"}, 
						{"ids": ["48", "26"], "ts": "3"}, 
						{"ids": ["37", "3"], "ts": "3"},
						{"ids": ["16", "50"], "ts": "3"},  
						{"ids": ["16", "23"], "ts": "3"},
						{"ids": ["29", "5"], "ts": "3"}, 
						{"ids": ["40", "30"], "ts": "3"}, 
						{"ids": ["41", "48"], "ts": "3"}, 
						{"ids": ["4", "2"], "ts": "4"}, 
						{"ids": ["5", "2"], "ts": "4"}, 
						{"ids": ["5", "4"], "ts": "4"}, 
						{"ids": ["6", "2"], "ts": "4"}, 
						{"ids": ["6", "4"], "ts": "4"}, 
						{"ids": ["6", "5"], "ts": "4"}, 
						{"ids": ["8", "2"], "ts": "4"}, 
						{"ids": ["8", "4"], "ts": "4"}, 
						{"ids": ["8", "5"], "ts": "4"}, 
						{"ids": ["8", "6"], "ts": "4"}, 
						{"ids": ["9", "2"], "ts": "4"}, 
						{"ids": ["9", "4"], "ts": "4"}, 
						{"ids": ["9", "5"], "ts": "4"}, 
						{"ids": ["9", "6"], "ts": "4"}, 
						{"ids": ["9", "8"], "ts": "4"}, 
						{"ids": ["13", "12"], "ts": "4"}, 
						{"ids": ["16", "12"], "ts": "4"}, 
						{"ids": ["16", "13"], "ts": "4"}, 
						{"ids": ["17", "12"], "ts": "4"}, 
						{"ids": ["17", "13"], "ts": "4"}, 
						{"ids": ["17", "16"], "ts": "4"}, 
						{"ids": ["18", "12"], "ts": "4"}, 
						{"ids": ["18", "13"], "ts": "4"}, 
						{"ids": ["18", "16"], "ts": "4"}, 
						{"ids": ["18", "17"], "ts": "4"}, 
						{"ids": ["19", "12"], "ts": "4"}, 
						{"ids": ["19", "13"], "ts": "4"}, 
						{"ids": ["19", "16"], "ts": "4"}, 
						{"ids": ["19", "17"], "ts": "4"}, 
						{"ids": ["19", "18"], "ts": "4"}, 
						{"ids": ["21", "12"], "ts": "4"}, 
						{"ids": ["21", "13"], "ts": "4"}, 
						{"ids": ["21", "16"], "ts": "4"}, 
						{"ids": ["21", "17"], "ts": "4"}, 
						{"ids": ["21", "18"], "ts": "4"}, 
						{"ids": ["21", "19"], "ts": "4"}, 
						{"ids": ["24", "23"], "ts": "4"}, 
						{"ids": ["25", "23"], "ts": "4"}, 
						{"ids": ["25", "24"], "ts": "4"}, 
						{"ids": ["26", "23"], "ts": "4"}, 
						{"ids": ["26", "24"], "ts": "4"}, 
						{"ids": ["26", "25"], "ts": "4"}, 
						{"ids": ["28", "23"], "ts": "4"}, 
						{"ids": ["28", "24"], "ts": "4"}, 
						{"ids": ["28", "25"], "ts": "4"}, 
						{"ids": ["28", "26"], "ts": "4"}, 
						{"ids": ["29", "23"], "ts": "4"}, 
						{"ids": ["29", "24"], "ts": "4"}, 
						{"ids": ["29", "25"], "ts": "4"}, 
						{"ids": ["29", "26"], "ts": "4"}, 
						{"ids": ["29", "28"], "ts": "4"}, 
						{"ids": ["30", "23"], "ts": "4"}, 
						{"ids": ["30", "24"], "ts": "4"}, 
						{"ids": ["30", "25"], "ts": "4"}, 
						{"ids": ["30", "26"], "ts": "4"}, 
						{"ids": ["30", "28"], "ts": "4"}, 
						{"ids": ["30", "29"], "ts": "4"}, 
						{"ids": ["35", "33"], "ts": "4"}, 
						{"ids": ["36", "33"], "ts": "4"}, 
						{"ids": ["36", "35"], "ts": "4"}, 
						{"ids": ["38", "33"], "ts": "4"}, 
						{"ids": ["60", "79"], "ts": "4"},
						{"ids": ["38", "35"], "ts": "4"}, 
						{"ids": ["38", "36"], "ts": "4"},
						{"ids": ["40", "33"], "ts": "4"}, 
						{"ids": ["40", "35"], "ts": "4"}, 
						{"ids": ["40", "36"], "ts": "4"}, 
						{"ids": ["40", "38"], "ts": "4"}, 
						{"ids": ["41", "33"], "ts": "4"}, 
						{"ids": ["41", "35"], "ts": "4"}, 
						{"ids": ["41", "36"], "ts": "4"}, 
						{"ids": ["41", "38"], "ts": "4"}, 
						{"ids": ["41", "40"], "ts": "4"}, 
						{"ids": ["44", "43"], "ts": "4"}, 
						{"ids": ["46", "43"], "ts": "4"}, 
						{"ids": ["46", "44"], "ts": "4"}, 
						{"ids": ["48", "43"], "ts": "4"}, 
						{"ids": ["48", "44"], "ts": "4"}, 
						{"ids": ["48", "46"], "ts": "4"}, 
						{"ids": ["49", "43"], "ts": "4"}, 
						{"ids": ["49", "44"], "ts": "4"}, 
						{"ids": ["49", "46"], "ts": "4"}, 
						{"ids": ["49", "48"], "ts": "4"}, 
						{"ids": ["50", "43"], "ts": "4"}, 
						{"ids": ["50", "44"], "ts": "4"}, 
						{"ids": ["50", "46"], "ts": "4"}, 
						{"ids": ["50", "48"], "ts": "4"}, 
						{"ids": ["50", "49"], "ts": "4"}, 
						{"ids": ["51", "43"], "ts": "4"}, 
						{"ids": ["51", "44"], "ts": "4"}, 
						{"ids": ["51", "46"], "ts": "4"}, 
						{"ids": ["51", "48"], "ts": "4"}, 
						{"ids": ["51", "49"], "ts": "4"}, 
						{"ids": ["51", "50"], "ts": "4"}, 
						{"ids": ["52", "43"], "ts": "4"}, 
						{"ids": ["52", "44"], "ts": "4"}, 
						{"ids": ["52", "46"], "ts": "4"}, 
						{"ids": ["52", "48"], "ts": "4"}, 
						{"ids": ["52", "49"], "ts": "4"}, 
						{"ids": ["52", "50"], "ts": "4"}, 
						{"ids": ["52", "51"], "ts": "4"}, 
						{"ids": ["58", "55"], "ts": "4"}, 
						{"ids": ["60", "55"], "ts": "4"}, 
						{"ids": ["60", "58"], "ts": "4"}, 
						{"ids": ["61", "55"], "ts": "4"}, 
						{"ids": ["61", "58"], "ts": "4"}, 
						{"ids": ["61", "60"], "ts": "4"}, 
						{"ids": ["62", "55"], "ts": "4"}, 
						{"ids": ["62", "58"], "ts": "4"}, 
						{"ids": ["62", "60"], "ts": "4"}, 
						{"ids": ["62", "61"], "ts": "4"}, 
						{"ids": ["63", "55"], "ts": "4"}, 
						{"ids": ["63", "58"], "ts": "4"}, 
						{"ids": ["63", "60"], "ts": "4"}, 
						{"ids": ["63", "61"], "ts": "4"}, 
						{"ids": ["63", "62"], "ts": "4"}, 
						{"ids": ["66", "65"], "ts": "4"}, 
						{"ids": ["68", "65"], "ts": "4"}, 
						{"ids": ["68", "66"], "ts": "4"}, 
						{"ids": ["70", "65"], "ts": "4"}, 
						{"ids": ["70", "66"], "ts": "4"}, 
						{"ids": ["70", "68"], "ts": "4"}, 
						{"ids": ["72", "65"], "ts": "4"}, 
						{"ids": ["72", "66"], "ts": "4"}, 
						{"ids": ["72", "68"], "ts": "4"}, 
						{"ids": ["72", "70"], "ts": "4"}, 
						{"ids": ["74", "65"], "ts": "4"}, 
						{"ids": ["74", "66"], "ts": "4"}, 
						{"ids": ["74", "68"], "ts": "4"}, 
						{"ids": ["74", "70"], "ts": "4"}, 
						{"ids": ["74", "72"], "ts": "4"}, 
						{"ids": ["77", "77"], "ts": "4"}, 
						{"ids": ["79", "77"], "ts": "4"}, 
						{"ids": ["79", "79"], "ts": "4"}, 
						{"ids": ["26", "6"], "ts": "4"}, 
						{"ids": ["52", "12"], "ts": "4"},
						{"ids": ["41", "16"], "ts": "4"}, 
						{"ids": ["28", "48"], "ts": "4"}, 
						{"ids": ["70", "43"], "ts": "4"}, 
						{"ids": ["13", "23"], "ts": "4"},
						{"ids": ["9", "38"], "ts": "4"}, 
						{"ids": ["33", "13"], "ts": "4"},  
						{"ids": ["46", "8"], "ts": "4"}, 
						{"ids": ["24", "61"], "ts": "4"}, 
						{"ids": ["65", "61"], "ts": "4"}, 
						{"ids": ["2", "26"], "ts": "4"}, 
						{"ids": ["5", "55"], "ts": "4"}, 
						{"ids": ["79", "30"], "ts": "4"}, 
						{"ids": ["33", "60"], "ts": "4"},
						{"ids": ["48", "26"], "ts": "4"}, 
						{"ids": ["16", "50"], "ts": "4"}, 
						{"ids": ["16", "23"], "ts": "4"}, 
						{"ids": ["29", "5"], "ts": "4"}, 
						{"ids": ["40", "30"], "ts": "4"}, 
						{"ids": ["41", "48"], "ts": "4"}, 
						{"ids": ["79", "17"], "ts": "4"},
						{"ids": ["8", "23"], "ts": "4"}, 
						{"ids": ["16", "8"], "ts": "4"}, 
						{"ids": ["51", "9"], "ts": "4"}, 
						{"ids": ["65", "55"], "ts": "4"},  
						{"ids": ["4", "2"], "ts": "5"}, 
						{"ids": ["5", "2"], "ts": "5"}, 
						{"ids": ["5", "4"], "ts": "5"}, 
						{"ids": ["6", "2"], "ts": "5"}, 
						{"ids": ["6", "4"], "ts": "5"}, 
						{"ids": ["6", "5"], "ts": "5"}, 
						{"ids": ["8", "2"], "ts": "5"}, 
						{"ids": ["8", "4"], "ts": "5"}, 
						{"ids": ["8", "5"], "ts": "5"}, 
						{"ids": ["8", "6"], "ts": "5"}, 
						{"ids": ["9", "2"], "ts": "5"}, 
						{"ids": ["9", "4"], "ts": "5"}, 
						{"ids": ["9", "5"], "ts": "5"}, 
						{"ids": ["9", "6"], "ts": "5"}, 
						{"ids": ["9", "8"], "ts": "5"}, 
						{"ids": ["16", "13"], "ts": "5"},
						{"ids": ["17", "13"], "ts": "5"},
						{"ids": ["17", "16"], "ts": "5"}, 
						{"ids": ["18", "13"], "ts": "5"}, 
						{"ids": ["18", "16"], "ts": "5"}, 
						{"ids": ["18", "17"], "ts": "5"}, 
						{"ids": ["19", "13"], "ts": "5"}, 
						{"ids": ["19", "16"], "ts": "5"}, 
						{"ids": ["19", "17"], "ts": "5"}, 
						{"ids": ["19", "18"], "ts": "5"}, 
						{"ids": ["21", "13"], "ts": "5"}, 
						{"ids": ["21", "16"], "ts": "5"}, 
						{"ids": ["21", "17"], "ts": "5"}, 
						{"ids": ["21", "18"], "ts": "5"}, 
						{"ids": ["21", "19"], "ts": "5"}, 
						{"ids": ["24", "23"], "ts": "5"}, 
						{"ids": ["25", "23"], "ts": "5"}, 
						{"ids": ["25", "24"], "ts": "5"}, 
						{"ids": ["26", "23"], "ts": "5"}, 
						{"ids": ["26", "24"], "ts": "5"}, 
						{"ids": ["26", "25"], "ts": "5"}, 
						{"ids": ["28", "23"], "ts": "5"}, 
						{"ids": ["28", "24"], "ts": "5"}, 
						{"ids": ["28", "25"], "ts": "5"}, 
						{"ids": ["28", "26"], "ts": "5"}, 
						{"ids": ["29", "23"], "ts": "5"}, 
						{"ids": ["29", "24"], "ts": "5"}, 
						{"ids": ["29", "25"], "ts": "5"}, 
						{"ids": ["29", "26"], "ts": "5"}, 
						{"ids": ["29", "28"], "ts": "5"}, 
						{"ids": ["30", "23"], "ts": "5"}, 
						{"ids": ["30", "24"], "ts": "5"}, 
						{"ids": ["30", "25"], "ts": "5"}, 
						{"ids": ["30", "26"], "ts": "5"}, 
						{"ids": ["30", "28"], "ts": "5"}, 
						{"ids": ["30", "29"], "ts": "5"}, 
						{"ids": ["35", "33"], "ts": "5"}, 
						{"ids": ["36", "33"], "ts": "5"}, 
						{"ids": ["36", "35"], "ts": "5"}, 
						{"ids": ["38", "33"], "ts": "5"}, 
						{"ids": ["38", "35"], "ts": "5"}, 
						{"ids": ["38", "36"], "ts": "5"}, 
						{"ids": ["40", "33"], "ts": "5"}, 
						{"ids": ["40", "35"], "ts": "5"}, 
						{"ids": ["40", "36"], "ts": "5"}, 
						{"ids": ["40", "38"], "ts": "5"}, 
						{"ids": ["41", "33"], "ts": "5"}, 
						{"ids": ["41", "35"], "ts": "5"}, 
						{"ids": ["41", "36"], "ts": "5"}, 
						{"ids": ["41", "38"], "ts": "5"}, 
						{"ids": ["41", "40"], "ts": "5"}, 
						{"ids": ["44", "43"], "ts": "5"}, 
						{"ids": ["46", "43"], "ts": "5"}, 
						{"ids": ["46", "44"], "ts": "5"}, 
						{"ids": ["48", "43"], "ts": "5"}, 
						{"ids": ["48", "44"], "ts": "5"}, 
						{"ids": ["48", "46"], "ts": "5"}, 
						{"ids": ["49", "43"], "ts": "5"}, 
						{"ids": ["49", "44"], "ts": "5"}, 
						{"ids": ["49", "46"], "ts": "5"}, 
						{"ids": ["49", "48"], "ts": "5"}, 
						{"ids": ["50", "43"], "ts": "5"}, 
						{"ids": ["50", "44"], "ts": "5"}, 
						{"ids": ["50", "46"], "ts": "5"}, 
						{"ids": ["50", "48"], "ts": "5"}, 
						{"ids": ["50", "49"], "ts": "5"}, 
						{"ids": ["51", "43"], "ts": "5"}, 
						{"ids": ["51", "44"], "ts": "5"}, 
						{"ids": ["51", "46"], "ts": "5"}, 
						{"ids": ["51", "48"], "ts": "5"}, 
						{"ids": ["51", "49"], "ts": "5"}, 
						{"ids": ["51", "50"], "ts": "5"}, 
						{"ids": ["52", "43"], "ts": "5"}, 
						{"ids": ["52", "44"], "ts": "5"}, 
						{"ids": ["52", "46"], "ts": "5"}, 
						{"ids": ["52", "48"], "ts": "5"}, 
						{"ids": ["52", "49"], "ts": "5"}, 
						{"ids": ["52", "50"], "ts": "5"}, 
						{"ids": ["52", "51"], "ts": "5"}, 
						{"ids": ["58", "55"], "ts": "5"}, 
						{"ids": ["60", "55"], "ts": "5"}, 
						{"ids": ["60", "58"], "ts": "5"}, 
						{"ids": ["61", "55"], "ts": "5"}, 
						{"ids": ["61", "58"], "ts": "5"}, 
						{"ids": ["61", "60"], "ts": "5"}, 
						{"ids": ["62", "55"], "ts": "5"}, 
						{"ids": ["62", "58"], "ts": "5"}, 
						{"ids": ["62", "60"], "ts": "5"}, 
						{"ids": ["62", "61"], "ts": "5"}, 
						{"ids": ["63", "55"], "ts": "5"}, 
						{"ids": ["63", "58"], "ts": "5"}, 
						{"ids": ["63", "60"], "ts": "5"}, 
						{"ids": ["63", "61"], "ts": "5"}, 
						{"ids": ["63", "62"], "ts": "5"}, 
						{"ids": ["66", "65"], "ts": "5"}, 
						{"ids": ["68", "65"], "ts": "5"}, 
						{"ids": ["68", "66"], "ts": "5"}, 
						{"ids": ["72", "65"], "ts": "5"}, 
						{"ids": ["72", "66"], "ts": "5"}, 
						{"ids": ["72", "68"], "ts": "5"}, 
						{"ids": ["74", "65"], "ts": "5"}, 
						{"ids": ["74", "66"], "ts": "5"}, 
						{"ids": ["74", "68"], "ts": "5"}, 
						{"ids": ["74", "72"], "ts": "5"}, 
						{"ids": ["77", "77"], "ts": "5"}, 
						{"ids": ["79", "77"], "ts": "5"}, 
						{"ids": ["79", "79"], "ts": "5"}, 
						{"ids": ["26", "6"], "ts": "5"}, 
						{"ids": ["41", "16"], "ts": "5"}, 
						{"ids": ["28", "48"], "ts": "5"},  
						{"ids": ["13", "23"], "ts": "5"}, 
						{"ids": ["9", "38"], "ts": "5"},  
						{"ids": ["33", "13"], "ts": "5"}, 
						{"ids": ["46", "8"], "ts": "5"}, 
						{"ids": ["24", "61"], "ts": "5"},  
						{"ids": ["65", "61"], "ts": "5"}, 
						{"ids": ["2", "26"], "ts": "5"}, 
						{"ids": ["5", "55"], "ts": "5"}, 
						{"ids": ["79", "30"], "ts": "5"},  
						{"ids": ["33", "60"], "ts": "5"}, 
						{"ids": ["48", "26"], "ts": "5"}, 
						{"ids": ["16", "50"], "ts": "5"},  
						{"ids": ["16", "23"], "ts": "5"}, 
						{"ids": ["29", "5"], "ts": "5"}, 
						{"ids": ["40", "30"], "ts": "5"}, 
						{"ids": ["41", "48"], "ts": "5"}, 
						{"ids": ["79", "17"], "ts": "5"}, 
						{"ids": ["38", "58"], "ts": "5"}, 
						{"ids": ["8", "23"], "ts": "5"},
						{"ids": ["16", "8"], "ts": "5"}, 
						{"ids": ["51", "9"], "ts": "5"}, 
						{"ids": ["65", "55"], "ts": "5"}, 
						{"ids": ["77", "18"], "ts": "5"}, 
						{"ids": ["36", "9"], "ts": "5"}, 
						{"ids": ["4", "2"], "ts": "6"}, 
						{"ids": ["5", "2"], "ts": "6"}, 
						{"ids": ["5", "4"], "ts": "6"}, 
						{"ids": ["8", "2"], "ts": "6"}, 
						{"ids": ["8", "4"], "ts": "6"}, 
						{"ids": ["8", "5"], "ts": "6"}, 
						{"ids": ["9", "2"], "ts": "6"}, 
						{"ids": ["9", "4"], "ts": "6"}, 
						{"ids": ["9", "5"], "ts": "6"}, 
						{"ids": ["9", "8"], "ts": "6"}, 
						{"ids": ["16", "13"], "ts": "6"}, 
						{"ids": ["17", "13"], "ts": "6"}, 
						{"ids": ["17", "16"], "ts": "6"}, 
						{"ids": ["18", "13"], "ts": "6"}, 
						{"ids": ["18", "16"], "ts": "6"}, 
						{"ids": ["18", "17"], "ts": "6"}, 
						{"ids": ["19", "13"], "ts": "6"}, 
						{"ids": ["19", "16"], "ts": "6"}, 
						{"ids": ["19", "17"], "ts": "6"}, 
						{"ids": ["19", "18"], "ts": "6"}, 
						{"ids": ["21", "13"], "ts": "6"}, 
						{"ids": ["21", "16"], "ts": "6"}, 
						{"ids": ["21", "17"], "ts": "6"}, 
						{"ids": ["21", "18"], "ts": "6"}, 
						{"ids": ["21", "19"], "ts": "6"}, 
						{"ids": ["25", "24"], "ts": "6"}, 
						{"ids": ["26", "24"], "ts": "6"}, 
						{"ids": ["26", "25"], "ts": "6"}, 
						{"ids": ["28", "24"], "ts": "6"}, 
						{"ids": ["28", "25"], "ts": "6"}, 
						{"ids": ["28", "26"], "ts": "6"}, 
						{"ids": ["29", "24"], "ts": "6"}, 
						{"ids": ["29", "25"], "ts": "6"}, 
						{"ids": ["29", "26"], "ts": "6"}, 
						{"ids": ["29", "28"], "ts": "6"}, 
						{"ids": ["30", "24"], "ts": "6"}, 
						{"ids": ["30", "25"], "ts": "6"}, 
						{"ids": ["30", "26"], "ts": "6"}, 
						{"ids": ["30", "28"], "ts": "6"}, 
						{"ids": ["30", "29"], "ts": "6"}, 
						{"ids": ["36", "35"], "ts": "6"}, 
						{"ids": ["38", "35"], "ts": "6"}, 
						{"ids": ["38", "36"], "ts": "6"}, 
						{"ids": ["40", "35"], "ts": "6"}, 
						{"ids": ["40", "36"], "ts": "6"}, 
						{"ids": ["40", "38"], "ts": "6"}, 
						{"ids": ["41", "35"], "ts": "6"}, 
						{"ids": ["41", "36"], "ts": "6"}, 
						{"ids": ["41", "38"], "ts": "6"}, 
						{"ids": ["41", "40"], "ts": "6"}, 
						{"ids": ["44", "43"], "ts": "6"}, 
						{"ids": ["46", "43"], "ts": "6"}, 
						{"ids": ["46", "44"], "ts": "6"}, 
						{"ids": ["48", "43"], "ts": "6"}, 
						{"ids": ["48", "44"], "ts": "6"}, 
						{"ids": ["48", "46"], "ts": "6"}, 
						{"ids": ["49", "43"], "ts": "6"}, 
						{"ids": ["49", "44"], "ts": "6"}, 
						{"ids": ["49", "46"], "ts": "6"}, 
						{"ids": ["49", "48"], "ts": "6"}, 
						{"ids": ["51", "43"], "ts": "6"},
						{"ids": ["51", "44"], "ts": "6"}, 
						{"ids": ["51", "46"], "ts": "6"}, 
						{"ids": ["51", "48"], "ts": "6"}, 
						{"ids": ["51", "49"], "ts": "6"}, 
						{"ids": ["52", "43"], "ts": "6"}, 
						{"ids": ["52", "44"], "ts": "6"}, 
						{"ids": ["52", "46"], "ts": "6"}, 
						{"ids": ["52", "48"], "ts": "6"}, 
						{"ids": ["52", "49"], "ts": "6"}, 
						{"ids": ["52", "51"], "ts": "6"}, 
						{"ids": ["58", "55"], "ts": "6"}, 
						{"ids": ["60", "55"], "ts": "6"}, 
						{"ids": ["60", "58"], "ts": "6"}, 
						{"ids": ["61", "55"], "ts": "6"}, 
						{"ids": ["61", "58"], "ts": "6"}, 
						{"ids": ["61", "60"], "ts": "6"}, 
						{"ids": ["62", "55"], "ts": "6"}, 
						{"ids": ["62", "58"], "ts": "6"}, 
						{"ids": ["62", "60"], "ts": "6"}, 
						{"ids": ["62", "61"], "ts": "6"}, 
						{"ids": ["66", "65"], "ts": "6"}, 
						{"ids": ["68", "65"], "ts": "6"}, 
						{"ids": ["68", "66"], "ts": "6"}, 
						{"ids": ["72", "65"], "ts": "6"}, 
						{"ids": ["72", "66"], "ts": "6"}, 
						{"ids": ["72", "68"], "ts": "6"}, 
						{"ids": ["74", "65"], "ts": "6"}, 
						{"ids": ["74", "66"], "ts": "6"}, 
						{"ids": ["74", "68"], "ts": "6"}, 
						{"ids": ["74", "72"], "ts": "6"}, 
						{"ids": ["77", "77"], "ts": "6"}, 
						{"ids": ["79", "77"], "ts": "6"}, 
						{"ids": ["79", "79"], "ts": "6"}, 
						{"ids": ["41", "16"], "ts": "6"}, 
						{"ids": ["28", "48"], "ts": "6"}, 
						{"ids": ["9", "38"], "ts": "6"}, 
						{"ids": ["46", "8"], "ts": "6"}, 
						{"ids": ["24", "61"], "ts": "6"}, 
						{"ids": ["65", "61"], "ts": "6"},
						{"ids": ["2", "26"], "ts": "6"}, 
						{"ids": ["5", "55"], "ts": "6"}, 
						{"ids": ["79", "30"], "ts": "6"}, 
						{"ids": ["48", "26"], "ts": "6"}, 
						{"ids": ["29", "5"], "ts": "6"}, 
						{"ids": ["40", "30"], "ts": "6"}, 
						{"ids": ["41", "48"], "ts": "6"}, 
						{"ids": ["79", "17"], "ts": "6"}, 
						{"ids": ["38", "58"], "ts": "6"}, 
						{"ids": ["16", "8"], "ts": "6"}, 
						{"ids": ["51", "9"], "ts": "6"}, 
						{"ids": ["65", "55"], "ts": "6"},
						{"ids": ["77", "18"], "ts": "6"}, 
						{"ids": ["36", "9"], "ts": "6"}, 
						{"ids": ["4", "2"], "ts": "7"}, 
						{"ids": ["5", "2"], "ts": "7"}, 
						{"ids": ["5", "4"], "ts": "7"}, 
						{"ids": ["8", "2"], "ts": "7"}, 
						{"ids": ["8", "4"], "ts": "7"}, 
						{"ids": ["8", "5"], "ts": "7"}, 
						{"ids": ["9", "2"], "ts": "7"}, 
						{"ids": ["9", "4"], "ts": "7"}, 
						{"ids": ["9", "5"], "ts": "7"}, 
						{"ids": ["9", "8"], "ts": "7"}, 
						{"ids": ["16", "13"], "ts": "7"}, 
						{"ids": ["17", "13"], "ts": "7"}, 
						{"ids": ["17", "16"], "ts": "7"},
						{"ids": ["18", "13"], "ts": "7"}, 
						{"ids": ["18", "16"], "ts": "7"}, 
						{"ids": ["18", "17"], "ts": "7"}, 
						{"ids": ["21", "13"], "ts": "7"}, 
						{"ids": ["21", "16"], "ts": "7"}, 
						{"ids": ["21", "17"], "ts": "7"}, 
						{"ids": ["21", "18"], "ts": "7"}, 
						{"ids": ["25", "24"], "ts": "7"}, 
						{"ids": ["26", "24"], "ts": "7"},
						{"ids": ["26", "25"], "ts": "7"}, 
						{"ids": ["28", "24"], "ts": "7"}, 
						{"ids": ["28", "25"], "ts": "7"}, 
						{"ids": ["28", "26"], "ts": "7"}, 
						{"ids": ["29", "24"], "ts": "7"}, 
						{"ids": ["29", "25"], "ts": "7"}, 
						{"ids": ["29", "26"], "ts": "7"}, 
						{"ids": ["29", "28"], "ts": "7"}, 
						{"ids": ["30", "24"], "ts": "7"}, 
						{"ids": ["30", "25"], "ts": "7"}, 
						{"ids": ["30", "26"], "ts": "7"}, 
						{"ids": ["30", "28"], "ts": "7"}, 
						{"ids": ["30", "29"], "ts": "7"}, 
						{"ids": ["36", "35"], "ts": "7"}, 
						{"ids": ["38", "35"], "ts": "7"}, 
						{"ids": ["38", "36"], "ts": "7"}, 
						{"ids": ["40", "35"], "ts": "7"}, 
						{"ids": ["40", "36"], "ts": "7"}, 
						{"ids": ["40", "38"], "ts": "7"}, 
						{"ids": ["41", "35"], "ts": "7"}, 
						{"ids": ["41", "36"], "ts": "7"}, 
						{"ids": ["41", "38"], "ts": "7"}, 
						{"ids": ["41", "40"], "ts": "7"}, 
						{"ids": ["44", "43"], "ts": "7"}, 
						{"ids": ["46", "43"], "ts": "7"}, 
						{"ids": ["46", "44"], "ts": "7"}, 
						{"ids": ["48", "43"], "ts": "7"}, 
						{"ids": ["48", "44"], "ts": "7"}, 
						{"ids": ["48", "46"], "ts": "7"}, 
						{"ids": ["49", "43"], "ts": "7"}, 
						{"ids": ["49", "44"], "ts": "7"}, 
						{"ids": ["49", "46"], "ts": "7"}, 
						{"ids": ["49", "48"], "ts": "7"}, 
						{"ids": ["51", "43"], "ts": "7"}, 
						{"ids": ["51", "44"], "ts": "7"}, 
						{"ids": ["51", "46"], "ts": "7"}, 
						{"ids": ["51", "48"], "ts": "7"}, 
						{"ids": ["51", "49"], "ts": "7"}, 
						{"ids": ["52", "43"], "ts": "7"}, 
						{"ids": ["52", "44"], "ts": "7"},
						{"ids": ["52", "46"], "ts": "7"},
						{"ids": ["52", "48"], "ts": "7"},
						{"ids": ["52", "49"], "ts": "7"},
						{"ids": ["52", "51"], "ts": "7"},
						{"ids": ["58", "55"], "ts": "7"},
						{"ids": ["60", "55"], "ts": "7"},
						{"ids": ["60", "58"], "ts": "7"},
						{"ids": ["61", "55"], "ts": "7"},
						{"ids": ["61", "58"], "ts": "7"},
						{"ids": ["61", "60"], "ts": "7"},
						{"ids": ["62", "55"], "ts": "7"},
						{"ids": ["62", "58"], "ts": "7"},
						{"ids": ["62", "60"], "ts": "7"},
						{"ids": ["62", "61"], "ts": "7"},
						{"ids": ["66", "65"], "ts": "7"},
						{"ids": ["68", "65"], "ts": "7"},
						{"ids": ["68", "66"], "ts": "7"},
						{"ids": ["72", "65"], "ts": "7"},
						{"ids": ["72", "66"], "ts": "7"},
						{"ids": ["72", "68"], "ts": "7"},
						{"ids": ["74", "65"], "ts": "7"},
						{"ids": ["74", "66"], "ts": "7"},
						{"ids": ["74", "68"], "ts": "7"},
						{"ids": ["74", "72"], "ts": "7"},
						{"ids": ["77", "77"], "ts": "7"},
						{"ids": ["79", "77"], "ts": "7"},
						{"ids": ["79", "79"], "ts": "7"},
						{"ids": ["41", "16"], "ts": "7"}, 
						{"ids": ["28", "48"], "ts": "7"}, 
						{"ids": ["9", "38"], "ts": "7"}, 
						{"ids": ["46", "8"], "ts": "7"}, 
						{"ids": ["24", "61"], "ts": "7"}, 
						{"ids": ["65", "61"], "ts": "7"}, 
						{"ids": ["2", "26"], "ts": "7"}, 
						{"ids": ["5", "55"], "ts": "7"}, 
						{"ids": ["79", "30"], "ts": "7"}, 
						{"ids": ["48", "26"], "ts": "7"}, 
						{"ids": ["29", "5"], "ts": "7"}, 
						{"ids": ["40", "30"], "ts": "7"}, 
						{"ids": ["41", "48"], "ts": "7"}, 
						{"ids": ["79", "17"], "ts": "7"}, 
						{"ids": ["38", "58"], "ts": "7"}, 
						{"ids": ["16", "8"], "ts": "7"}, 
						{"ids": ["51", "9"], "ts": "7"}, 
						{"ids": ["65", "55"], "ts": "7"},  
						{"ids": ["77", "18"], "ts": "7"}, 
						{"ids": ["36", "9"], "ts": "7"}], 
						"metadata": {"format": "time_flat", "name": "CommunitySize0-0"}}