{"edges": [
  {"list": [{"ids": ["0", "1", "2"], "w": 1}, {"ids": ["0", "1"], "w": 1}, {"ids": ["0", "2"], "w": 1}, {"ids": ["1", "2"], "w": 1}, {"ids": ["1", "4"], "w": 1}, {"ids": ["3", "4"], "w": 1}, {"ids": ["3", "5"], "w": 1}],
  "ts": 0},
  {"list": 
    [{"ids": ["0", "1"], "w": 1}, {"ids": ["0", "2"], "w": 1}, {"ids": ["1", "2"], "w": 1}, {"ids": ["3", "4"], "w": 1}, {"ids": ["3", "5"], "w": 1}, {"ids": ["4", "5"], "w": 1}],
    "ts": 1},
  {"list": 
   [{"ids": ["0", "1"], "w": 1}, {"ids": ["1", "3","5"], "w": 1}, {"ids": ["0", "2"], "w": 1}, {"ids": ["1", "2"], "w": 1}, {"ids": ["3", "5"], "w": 1}, {"ids": ["4", "5"], "w": 1}],
    "ts": 2},
  {"list":
    [{"ids": ["0", "2"], "w": 1}, {"ids": ["0", "3"], "w": 1}, {"ids": ["3", "2"], "w": 1}, {"ids": ["3", "5"], "w": 1}, {"ids": ["4", "5"], "w": 1}],
    "ts": 3}
],
  "metadata": {"ts_end": 1.5, "ts_step": 0.5, "ts_start": 0, "name": "sample_poster_eurovis", "threshold": 0.9}, 
 "nodes": 
[{"id": "0", "name": "V0", "data": [{"ts": "0", "value": [1]}, {"ts": "1", "value": [1]}, {"ts": "2", "value": [1]}, {"ts": "3", "value": [1]}, {"ts": "4", "value": [1]}]}, {"id": "1", "name": "V1", "data": [{"ts": "0", "value": [1]}, {"ts": "1", "value": [1]}, {"ts": "2", "value": [1]}, {"ts": "3", "value": [1]}, {"ts": "4", "value": [1]}]}, {"id": "2", "name": "V2", "data": [{"ts": "0", "value": [1]}, {"ts": "1", "value": [1]}, {"ts": "2", "value": [1]}, {"ts": "3", "value": [1]}, {"ts": "4", "value": [1]}]}, {"id": "3", "name": "V3", "data": [{"ts": "0", "value": [1]}, {"ts": "1", "value": [1]}, {"ts": "2", "value": [1]}, {"ts": "3", "value": [1]}, {"ts": "4", "value": [1]}]}, {"id": "4", "name": "V4", "data": [{"ts": "0", "value": [1]}, {"ts": "1", "value": [1]}, {"ts": "2", "value": [1]}, {"ts": "3", "value": [1]}, {"ts": "4", "value": [1]}]}, {"id": "5", "name": "V5", "data": [{"ts": "0", "value": [1]}, {"ts": "1", "value": [1]}, {"ts": "2", "value": [1]}, {"ts": "3", "value": [1]}, {"ts": "4", "value": [1]}]}]
}


