Nom1,Lieu,Qualification,Nom2,Lieux,Autres lieux,Etude Notaire,Cote ADLA,Nature acte,Date
Hubert Antheaume,"St Nicolas, Nantes",Commerce ,"Jacques Yvon, sr des Landes","Léogane, Ile St Domingue",,Delalande,4/2E/624,société,03/08/1673
Marie Boucher,"St Nicolas, Nantes",Commerce ,Hubert Antheaume,"St Nicolas, Nantes",,Delalande,4/2E/626,procompte,06/08/1675
Marie Boucher,"St Nicolas, Nantes",Famille,Hubert Antheaume,"St Nicolas, Nantes",,Delalande,4/2E/626,procompte,06/08/1675
Marie Boucher,"St Nicolas, Nantes",Famille,Roze Boucher,"St Nicolas, Nantes",,Delalande,4/2E/626,Quittance,15/09/1671
Marie Boucher,Paris,Commerce ,Roze Boucher,"St Nicolas, Nantes",,Delalande,4/2E/626,Quittance,15/09/1671
Marie Boucher,Paris,Commerce ,Hubert Antheaume,Paris,,Delalande,4/2E/626,Quittance,15/09/1671
? Vallet,Ile St Domingue,Travail,? Bec de Fort,,,Delalande,4/2E/627,Déclaration,01/01/1676
? Vallet,Ile St Domingue,Commerce,Joseph Labelle,"Léogane, Ile St Domingue",,Delalande,4/2E/627,Déclaration,01/01/1676
? Vallet,Ile St Domingue,Famille,? Vallet,Ile Guadeloupe,,Delalande,4/2E/627,Déclaration,01/01/1676
? Vallet,Ile St Domingue,Famille,Joseph Vallet,Brest,,Delalande,4/2E/627,Déclaration,01/01/1676
? Vallet,Ile St Domingue,Commerce,Jean Michel,,,Delalande,4/2E/627,Déclaration,01/01/1676
? Vallet,Ile St Domingue,Commerce,Jacques Allain,,,Delalande,4/2E/627,Déclaration,01/01/1676
? Vallet,Ile St Domingue,Commerce,Hubert Antheaume,"St Nicolas, Nantes",La Rochelle,Delalande,4/2E/627,Déclaration,01/01/1676
? Vallet,Ile St Domingue,Finance ,Guillaume Gray le jeune,,,Delalande,4/2E/627,Déclaration,01/01/1676
? Vallet,Ile St Domingue,Finance ,Madeleine Gassau,La Rochelle,,Delalande,4/2E/627,Déclaration,01/01/1676
Madeleine Gassau,"St Nicolas, Nantes",Famille,Renexent Vanarsen,"St Nicolas, Nantes",,Delalande,4/2E/627,Déclaration,01/01/1676
Renée Maheur,St Eustache Paris,Travail,Marie Paulet,St Eustache Paris,,Delalande,4/2E/627,Procuration,12/06/1676
Renée Maheur,St Eustache Paris,Commerce,Isabelle Maheu,St Eustache Paris,,Delalande,4/2E/627,Procuration,12/06/1676
Renée Maheur,St Eustache Paris,Famille,Isabelle Maheu,St Eustache Paris,,Delalande,4/2E/627,Procuration,12/06/1676
Marie Paulet,St Eustache Paris,Famille,Marie-Anne de Lamarche,St Eustache Paris,,Delalande,4/2E/627,Procuration,12/06/1676
Renée Maheur,St Eustache Paris,Commerce,Hubert Antheaume,Ile St Domingue,,Delalande,4/2E/627,Procuration,12/06/1676
Marie Paulet,St Eustache Paris,Commerce,Marie-Anne de Lamarche,St Eustache Paris,,Delalande,4/2E/627,Procuration,12/06/1676
Marie Paulet,St Eustache Paris,Commerce,Hubert Antheaume,Ile St Domingue,,Delalande,4/2E/627,Procuration,12/06/1676
Isabelle Maheu,St Eustache Paris,Travail,Hubert Antheaume,Ile St Domingue,,Delalande,4/2E/627,Procuration,12/06/1676
Isabelle Maheu,St Eustache Paris,Famille,Georges Maheu,St Eustache Paris,,Delalande,4/2E/627,Procuration,12/06/1676
Renée Maheur,St Eustache Paris,Famille,Georges Maheu,St Eustache Paris,,Delalande,4/2E/627,Procuration,12/06/1676
Marie-Anne de Lamarche,St Eustache Paris,Travail,Hubert Antheaume,Ile St Domingue,,Delalande,4/2E/627,Procuration,12/06/1676
Marie-Anne de Lamarche,St Eustache Paris,Famille,Pierre de Lamarche,St Eustache Paris,,Delalande,4/2E/627,Procuration,12/06/1676
Pierre de Lamarche,St Eustache Paris,Famille,Marie Paulet,St Eustache Paris,,Delalande,4/2E/627,Procuration,12/06/1676
Marie-Anne de Lamarche,St Eustache Paris,Travail,Michel Villette,"St Nicolas, Nantes",,Delalande,4/2E/627,Engagement,31/07/1676
Marie-Anne de Lamarche,St Eustache Paris,Famille,Pierre de Lamarche,St Eustache Paris,,Delalande,4/2E/627,Engagement,31/07/1676
Pierre de Lamarche,St Eustache Paris,Famille,Marie Paulet,St Eustache Paris,,Delalande,4/2E/627,Engagement,31/07/1676
Marie Paulet,St Eustache Paris,Famille,Marie-Anne de Lamarche,St Eustache Paris,,Delalande,4/2E/627,Engagement,31/07/1676
Michel Villette,"St Nicolas, Nantes",Commerce ,Hubert Antheaume,"St Nicolas, Nantes",,Delalande,4/2E/627,Engagement,31/07/1676
Hubert Antheaume,"St Nicolas, Nantes",Commerce ,"Jacques Yvon, sr des Landes","Léogane, Ile St Domingue",,Delalande,4/2E/627,Engagement,31/07/1676
Marie-Anne de Lamarche,"St Eustache, Paris",Travail,"Jacques Yvon, sr des Landes","Léogane, Ile St Domingue",,Delalande,4/2E/627,Engagement,31/07/1676
Robert Bussiere,Orléans,Commerce ,Christophe Provost,Orléans,,Delalande,4/2E/627,Déclaration,18/09/1676
Christophe Provost,Orléans,Commerce ,Hubert Antheaume,"St Nicolas, Nantes",,Delalande,4/2E/627,Déclaration,18/09/1676
Robert Bussière,Orléans,Commerce ,Hubert Antheaume,"St Nicolas, Nantes",,Delalande,4/2E/627,Déclaration,18/09/1676
Robert Bussière,Orléans,Commerce ,Paul Bonneau,Orléans,,Delalande,4/2E/627,Déclaration,18/09/1676
Christophe Provost,Orléans,Commerce ,Paul Bonneau,Orléans,,Delalande,4/2E/627,Déclaration,18/09/1676
Hubert Antheaume,"St Nicolas, Nantes",Commerce ,Michel Villette,"St Nicolas, Nantes","Ile St Domingue, Ile St Christophe, Ile de la Martinique, Ile de la Guadeloupe",Delalande,4/2E/627,société,03/12/1676
Hubert Antheaume,"St Nicolas, Nantes",Commerce ,Michel Villette,"St Nicolas, Nantes",,Delalande,4/2E/632,dissolution sté,07/02/1681
Hubert Antheaume,"St Nicolas, Nantes",Commerce ,Jacques Martin,"St Paul, Orléans",,Delalande,4/2E/633,société,24/03/1682
Hubert Antheaume,"St Nicolas, Nantes",Famille,Madeleine Boucher,"St Nicolas, Nantes",,Delalande,4/2E/634,Procuration,28/11/1685
Hubert Antheaume,"St Nicolas, Nantes",Famille ,Madeleine Boucher,"St Nicolas, Nantes",,Delalande,4/2E/634,Procuration,02/09/1683
Madeleine Boucher,"St Nicolas, Nantes",Famille ,Hubert Antheaume,"St Nicolas, Nantes",,Delalande,4/2E/640,Assiette,25/10/1689
Madeleine Boucher,"St Nicolas, Nantes",Famille ,Hubert Antheaume,"St Nicolas, Nantes",,Delalande,4/2E/640,Assiette,25/10/1689
Hubert Antheaume,"St Nicolas, Nantes",Commerce ,Louis Vassal,Paris,,Delalande,4/2E/640,Assiette,25/10/1689
Hubert Antheaume,"St Nicolas, Nantes",Commerce ,? Guillocheau,Nantes,,Delalande,4/2E/640,Assiette,25/10/1689
Madeleine Boucher,"St Nicolas, Nantes",Commerce ,? Guillocheau,Nantes,,Delalande,4/2E/640,Assiette,25/10/1689
Hubert Antheaume,"St Nicolas, Nantes",Finance ,Roze Boucher,"St Nicolas, Nantes",,Delalande,4/2E/640,Cession,26/12/1689
Hubert Antheaume,"St Nicolas, Nantes",Finance ,"Jean Baptiste Boiset, sr de Favel",,,Delalande,4/2E/640,Rente,20/12/1683
Hubert Antheaume,"St Nicolas, Nantes",Famille,Madelaine Boucher,"St Nicolas, Nantes",,Delalande,4/2E/640,Testament,31/12/1689
Hubert Antheaume,"St Nicolas, Nantes",Famille,Roze Boucher,"St Nicolas, Nantes",,Delalande,4/2E/640,Testament,31/12/1689
Roze Boucher,"St Nicolas, Nantes",Famille,Madelaine Boucher,"St Nicolas, Nantes",,Delalande,4/2E/640,Testament,31/12/1689
Roze Boucher,"St Nicolas, Nantes",Famille,Marie Boucher,"St Nicolas, Nantes",,Delalande,4/2E/640,Testament,31/12/1689
Hubert Antheaume,"St Nicolas, Nantes",Famille,Marie Boucher,"St Nicolas, Nantes",,Delalande,4/2E/640,Testament,31/12/1689
Hubert Antheaume,"St Nicolas, Nantes",Finance ,Veuve Boucher,Ile St Domingue,,Delalande,4/2E/640,Testament,31/12/1689
Hubert Antheaume,"St Nicolas, Nantes",Famille,Veuve Boucher,Ile St Domingue,,Delalande,4/2E/640,Testament,31/12/1689
Madeleine Boucher,"St Nicolas, Nantes",Famille,Veuve Boucher,Ile St Domingue,,Delalande,4/2E/640,Testament,31/12/1689
Hubert Antheaume,"St Nicolas, Nantes",Commerce ,Jean Gauret,Ile St Domingue,,Delalande,4/2E/640,Testament,31/12/1689
Hubert Antheaume,"St Nicolas, Nantes",Commerce ,? Lesergent,Ile St Domingue,,Delalande,4/2E/640,Testament,31/12/1689
Jean Gauret,Ile St Domingue,Commerce ,? Lesergent,Ile St Domingue,,Delalande,4/2E/640,Testament,31/12/1689
Hubert Antheaume,"St Nicolas, Nantes",Travail,Julienne ?,"St Nicolas, Nantes",,Delalande,4/2E/640,Testament,31/12/1689
Hubert Antheaume,"St Nicolas, Nantes",Famille,Eloy Antheaume,Paris,,Delalande,4/2E/640,Testament,07/01/1690
Hubert Antheaume,"St Nicolas, Nantes",Famille,Anne Vallet,Paris,,Delalande,4/2E/640,Testament,07/01/1690
Eloy Antheaume,Paris,Famille,Anne Vallet,Paris,,Delalande,4/2E/640,Testament,07/01/1690
Madeleine Boucher,"St Nicolas, Nantes",Finance ,Eloy Antheaume,Paris,,Delalande,4/2E/640,Testament,07/01/1690
Hubert Antheaume,"St Nicolas, Nantes",Finance ,Eloy Antheaume,Paris,,Delalande,4/2E/640,Testament,07/01/1690
Madeleine Boucher,"St Nicolas, Nantes",Famille,Eloy Antheaume,Paris,,Delalande,4/2E/640,Testament,07/01/1690
Madeleine Boucher,"St Nicolas, Nantes",Finance ,François Bouchaud sr de la Foretterie,"St Nicolas, Nantes",,Delalande,4/2E/640,Transport,06/06/1690
Madeleine Boucher,"St Nicolas, Nantes",Finance ,Jacques Souchay et Bouchaud,"St Nicolas, Nantes",,Delalande,4/2E/640,Transport,06/06/1690
Madeleine Boucher,"St Nicolas, Nantes",Finance ,? Gauvain,"St Nicolas, Nantes",,Delalande,4/2E/640,Transport,06/06/1690
Madeleine Boucher,"St Nicolas, Nantes",Finance ,? Belot,"St Nicolas, Nantes",,Delalande,4/2E/640,Transport,06/06/1690
Madeleine Boucher,"St Nicolas, Nantes",Finance ,? De la Maison Rouge Perrault,"St Nicolas, Nantes",,Delalande,4/2E/640,Transport,06/06/1690
Madeleine Boucher,"St Nicolas, Nantes",Finance ,? Bruneau,"St Nicolas, Nantes",,Delalande,4/2E/640,Transport,06/06/1690
Madeleine Boucher,"St Nicolas, Nantes",Finance ,Claude Berthelot,"St Nicolas, Nantes",,Delalande,4/2E/640,Transport,06/06/1690
Madeleine Boucher,"St Nicolas, Nantes",Finance ,Maximilien Lebreton,"St Nicolas, Nantes",,Delalande,4/2E/640,Transport,06/06/1690
Madeleine Boucher,"St Nicolas, Nantes",Finance ,? De Vonnes Lucas,"St Nicolas, Nantes",,Delalande,4/2E/640,Transport,06/06/1690
Madeleine Boucher,"St Nicolas, Nantes",Finance ,René Budan,"St Nicolas, Nantes",,Delalande,4/2E/640,Transport,06/06/1690
Madeleine Boucher,"St Nicolas, Nantes",Finance ,Jacques Danguy,"St Nicolas, Nantes",,Delalande,4/2E/640,Transport,06/06/1690
Madeleine Boucher,"St Nicolas, Nantes",Finance ,? Stalpart,St Sébastien,,Delalande,4/2E/640,Transport,06/06/1690
Madeleine Boucher,"St Nicolas, Nantes",Finance ,? Montaudoin,"St Nicolas, Nantes",,Delalande,4/2E/640,Transport,06/06/1690
Hubert Antheaume,"St Nicolas, Nantes",Finance ,François Bouchaud sr de la Foretterie,"St Nicolas, Nantes",,Delalande,4/2E/640,Transport,06/06/1690
Hubert Antheaume,"St Nicolas, Nantes",Finance ,? Souchay,"St Nicolas, Nantes",,Delalande,4/2E/640,Transport,06/06/1690
Hubert Antheaume,"St Nicolas, Nantes",Finance ,? Gauvain,"St Nicolas, Nantes",,Delalande,4/2E/640,Transport,06/06/1690
Hubert Antheaume,"St Nicolas, Nantes",Finance ,? Belot,"St Nicolas, Nantes",,Delalande,4/2E/640,Transport,06/06/1690
Hubert Antheaume,"St Nicolas, Nantes",Finance ,? De la Maison Rouge Perrault,"St Nicolas, Nantes",,Delalande,4/2E/640,Transport,06/06/1690
Hubert Antheaume,"St Nicolas, Nantes",Finance ,? Bruneau,"St Nicolas, Nantes",,Delalande,4/2E/640,Transport,06/06/1690
Hubert Antheaume,"St Nicolas, Nantes",Finance ,Claude Berthelot,"St Nicolas, Nantes",,Delalande,4/2E/640,Transport,06/06/1690
Hubert Antheaume,"St Nicolas, Nantes",Finance ,Maximilien Lebreton,"St Nicolas, Nantes",,Delalande,4/2E/640,Transport,06/06/1690
Hubert Antheaume,"St Nicolas, Nantes",Finance ,? De Vonnes Lucas,"St Nicolas, Nantes",,Delalande,4/2E/640,Transport,06/06/1690
Hubert Antheaume,"St Nicolas, Nantes",Finance ,René Budan,"St Nicolas, Nantes",,Delalande,4/2E/640,Transport,06/06/1690
Hubert Antheaume,"St Nicolas, Nantes",Finance ,Jacques Danguy,"St Nicolas, Nantes",,Delalande,4/2E/640,Transport,06/06/1690
Hubert Antheaume,"St Nicolas, Nantes",Finance ,? Stalpart,St Sébastien,,Delalande,4/2E/640,Transport,06/06/1690
Hubert Antheaume,"St Nicolas, Nantes",Finance ,? Montaudoin,"St Nicolas, Nantes",,Delalande,4/2E/640,Transport,06/06/1690
Madeleine Boucher,"St Nicolas, Nantes",Famille,Hubert Antheaume,"St Nicolas, Nantes",,Delalande,4/2E/640,Transport,06/06/1690
Madeleine Boucher,"St Nicolas, Nantes",Travail ,Ancelme Beaugrand,Dunkerque,,Delalande,4/2E/640,Transport,06/06/1690
Jean Mersant,"St Nicolas, Nantes",Commerce,Madeleine Boucher,"St Nicolas, Nantes",,Delalande,4/2E/643,Procuration,19/01/1692
André Delaville sr de la Foucherie,"St Saturnin, Nantes",Famille,Madeleine Boucher,"St Nicolas, Nantes",St Sébastien,Delalande,4/2E/643,mariage,03/06/1692
Marie Boucher,"St Nicolas, Nantes",Travail ,François Truseau,Rhuys,"Auray, Vannes",Verger,4/2E/1929,Transaction,13/12/1660
Marie Boucher,"St Nicolas, Nantes",Commerce ,Bernard Gillabert,Bordeaux,,Verger,4/2E/1933,Attestation,11/07/1662
Bernard Gillabert,Bordeaux,Travail ,Daniel de Vassal,Mornac sur Seudre,,Verger,4/2E/1933,Attestation,11/07/1662
Bernard Gillabert,Bordeaux,Travail ,Michel Tessier,Chastain en Saintonge,,Verger,4/2E/1933,Attestation,11/07/1662
Bernard Gillabert,Bordeaux,Travail ,Josué de Bargeau,Chastain en Saintonge,,Verger,4/2E/1933,Attestation,11/07/1662
Marie Boucher,"St Nicolas, Nantes",Travail ,Daniel de Vassal,Mornac sur Seudre,,Verger,4/2E/1933,Attestation,11/07/1662
Marie Boucher,"St Nicolas, Nantes",Travail ,Michel Tessier,Chastain en Saintonge,,Verger,4/2E/1933,Attestation,11/07/1662
Marie Boucher,"St Nicolas, Nantes",Travail ,Josué de Bargeau,Chastain en Saintonge,,Verger,4/2E/1933,Attestation,11/07/1662
Marie Boucher,"St Nicolas, Nantes",Famille ,Jean Boucher,Amsterdam,,Verger,4/2E/1935,Contrat apprentiissage,14/12/1663
Cornelius Wils,Nantes,Famille ,Jean Wills,Amsterdam,,Verger,4/2E/1935,Contrat apprentiissage,14/12/1663
Cornelius Wils,Nantes,Famille ,Jean Wills,Amsterdam,,Verger,4/2E/1935,Contrat apprentiissage,14/12/1663
Marie Boucher,"St Nicolas, Nantes",Commerce ,Cornelius Wils,Nantes,,Verger,4/2E/1935,Contrat apprentiissage,14/12/1663
Jean Boucher,Amsterdam,Commerce ,Jean Wills,Amsterdam,,Verger,4/2E/1935,Contrat apprentiissage,14/12/1663
Anne Gallier,"St Nicolas, Nantes",Famille,Mathurin Marion,"St Nicolas, Nantes",,Verger,4/2E/1936,Cambie,01/02/1664
Mathurin Marion,"St Nicolas, Nantes",Travail ,Moyse Febvre,La Chaume,,Verger,4/2E/1936,Cambie,01/02/1664
Cornelis Wils,,Commerce,Thymen Van Schoonhoven,,,Verger,4/2E/1936,Cambie,01/02/1664
Wils et Van Schoonhoven Cie,,Finance ,Pierre Guyonneau,,,Verger,4/2E/1936,Cambie,01/02/1664
Wils et Van Schoonhoven Cie,,Finance ,Pierre Guinebaud,,,Verger,4/2E/1936,Cambie,01/02/1664
Pierre Guinebaud,,Commerce,Euzebe de Loynes,Orléans,,Verger,4/2E/1936,Cambie,01/02/1664
Wils et Van Schoonhoven Cie,,Finance ,Marie Boucher,"St Nicolas, Nantes",,Verger,4/2E/1936,Cambie,01/02/1664
Marie Boucher,"St Nicolas, Nantes",Commerce,Jean Baptiste Foucaud,Orléans,,Verger,4/2E/1936,Cambie,01/02/1664
Pierre Guyonneau,,Finance ,Pierre Guinebaud,,,Verger,4/2E/1936,Cambie,01/02/1664
Pierre Guyonneau,,Finance ,Marie Boucher,"St Nicolas, Nantes",,Verger,4/2E/1936,Cambie,01/02/1664
Pierre Guinebaud,,Finance ,Marie Boucher,"St Nicolas, Nantes",,Verger,4/2E/1936,Cambie,01/02/1664
Mathurin Marion,,Finance ,Wils et Van Schoonhoven Cie,,,Verger,4/2E/1936,Cambie,01/02/1664
Mathurin Marion,,Finance ,Pierre Guyonneau,,,Verger,4/2E/1936,Cambie,01/02/1664
Mathurin Marion,,Finance ,Pierre Guinebaud,,,Verger,4/2E/1936,Cambie,01/02/1664
Mathurin Marion,,Finance ,Marie Boucher,"St Nicolas, Nantes",,Verger,4/2E/1936,Cambie,01/02/1664
Anne Gallier,"St Nicolas, Nantes",Finance ,Wils et Van Schoonhoven Cie,,,Verger,4/2E/1936,Cambie,01/02/1664
Anne Gallier,"St Nicolas, Nantes",Finance ,Pierre Guyonneau,,,Verger,4/2E/1936,Cambie,01/02/1664
Anne Gallier,"St Nicolas, Nantes",Finance ,Pierre Guinebaud,,,Verger,4/2E/1936,Cambie,01/02/1664
Anne Gallier,"St Nicolas, Nantes",Finance ,Marie Boucher,"St Nicolas, Nantes",,Verger,4/2E/1936,Cambie,01/02/1664
Marie Boucher,"St Nicolas, Nantes",Commerce ,Bernard Gillabert, Bordeaux, ,Verger,4/2E/1936,Attestation,09/04/1664
Bernard Gillabert,Bordeaux,Travail ,Pierre Goudin,Olonne,,Verger,4/2E/1936,Attestation,09/04/1664
Bernard Gillabert,Bordeaux,Travail ,Arnault de La Conforque,Bordeaux,,Verger,4/2E/1936,Attestation,09/04/1664
Bernard Gillabert,Bordeaux,Travail ,Jean Batau,Mesquer,,Verger,4/2E/1936,Attestation,09/04/1664
Bernard Gillabert,Bordeaux,Travail ,François Laragon,Le Pouliguen,,Verger,4/2E/1936,Attestation,09/04/1664
Bernard Gillabert,Bordeaux,Travail ,Daniel Caneret,Audierne,,Verger,4/2E/1936,Attestation,09/04/1664
Marie Boucher,"St Nicolas, Nantes",Travail ,Pierre Goudin,Olonne,,Verger,4/2E/1936,Attestation,09/04/1664
Marie Boucher,"St Nicolas, Nantes",Travail ,Arnault de La Conforque,Bordeaux,,Verger,4/2E/1936,Attestation,09/04/1664
Marie Boucher,"St Nicolas, Nantes",Travail ,Jean Batau,Mesquer,,Verger,4/2E/1936,Attestation,09/04/1664
Marie Boucher,"St Nicolas, Nantes",Travail ,François Laragon,Le Pouliguen,,Verger,4/2E/1936,Attestation,09/04/1664
Marie Boucher,"St Nicolas, Nantes",Travail ,Daniel Caneret,Audierne,,Verger,4/2E/1936,Attestation,09/04/1664
Marie Boucher,"St Nicolas, Nantes",Famille ,Jean Boucher,"St Nicolas, Nantes",,Verger,4/2E/1941,Fretement,12/08/1666
Marie Boucher,"St Nicolas, Nantes",Commerce ,Jean Boucher,"St Nicolas, Nantes",Lisbonne,Verger,4/2E/1941,Fretement,12/08/1666
Marie Boucher,"St Nicolas, Nantes",Travail ,Yves Le Fauché,Le Pouliguen,"Lisbonne, La Rochelle, Bordeaux",Verger,4/2E/1941,Assurance,12/08/1666
Marie Boucher,"St Nicolas, Nantes",Finance ,? Grilleau Cie,,,Verger,4/2E/1941,Assurance,12/08/1666
Marie Boucher,"St Nicolas, Nantes",Finance ,Thomas Barnaval,,,Verger,4/2E/1941,Assurance,12/08/1666
? Grilleau Cie,,Finance ,Thomas Barnaval,,,Verger,4/2E/1941,Assurance,12/08/1666
Marie Boucher,"St Nicolas, Nantes",Finance ,Veuve Massuau et Fresneau, ,Lisbonne,Verger,4/2E/1941,Assurance,25/08/1666
Veuve Massuau, ,Commerce ,? Fresneau, ,,Verger,4/2E/1941,Assurance,25/08/1666
Marie Boucher,"St Nicolas, Nantes",Finance ,Jacques Souchay et Bouchaud, ,,Verger,4/2E/1941,Assurance,25/08/1666
Jacques Souchay, ,Commerce ,? Bouchaud, ,,Verger,4/2E/1941,Assurance,25/08/1666
Marie Boucher,"St Nicolas, Nantes",Finance ,Gabriel Michel, ,,Verger,4/2E/1941,Assurance,25/08/1666
Marie Boucher,"St Nicolas, Nantes",Finance ,Julien Gérard sr de Nays,,,Verger,4/2E/1941,Assurance,25/08/1666
Marie Boucher,"St Nicolas, Nantes",Finance ,André Boussineau,,,Verger,4/2E/1941,Assurance,25/08/1666
Marie Boucher,"St Nicolas, Nantes",Finance ,Claude Marion,,,Verger,4/2E/1941,Assurance,25/08/1666
Marie Boucher,"St Nicolas, Nantes",Finance ,Jacob Van den ?,,,Verger,4/2E/1941,Assurance,25/08/1666
Marie Boucher,"St Nicolas, Nantes",Finance ,?,Orléans,,Verger,4/2E/1941,Assurance,25/08/1666
? Jego sr Des Preaux ,Le Croisic,Finance ,Pierre Le Gruyer sr du Couhourdez,Le Croisic,,Verger,4/2E/1941,Protest,31/08/1666
Marie Boucher,"St Nicolas, Nantes",Finance ,Pierre Le Gruyer sr du Couhourdez,Le Croisic,,Verger,4/2E/1941,Protest,31/08/1666
François Lestoubec,Le Croisic,Finance ,Lorant Hubac,Brest,,Verger,4/2E/1941,Protest,31/08/1666
Lorant Hubac,Brest,Finance ,Yvon Le Danteux,Le Croisic,,Verger,4/2E/1941,Protest,31/08/1666
Yvon Le Danteux,Le Croisic,Finance ,? Jego sr Des Preaux ,Le Croisic,,Verger,4/2E/1941,Protest,31/08/1666
Marie Boucher,"St Nicolas, Nantes",Finance ,François Lestoubec,Le Croisic,,Verger,4/2E/1941,Protest,31/08/1666
Marie Boucher,"St Nicolas, Nantes",Finance ,? Jego sr Des Preaux ,Le Croisic,,Verger,4/2E/1941,Protest,31/08/1666
Marie Boucher,"St Nicolas, Nantes",Finance ,Lorant Hubac,Brest,,Verger,4/2E/1941,Protest,31/08/1666
Marie Boucher,"St Nicolas, Nantes",Finance ,Yvon Le Danteux,Le Croisic,,Verger,4/2E/1941,Protest,31/08/1666
Marie Boucher,"St Nicolas, Nantes",Commerce ,Michel Foucault,Orléans,,Verger,4/2E/1942,Fretement,17/11/1666
Marie Boucher,"St Nicolas, Nantes",Commerce ,Euzèbe Foucault,Orléans,,Verger,4/2E/1942,Fretement,17/11/1666
Michel Foucault,Orléans,Famille,Euzèbe Foucault,Orléans,,Verger,4/2E/1942,Fretement,17/11/1666
Michel Foucault,Orléans,Commerce ,Euzèbe Foucault,Orléans,,Verger,4/2E/1942,Fretement,17/11/1666
Marie Boucher,"St Nicolas, Nantes",Travail ,Nicolas de Gonnor,St Gilles sur Vie,"Le Pellerin, Vannes, Auray, Cadix",Verger,4/2E/1942,Fretement,17/11/1666
Marie Boucher,"St Nicolas, Nantes",Travail ,Pierre Bernard,Bourgneuf,Lisbonne,Verger,4/2E/1944,Quittance,28/09/1667
Marie Boucher,"St Nicolas, Nantes",Famille,Jean Boucher,"Bouffay, Nantes",,Verger,4/2E/1944,Quittance,28/09/1667
Jean Boucher,"Bouffay, Nantes",Finance,,,Bourgneuf,Verger,4/2E/1944,Fretement,08/03/1667
Jean Boucher,"St Nicolas, Nantes",Famille,Marie Boucher,"St Nicolas, Nantes","Iles Canaries, Lisbonne",Verger,4/2E/1944,Testament,27/11/1667
Jean Boucher,"St Nicolas, Nantes",Commerce ,Marie Boucher,"St Nicolas, Nantes",,Verger,4/2E/1944,Testament,27/11/1667
Jean Boucher,"St Nicolas, Nantes",Travail ,Euzèbe de Loynes,Orléans,,Verger,4/2E/1944,Testament,27/11/1667
Jean Boucher,"St Nicolas, Nantes",Travail ,Euzèbe Foucault,Orléans,,Verger,4/2E/1944,Testament,27/11/1667
Jean Boucher,"St Nicolas, Nantes",Travail ,Veuve Louis Le Vassor,Orléans,,Verger,4/2E/1944,Testament,27/11/1667
Euzèbe de Loynes,Orléans,Finance,Euzèbe Foucault,Orléans,,Verger,4/2E/1944,Testament,27/11/1667
Euzèbe de Loynes,Orléans,Finance,Veuve Louis Le Vassor,Orléans,,Verger,4/2E/1944,Testament,27/11/1667
Euzèbe Foucault,Orléans,Finance,Veuve Louis Le Vassor,Orléans,,Verger,4/2E/1944,Testament,27/11/1667
Jean Boucher,"St Nicolas, Nantes",Travail ,Pierre Benasté,Bourgneuf,,Verger,4/2E/1944,Testament,27/11/1667
Jean Boucher,"St Nicolas, Nantes",Commerce ,Charles Pocquelin et Heron Cie,Lisbonne,,Verger,4/2E/1944,Testament,27/11/1667
Charles Pocquelin,Lisbonne,Commerce ,? Heron,Lisbonne,,Verger,4/2E/1944,Testament,27/11/1667
Jean Boucher,"St Nicolas, Nantes",Commerce ,Julien Forget,Nantes,,Verger,4/2E/1944,Testament,27/11/1667
Catherine Lefebvre,Bourgneuf,Commerce,"Elizabeth Monnier, dame de la Joffrairie",Bourgneuf,,Verger,4/2E/1945,Pouvoir,28/04/1668
"Elizabeth Monnier, dame de la Joffrairie",Bourgneuf,Finance ,? de Loigné,,,Verger,4/2E/1945,Pouvoir,28/04/1668
Catherine Lefebvre,Bourgneuf,Finance ,? de Loigné,,,Verger,4/2E/1945,Pouvoir,28/04/1668
Marie Boucher,"St Nicolas, Nantes",Commerce,François Masson,,,Verger,4/2E/1945,Pouvoir,01/05/1668
"Elizabeth Monnier, dame de la Joffrairie",Bourgneuf,Commerce,Marie Boucher,"St Nicolas, Nantes",,Verger,4/2E/1945,Pouvoir,01/05/1668
"Elizabeth Monnier, dame de la Joffrairie",Bourgneuf,Famille,"Julien Hubin, sr de la Joffrairie",Bourgneuf,,Verger,4/2E/1945,Pouvoir,01/05/1668
Marie Boucher,"St Nicolas, Nantes",Finance ,Charles Cassard,Nantes,,Verger,4/2E/1950,Protest,22/07/1670
Charles Cassard,Nantes,Finance ,Robert Miron,Orléans,,Verger,4/2E/1950,Protest,22/07/1670
Robert Miron,Orléans,Finance ,Denis Jaumier,,,Verger,4/2E/1950,Protest,22/07/1670
Denis Jaumier,,Finance ,Charles Cassard,Nantes,,Verger,4/2E/1950,Protest,22/07/1670
Marie Boucher,"St Nicolas, Nantes",Finance ,Robert Miron,Orléans,,Verger,4/2E/1950,Protest,22/07/1670
René Cisson,Nantes,Finance ,Charles Cassard,Nantes,,Verger,4/2E/1950,Protest,22/07/1670
Jean Renou,Nantes,Finance ,Charles Cassard,Nantes,,Verger,4/2E/1950,Protest,22/07/1670
Bonnaventure Dupé,Nantes,Finance ,Charles Cassard,Nantes,,Verger,4/2E/1950,Protest,22/07/1670
Marie Boucher,"St Nicolas, Nantes",Famille,Jacques Boucher,"St Nicolas, Nantes","Paimbeuf, Antilles, Bordeaux",Verger,4/2E/1950,Fretement,09/09/1670
Marie Boucher,"St Nicolas, Nantes",Commerce ,Claude Courdon,"St Nicolas, Nantes",,Verger,4/2E/1950,Fretement,09/09/1670
Jacques Boucher,"St Nicolas, Nantes",Commerce ,Claude Courdon,"St Nicolas, Nantes",,Verger,4/2E/1950,Fretement,09/09/1670
Hervé Le Prince,Le Croisic,Travail ,Jacques Boucher,"St Nicolas, Nantes",,Verger,4/2E/1950,Fretement,09/09/1670
Hervé Le Prince,Le Croisic,Travail ,Claude Courdon,"St Nicolas, Nantes",,Verger,4/2E/1950,Fretement,09/09/1670
Hervé Le Prince,Le Croisic,Travail ,Marie Boucher,"St Nicolas, Nantes",,Verger,4/2E/1950,Fretement,09/09/1670
Marie Boucher,"St Nicolas, Nantes",Commerce,Jacques Boucher,"St Nicolas, Nantes",,Verger,4/2E/1950,Fretement,09/09/1670
Hervé Le Prince,Le Croisic,Travail ,Michel Yviquel,Le Croisic,,Verger,4/2E/1950,Fretement,09/09/1670
Hubert Antheaume,"St Nicolas, Nantes",Famille,Madeleine Boucher,"St Nicolas, Nantes",,Verger,4/2E/1950,Mariage,12/10/1670
Hubert Antheaume,"St Nicolas, Nantes",Famille,Eloy Antheaume,"St Sulpice, Paris",,Verger,4/2E/1950,Mariage,12/10/1670
Hubert Antheaume,"St Nicolas, Nantes",Famille,Claude Du Mesnil,"St Sulpice, Paris",,Verger,4/2E/1950,Mariage,12/10/1670
Eloy Antheaume,"St Sulpice, Paris",Famille,Claude Du Mesnil,"St Sulpice, Paris",,Verger,4/2E/1950,Mariage,12/10/1670
Hubert Antheaume,"St Nicolas, Nantes",Famille,Marie Boucher,"St Nicolas, Nantes",,Verger,4/2E/1950,Mariage,12/10/1670
Madeleine Boucher,"St Nicolas, Nantes",Famille,Jean Boucher,Ile St Christophe,,Verger,4/2E/1950,Mariage,12/10/1670
Madeleine Boucher,"St Nicolas, Nantes",Famille,Françoise Seurat,Ile St Christophe,,Verger,4/2E/1950,Mariage,12/10/1670
Jean Boucher,Ile St Christophe,Famille,Françoise Seurat,Ile St Christophe,,Verger,4/2E/1950,Mariage,12/10/1670
Madeleine Boucher,"St Nicolas, Nantes",Famille,Marie Boucher,"St Nicolas, Nantes",,Verger,4/2E/1950,Mariage,12/10/1670
Marie Boucher,"St Nicolas, Nantes",Famille,Jean Boucher,Ile St Christophe,,Verger,4/2E/1950,Mariage,12/10/1670
Marie Boucher,"St Nicolas, Nantes",Commerce,Jean Boucher,Ile St Christophe,,Verger,4/2E/1950,Mariage,12/10/1670
Jean Merceron sr de la Poitevinière,"St Nicolas, Nantes",Finance ,Madeleine Boucher,"St Nicolas, Nantes",,Verger,4/2E/1950,Mariage,12/10/1670
Jean Merceron sr de la Poitevinière,"St Nicolas, Nantes",Commerce,Hubert Antheaume,"St Nicolas, Nantes",,Verger,4/2E/1950,Mariage,12/10/1670
Jacques Antheaume,Ile St Domingue,Famille,Hubert Antheaume,"St Nicolas, Nantes",,Verger,4/2E/1951,Procuration,12/06/1669
Jacques Antheaume,Ile St Domingue,Commerce,Hubert Antheaume,"St Nicolas, Nantes",,Verger,4/2E/1951,Procuration,12/06/1669
Jean Chesneau,Ancenis,Travail,Hubert Antheaume,"St Nicolas, Nantes",,Verger,4/2E/1951,Engagement,11/02/1671
Jean Chesneau,Ancenis,Famille,Simon Chesneau,Ancenis,,Verger,4/2E/1951,Engagement,11/02/1671
Jean Chesneau,Ancenis,Famille,Renée Leboisteux,Ancenis,,Verger,4/2E/1951,Engagement,11/02/1671
Simon Chesneau,Ancenis,Famille,Renée Leboisteux,Ancenis,,Verger,4/2E/1951,Engagement,11/02/1671
Hubert Antheaume,"St Nicolas, Nantes",Commerce,Bernard Godin,Ile St Domingue,,Verger,4/2E/1951,Engagement,11/02/1671
Jean Chesneau,Ancenis,Travail,? Belliotte,St Nazaire,,Verger,4/2E/1951,Engagement,11/02/1671
Jean Chesneau,Ancenis,Travail,Bernard Godin,Ile St Domingue,,Verger,4/2E/1951,Engagement,11/02/1671
Jérôme de Vocelle,Ile de la Tortue, ,Jean Grouart,Ile de la Tortue,,Verger,4/2E/1951,Procuration,23/02/1671
Hubert Antheaume,"St Nicolas, Nantes",Finance ,Jérôme de Vocelle,Ile de la Tortue,,Verger,4/2E/1951,Procuration,23/02/1671
Marie Boucher,"St Nicolas, Nantes",Famille,Hubert Antheaume,"St Nicolas, Nantes",,Verger,4/2E/1951,Procuration,11/03/1671
Marie Boucher,"St Nicolas, Nantes",Famille,Madeleine Boucher,"St Nicolas, Nantes",,Verger,4/2E/1951,Procuration,11/03/1671
Hubert Antheaume,"St Nicolas, Nantes",Famille,Madeline Boucher,"St Nicolas, Nantes",,Verger,4/2E/1951,Procuration,11/03/1671
Marie Boucher,"St Nicolas, Nantes",Commerce,Hubert Antheaume,"St Nicolas, Nantes",,Verger,4/2E/1951,Procuration,11/03/1671
Marie Boucher,"St Nicolas, Nantes",Commerce,Madeleine Boucher,"St Nicolas, Nantes",,Verger,4/2E/1951,Procuration,11/03/1671
Hubert Antheaume,"St Nicolas, Nantes",Commerce,Madeline Boucher,"St Nicolas, Nantes",,Verger,4/2E/1951,Procuration,11/03/1671
Marie Boucher,"St Nicolas, Nantes",Famille,Roze Boucher,"St Nicolas, Nantes",,Verger,4/2E/1953,Déclaration,28/01/1672
Marie Boucher,"St Nicolas, Nantes",Commerce,Roze Boucher,"St Nicolas, Nantes",,Verger,4/2E/1953,Déclaration,28/01/1672
Pierre Gaigneur,La Rochelle,Commerce,Jean Ragniau,La Rochelle,,Verger,4/2E/1953,Cambie,08/01/1672
Pierre Gaigneur,La Rochelle,Commerce,François Pachon,La Rochelle,,Verger,4/2E/1953,Cambie,08/01/1672
Pierre Gaigneur,La Rochelle,Commerce,? Arnaud Père,La Rochelle,,Verger,4/2E/1953,Cambie,08/01/1672
François Pachon,La Rochelle,Commerce,? Arnaud Père,La Rochelle,,Verger,4/2E/1953,Cambie,08/01/1672
François Pachon,La Rochelle,Commerce,Jean Ragniau,La Rochelle,,Verger,4/2E/1953,Cambie,08/01/1672
? Arnaud Père,La Rochelle,Commerce,Jean Ragniau,La Rochelle,,Verger,4/2E/1953,Cambie,08/01/1672
Jean Ragniau,La Rochelle,Commerce,Josué Valens,Ile de Ré,,Verger,4/2E/1953,Cambie,08/01/1672
Nicolas Bachelier sr du Pinier,,Finance,Jérôme Merceron,,,Verger,4/2E/1953,Cambie,08/01/1672
Jérôme Merceron,,Finance,Claude de Cornillier,,,Verger,4/2E/1953,Cambie,08/01/1672
Claude de Cornillier,,Finance,Nicolas Bachelier sr du Pinier,,,Verger,4/2E/1953,Cambie,08/01/1672
Robert Miron,Orléans,Finance,Jean de Beausse,Orléans,,Verger,4/2E/1953,Cambie,08/01/1672
Marie Boucher et Hubert Antheaume Cie,"St Nicolas, Nantes",Finance,Robert Miron,Orléans,,Verger,4/2E/1953,Cambie,08/01/1672
Marie Boucher et Hubert Antheaume Cie,"St Nicolas, Nantes",Commerce,Jean de Beausse,Orléans,,Verger,4/2E/1953,Cambie,08/01/1672
Robert Miron,Orléans,Commerce,Jean de Beausse,Orléans,,Verger,4/2E/1953,Cambie,08/01/1672
François Pachon,La Rochelle,Commerce ,Josué Valens,Ile de Ré,,Verger,4/2E/1953,Cambie,08/01/1672
? Arnaud Père,La Rochelle,Commerce ,Josué Valens,Ile de Ré,,Verger,4/2E/1953,Cambie,08/01/1672
Pierre Gaigneur,La Rochelle,Commerce ,Josué Valens,Ile de Ré,,Verger,4/2E/1953,Cambie,08/01/1672
Marie Boucher et Hubert Antheaume Cie,"St Nicolas, Nantes",Finance,Nicolas Bachelier sr du Pinier,,,Verger,4/2E/1953,Cambie,08/01/1672
Marie Boucher et Hubert Antheaume Cie,"St Nicolas, Nantes",Finance,Jérôme Merceron,,,Verger,4/2E/1953,Cambie,08/01/1672
Marie Boucher et Hubert Antheaume Cie,"St Nicolas, Nantes",Finance,Claude de Cornillier,,,Verger,4/2E/1953,Cambie,08/01/1672
Nicolas Bachelier,,Finance,Jérôme Merceron,,,Verger,4/2E/1954,Cambie,12/10/1672
Nicolas Bachelier,,Finance,Etienne Huet,,,Verger,4/2E/1954,Cambie,12/10/1672
Nicolas Bachelier,,Finance,Marie Boucher et Hubert Antheaume Cie,"St Nicolas, Nantes",,Verger,4/2E/1954,Cambie,12/10/1672
Nicolas Bachelier,,Finance,? de Flacon,,,Verger,4/2E/1954,Cambie,12/10/1672
Nicolas Bachelier,,Finance,Pierre Guinebaud,,,Verger,4/2E/1954,Cambie,12/10/1672
Nicolas Bachelier,,Finance,Claude Lemasne,,,Verger,4/2E/1954,Cambie,12/10/1672
Nicolas Bachelier,,Finance,Louis Germain,,,Verger,4/2E/1954,Cambie,12/10/1672
Jérôme Merceron,,Finance,Etienne Huet,,,Verger,4/2E/1954,Cambie,12/10/1672
Jérôme Merceron,,Finance,Marie Boucher et Hubert Antheaume Cie,"St Nicolas, Nantes",,Verger,4/2E/1954,Cambie,12/10/1672
Jérôme Merceron,,Finance,? de Flacon,,,Verger,4/2E/1954,Cambie,12/10/1672
Jérôme Merceron,,Finance,Pierre Guinebaud,,,Verger,4/2E/1954,Cambie,12/10/1672
Jérôme Merceron,,Finance,Claude Lemasne,,,Verger,4/2E/1954,Cambie,12/10/1672
Jérôme Merceron,,Finance,Louis Germain,,,Verger,4/2E/1954,Cambie,12/10/1672
Etienne Huet,,Finance,Marie Boucher et Hubert Antheaume Cie,"St Nicolas, Nantes",,Verger,4/2E/1954,Cambie,12/10/1672
Etienne Huet,,Finance,? de Flacon,,,Verger,4/2E/1954,Cambie,12/10/1672
Etienne Huet,,Finance,Pierre Guinebaud,,,Verger,4/2E/1954,Cambie,12/10/1672
Etienne Huet,,Finance,Claude Lemasne,,,Verger,4/2E/1954,Cambie,12/10/1672
Etienne Huet,,Finance,Louis Germain,,,Verger,4/2E/1954,Cambie,12/10/1672
Louis Germain,,Commerce,Michel Germain sieur de Valecourt,,,Verger,4/2E/1954,Cambie,12/10/1672
Louis Germain,,Famille,Michel Germain sieur de Valecourt,,,Verger,4/2E/1954,Cambie,12/10/1672
Louis Germain,,Finance,Marie Boucher et Hubert Antheaume Cie,"St Nicolas, Nantes",,Verger,4/2E/1954,Cambie,12/10/1672
Louis Germain,,Finance,? de Flacon,,,Verger,4/2E/1954,Cambie,12/10/1672
Louis Germain,,Finance,Pierre Guinebaud,,,Verger,4/2E/1954,Cambie,12/10/1672
Louis Germain,,Finance,Claude Lemasne,,,Verger,4/2E/1954,Cambie,12/10/1672
Marie Boucher et Hubert Antheaume Cie,"St Nicolas, Nantes",Commerce,Robert Miron,,,Verger,4/2E/1954,Cambie,12/10/1672
Marie Boucher et Hubert Antheaume Cie,"St Nicolas, Nantes",Commerce,Jean de Beausse,Orléans,,Verger,4/2E/1954,Cambie,12/10/1672
Robert Miron,Orléans,Finance,Jean de Beausse,Orléans,,Verger,4/2E/1954,Cambie,12/10/1672
Marie Boucher et Hubert Antheaume Cie,"St Nicolas, Nantes",Finance,? de Flacon,,,Verger,4/2E/1954,Cambie,12/10/1672
Marie Boucher et Hubert Antheaume Cie,"St Nicolas, Nantes",Finance,Pierre Guinebaud,,,Verger,4/2E/1954,Cambie,12/10/1672
Marie Boucher et Hubert Antheaume Cie,"St Nicolas, Nantes",Finance,Claude Lemasne,,,Verger,4/2E/1954,Cambie,12/10/1672
? de Flacon,,Commerce,Damoiselle de Perpignan,,,Verger,4/2E/1954,Cambie,12/10/1672
? de Flacon,,Finance,Pierre Guinebaud,,,Verger,4/2E/1954,Cambie,12/10/1672
? de Flacon,,Finance,Claude Lemasne,,,Verger,4/2E/1954,Cambie,12/10/1672
Pierre Guinebaud,,Commerce,Euzebe de Loynes,,,Verger,4/2E/1954,Cambie,12/10/1672
Pierre Guinebaud,,Finance,Claude Lemasne,,,Verger,4/2E/1954,Cambie,12/10/1672
Nicolas Bachelier,,Finance ,Raoul Sanson,Montoir,,Verger,4/2E/1954,Cambie,12/10/1672
Jérôme Merceron,,Finance ,Raoul Sanson,Montoir,,Verger,4/2E/1954,Cambie,12/10/1672
Etienne Huet, ,Finance ,Raoul Sanson,Montoir,,Verger,4/2E/1954,Cambie,12/10/1672
Louis Germain,,Finance ,Raoul Sanson,Montoir,,Verger,4/2E/1954,Cambie,12/10/1672
Marie Boucher et Hubert Antheaume Cie,"St Nicolas, Nantes",Finance ,Raoul Sanson,Montoir,,Verger,4/2E/1954,Cambie,12/10/1672
? de Flacon,,Finance ,Raoul Sanson,Montoir,,Verger,4/2E/1954,Cambie,12/10/1672
Pierre Guinebaud,,Finance ,Raoul Sanson,Montoir,,Verger,4/2E/1954,Cambie,12/10/1672
Claude Lemasne,,Finance ,Raoul Sanson,Montoir,,Verger,4/2E/1954,Cambie,12/10/1672
Julien Chesne le jeune,"St Nicolas, Nantes",Finance ,Nicolas Bachelier,,,Verger,4/2E/1954,Cambie,12/10/1672
Julien Chesne le jeune,"St Nicolas, Nantes",Finance ,Marie Boucher et Hubert Antheaume Cie,"St Nicolas, Nantes",,Verger,4/2E/1954,Cambie,12/10/1672
Eloy Antheaume,"St Gilles, Paris",Famille,"Eloy Antheaume, père",Paris,,Le Vasseur,MC/ET/XCVIII/227,Inventaire,19/03/1668
Eloy Antheaume,"St Gilles, Paris",Famille,Pierre de Marle,"St Nicolas des Champs, Paris",,Le Vasseur,MC/ET/XCVIII/227,Inventaire,19/03/1668
Eloy Antheaume,"St Gilles, Paris",Famille,Marguerite Antheaume,"St Nicolas des Champs, Paris",,Le Vasseur,MC/ET/XCVIII/227,Inventaire,19/03/1668
Pierre de Marle,"St Nicolas des Champs, Paris",Famille,Marguerite Antheaume,"St Nicolas des Champs, Paris",,Le Vasseur,MC/ET/XCVIII/227,Inventaire,19/03/1668
"Eloy Antheaume, père",Paris,Famille,"St Severin, Paris","St Nicolas des Champs, Paris",,Le Vasseur,MC/ET/XCVIII/227,Inventaire,19/03/1668
Pierre de Marle,"St Nicolas des Champs, Paris",Famille,Eloy Antheaume,"St Gilles, Paris",,Le Vasseur,MC/ET/XCVIII/227,Inventaire,19/03/1668
Eloy Antheaume,"St Gilles, Paris",Famille,"Eloy Antheaume, père",Paris,,Bourlet,MC/ET/XCIX/255,Partage,25/06/1673
Marie Boucher,"St Nicolas des Champs, Paris",Commerce,Hubert Antheaume,"St Nicolas, Nantes",,Bourlet,MC/ET/XCIX/255,Partage,25/06/1673
Marie Boucher,"St Nicolas des Champs, Paris",Famille,Hubert Antheaume,"St Nicolas, Nantes",,Bourlet,MC/ET/XCIX/255,Partage,25/06/1673
"Eloy Antheaume, père",Paris,Famille,Hubert Antheaume,"St Nicolas, Nantes",,Bourlet,MC/ET/XCIX/255,Partage,25/06/1673
"Eloy Antheaume, père",Paris,Famille,Marguerite Antheaume,"St Eustache, Paris",,Bourlet,MC/ET/XCIX/255,Partage,25/06/1673
"Eloy Antheaume, père",Paris,Famille,Jacques Antheaume,"St Nicolas des Champs, Paris",,Bourlet,MC/ET/XCIX/255,Partage,25/06/1673
"Eloy Antheaume, père",Paris,Famille,Claude Du Mesnil,Paris,,Bourlet,MC/ET/XCIX/255,Partage,25/06/1673
Marguerite Antheaume,"St Eustache, Paris",Famille,Pierre de Marle,"St Eustache, Paris",,Bourlet,MC/ET/XCIX/255,Partage,25/06/1673
Eloy Antheaume,"St Gilles, Paris",Famille,Hubert Antheaume,"St Nicolas, Nantes",,Bourlet,MC/ET/XCIX/255,Partage,25/06/1673
Eloy Antheaume,"St Gilles, Paris",Famille,Marguerite Antheaume,"St Eustache, Paris",,Bourlet,MC/ET/XCIX/255,Partage,25/06/1673
Eloy Antheaume,"St Gilles, Paris",Famille,Jacques Antheaume,"St Nicolas des Champs, Paris",,Bourlet,MC/ET/XCIX/255,Partage,25/06/1673
Hubert Antheaume,"St Nicolas, Nantes",Famille,Marguerite Antheaume,"St Eustache, Paris",,Bourlet,MC/ET/XCIX/255,Partage,25/06/1673
Hubert Antheaume,"St Nicolas, Nantes",Famille,Jacques Antheaume,"St Nicolas des Champs, Paris",,Bourlet,MC/ET/XCIX/255,Partage,25/06/1673
Marguerite Antheaume,"St Eustache, Paris",Famille,Jacques Antheaume,"St Nicolas des Champs, Paris",,Bourlet,MC/ET/XCIX/255,Partage,25/06/1673
Claude Du Mesnil,Paris,Famille,"Jehan Ory, père",,,Bourlet,MC/ET/XCIX/255,Partage,25/06/1673
Claude Du Mesnil,Paris,Famille,Jehan Ory  ,,,Bourlet,MC/ET/XCIX/255,Partage,25/06/1673
"Jehan Ory, père",Paris,Famille,Jehan Ory  ,,,Bourlet,MC/ET/XCIX/255,Partage,25/06/1673
Eloy Antheaume,"St Gilles, Paris",Famille,"Eloy Antheaume, père",Paris,,Bourlet,MC/ET/XCIX/258,Transaction,17/03/1674
Marie Boucher,"St Severin, Paris",Commerce,Hubert Antheaume,"St Nicolas, Nantes",,Bourlet,MC/ET/XCIX/258,Transaction,17/03/1674
Marie Boucher,"St Severin, Paris",Famille,Hubert Antheaume,"St Nicolas, Nantes",,Bourlet,MC/ET/XCIX/258,Transaction,17/03/1674
"Eloy Antheaume, père",Paris,Famille,Hubert Antheaume,"St Nicolas, Nantes",,Bourlet,MC/ET/XCIX/258,Transaction,17/03/1674
"Eloy Antheaume, père",Paris,Famille,Marguerite Antheaume,"St Germain L'Auxerrois, Paris",,Bourlet,MC/ET/XCIX/258,Transaction,17/03/1674
"Eloy Antheaume, père",Paris,Famille,Jacques Antheaume,"St Nicolas des Champs, Paris",,Bourlet,MC/ET/XCIX/258,Transaction,17/03/1674
"Eloy Antheaume, père",Paris,Famille,Claude Du Mesnil,Paris,,Bourlet,MC/ET/XCIX/258,Transaction,17/03/1674
Marguerite Antheaume,"St Germain L'Auxerrois, Paris",Famille,Pierre de Marle,"St Germain L'Auxerrois, Paris",,Bourlet,MC/ET/XCIX/258,Transaction,17/03/1674
Eloy Antheaume,"St Gilles, Paris",Famille,Hubert Antheaume,"St Nicolas, Nantes",,Bourlet,MC/ET/XCIX/258,Transaction,17/03/1674
Eloy Antheaume,"St Gilles, Paris",Famille,Marguerite Antheaume,"St Germain L'Auxerrois, Paris",,Bourlet,MC/ET/XCIX/258,Transaction,17/03/1674
Eloy Antheaume,"St Gilles, Paris",Famille,Jacques Antheaume,"St Nicolas des Champs, Paris",,Bourlet,MC/ET/XCIX/258,Transaction,17/03/1674
Hubert Antheaume,"St Nicolas, Nantes",Famille,Marguerite Antheaume,"St Germain L'Auxerrois, Paris",,Bourlet,MC/ET/XCIX/258,Transaction,17/03/1674
Hubert Antheaume,"St Nicolas, Nantes",Famille,Jacques Antheaume,"St Nicolas des Champs, Paris",,Bourlet,MC/ET/XCIX/258,Transaction,17/03/1674
Marguerite Antheaume,"St Germain L'Auxerrois, Paris",Famille,Jacques Antheaume,"St Nicolas des Champs, Paris",,Bourlet,MC/ET/XCIX/258,Transaction,17/03/1674
Claude Du Mesnil,Paris,Famille,Jehan Du Mesnil,,,Bourlet,MC/ET/XCIX/258,Transaction,17/03/1674
Catherine Benard,Paris,Famille,Pierre Girard,,,Bourlet,MC/ET/XCIX/258,Transaction,17/03/1674
Claude Gohard,"St Sulpice, Paris",Finance ,Eloy Antheaume,"St Gilles, Paris",,Bourlet,MC/ET/XCIX/258,Transaction,17/03/1674
Claude Gohard,"St Sulpice, Paris",Finance ,Marie Boucher,"St Severin, Paris",,Bourlet,MC/ET/XCIX/258,Transaction,17/03/1674
Claude Gohard,"St Sulpice, Paris",Finance ,Marguerite Antheaume,"St Germain L'Auxerrois, Paris",,Bourlet,MC/ET/XCIX/258,Transaction,17/03/1674
Claude Gohard,"St Sulpice, Paris",Finance ,Jacques Antheaume,"St Nicolas des Champs, Paris",,Bourlet,MC/ET/XCIX/258,Transaction,17/03/1674
Claude Du Mesnil,Paris,Finance ,Catherine Benard,Paris,,Bourlet,MC/ET/XCIX/258,Transaction,17/03/1674
"Eloy Antheaume, père",Paris,Finance ,Catherine Benard,Paris,,Bourlet,MC/ET/XCIX/258,Transaction,17/03/1674
Hubert Antheaume,"St Severin, Paris",Commerce,Marie Boucher,,,Langlois,MC/ET/CIX/249,Procuration,19/08/1671
Hubert Antheaume,"St Severin, Paris",Famille,Marie Boucher,,,Langlois,MC/ET/CIX/249,Procuration,19/08/1671
Eloy Antheaume père,"St Germain des Prés, Paris",Famille,Claude Du Mesnil,"St Germain des Prés, Paris",,Langlois,MC/ET/CIX/249,Procuration,19/08/1671
Hubert Antheaume,"St Severin, Paris",Famille,Eloy Antheaume père,"St Germain des Prés, Paris",,Langlois,MC/ET/CIX/249,Procuration,19/08/1671
Hubert Antheaume,"St Severin, Paris",Famille,Claude Du Mesnil,"St Germain des Prés, Paris",,Langlois,MC/ET/CIX/249,Procuration,19/08/1671
Eloy Antheaume,"St Leu St Gilles, Paris",Famille,Anne Vallet,"St Leu St Gilles, Paris",,Langlois,MC/ET/CIX/249,Constitution,28/08/1671
Eloy Antheaume,"St Leu St Gilles, Paris",Famille,Hubert Antheaume,"St Severin, Paris",,Langlois,MC/ET/CIX/249,Constitution,28/08/1671
Eloy Antheaume,"St Leu St Gilles, Paris",Famille,Jacques Antheaume,"St Nicolas des Champs, Paris",,Langlois,MC/ET/CIX/249,Constitution,28/08/1671
Eloy Antheaume,"St Leu St Gilles, Paris",Famille,Madeleine Antheaume,"St Lazare, Paris",,Langlois,MC/ET/CIX/249,Constitution,28/08/1671
Hubert Antheaume,"St Severin, Paris",Famille,Jacques Antheaume,"St Nicolas des Champs, Paris",,Langlois,MC/ET/CIX/249,Constitution,28/08/1671
Hubert Antheaume,"St Severin, Paris",Famille,Madeleine Antheaume,"St Nicolas des Champs, Paris",,Langlois,MC/ET/CIX/249,Constitution,28/08/1671
Jacques Antheaume,"St Nicolas des Champs, Paris",Famille,Madeleine Antheaume,"St Nicolas des Champs, Paris",,Langlois,MC/ET/CIX/249,Constitution,28/08/1671
Madeleine Antheaume,"St Nicolas des Champs, Paris",Famille,Pierre de Marle,"St Nicolas des Champs, Paris",,Langlois,MC/ET/CIX/249,Constitution,28/08/1671
Marguerite Lescallier,"St Nicolas des Champs, Paris",Famille,Jean Antheaume père,"St Nicolas des Champs, Paris",,Langlois,MC/ET/CIX/249,Constitution,28/08/1671
Marguerite Lescallier,"St Nicolas des Champs, Paris",Famille,Joseph Estienne Antheaume,"St Nicolas des Champs, Paris",,Langlois,MC/ET/CIX/249,Constitution,28/08/1671
Marguerite Lescallier,"St Nicolas des Champs, Paris",Famille,Jean Antheaume,"St Nicolas des Champs, Paris",,Langlois,MC/ET/CIX/249,Constitution,28/08/1671
Marguerite Lescallier,"St Nicolas des Champs, Paris",Famille,Marie Antheaume,"St Eustache, Paris",,Langlois,MC/ET/CIX/249,Constitution,28/08/1671
Marguerite Lescallier,"St Nicolas des Champs, Paris",Famille,Madeleine Antheaume 2,"St André des Arts, Paris",,Langlois,MC/ET/CIX/249,Constitution,28/08/1671
Joseph Estienne Antheaume,"St Nicolas des Champs, Paris",Famille,Jean Antheaume,"St Nicolas des Champs, Paris",,Langlois,MC/ET/CIX/249,Constitution,28/08/1671
Joseph Estienne Antheaume,,Famille,Marie Antheaume,"St Eustache, Paris",,Langlois,MC/ET/CIX/249,Constitution,28/08/1671
Joseph Estienne Antheaume,,Famille,Madeleine Antheaume 2,"St André des Arts, Paris",,Langlois,MC/ET/CIX/249,Constitution,28/08/1671
Jean Antheaume,"St Nicolas des Champs, Paris",Famille,Marie Antheaume,"St Eustache, Paris",,Langlois,MC/ET/CIX/249,Constitution,28/08/1671
Jean Antheaume,"St Nicolas des Champs, Paris",Famille,Madeleine Antheaume é,"St André des Arts, Paris",,Langlois,MC/ET/CIX/249,Constitution,28/08/1671
Marie Antheaume,"St Eustache, Paris",Famille,Madeleine Antheaume 2,"St André des Arts, Paris",,Langlois,MC/ET/CIX/249,Constitution,28/08/1671
Marie Antheaume,"St Eustache, Paris",Famille,Jean Estienne Martin,"St Eustache, Paris",,Langlois,MC/ET/CIX/249,Constitution,28/08/1671
Madeleine Antheaume 2,"St André des Arts, Paris",Famille,Pierre Damoiseau,"St André des Arts, Paris",,Langlois,MC/ET/CIX/249,Constitution,28/08/1671
Eloy Antheaume père, ,Famille,Eloy Antheaume,"St Leu St Gilles, Paris",,Langlois,MC/ET/CIX/249,Constitution,28/08/1671
Eloy Antheaume père, ,Famille,Hubert Antheaume,"St Severin, Paris",,Langlois,MC/ET/CIX/249,Constitution,28/08/1671
Eloy Antheaume père, ,Famille,Jacques Antheaume,"St Nicolas des Champs, Paris",,Langlois,MC/ET/CIX/249,Constitution,28/08/1671
Eloy Antheaume père,,Famille,Madeleine Antheaume,"St Nicolas des Champs, Paris",,Langlois,MC/ET/CIX/249,Constitution,28/08/1671
Eloy Antheaume père,,Famille,Claude Du Mesnil,,,Langlois,MC/ET/CIX/249,Constitution,28/08/1671
Claude Du Mesnil,,Famille,Eloy Antheaume,"St Leu St Gilles, Paris",,Langlois,MC/ET/CIX/249,Constitution,28/08/1671
Claude Du Mesnil,,Famille,Hubert Antheaume,"St Severin, Paris",,Langlois,MC/ET/CIX/249,Constitution,28/08/1671
Claude Du Mesnil,,Famille,Jacques Antheaume,"St Nicolas des Champs, Paris",,Langlois,MC/ET/CIX/249,Constitution,28/08/1671
Claude Du Mesnil,,Famille,Madeleine Antheaume,"St Nicolas des Champs, Paris",,Langlois,MC/ET/CIX/249,Constitution,28/08/1671
Claude Du Mesnil,,Famille,Jean Ory père,,,Langlois,MC/ET/CIX/249,Constitution,28/08/1671
Claude Du Mesnil,,Famille,Jean Ory  ,,,Langlois,MC/ET/CIX/249,Constitution,28/08/1671
Jean Ory père,,Famille,Jean Ory  ,,,Langlois,MC/ET/CIX/249,Constitution,28/08/1671
Eloy Antheaume,"St Leu St Gilles, Paris",,Nicolas de Longueil,"St Germain l'Auxerrois, Paris",,Langlois,MC/ET/CIX/249,Constitution,28/08/1671
Hubert Antheaume,"St Severin, Paris",Finance ,Nicolas de Longueil,"St Germain l'Auxerrois, Paris",,Langlois,MC/ET/CIX/249,Constitution,28/08/1671
Jacques Antheaume,"St Nicolas des Champs, Paris",,Nicolas de Longueil,"St Germain l'Auxerrois, Paris",,Langlois,MC/ET/CIX/249,Constitution,28/08/1671
Madeleine Antheaume,"St Nicolas des Champs, Paris",,Nicolas de Longueil,"St Germain l'Auxerrois, Paris",,Langlois,MC/ET/CIX/249,Constitution,28/08/1671
Eloy Antheaume,"St Leu St Gilles, Paris",,Marguerite Lescallier,"St Nicolas des Champs, Paris",,Langlois,MC/ET/CIX/249,Constitution,28/08/1671
Hubert Antheaume,"St Severin, Paris",Finance ,Marguerite Lescallier,"St Nicolas des Champs, Paris",,Langlois,MC/ET/CIX/249,Constitution,28/08/1671
Jacques Antheaume,"St Nicolas des Champs, Paris",,Marguerite Lescallier,"St Nicolas des Champs, Paris",,Langlois,MC/ET/CIX/249,Constitution,28/08/1671
Madeleine Antheaume,"St Nicolas des Champs, Paris",,Marguerite Lescallier,"St Nicolas des Champs, Paris",,Langlois,MC/ET/CIX/249,Constitution,28/08/1671
Eloy Antheaume,"St Leu St Gilles, Paris",Famille,Anne Vallet,"St Leu St Gilles, Paris",,Langlois,MC/ET/CIX/249,Indempnité,28/08/1671
Eloy Antheaume,"St Leu St Gilles, Paris",Famille,Hubert Antheaume,"St Severin, Paris",,Langlois,MC/ET/CIX/249,Indempnité,28/08/1671
Eloy Antheaume,"St Leu St Gilles, Paris",Famille,Jacques Antheaume,"St Nicolas des Champs, Paris",,Langlois,MC/ET/CIX/249,Indempnité,28/08/1671
Eloy Antheaume,"St Leu St Gilles, Paris",Famille,Pierre de Marle,"St Nicolas des Champs, Paris",,Langlois,MC/ET/CIX/249,Indempnité,28/08/1671
Eloy Antheaume,"St Leu St Gilles, Paris",Famille,Madeleine Antheaume,"St Nicolas des Champs, Paris",,Langlois,MC/ET/CIX/249,Indempnité,28/08/1671
Hubert Antheaume,"St Severin, Paris",Famille,Jacques Antheaume,"St Nicolas des Champs, Paris",,Langlois,MC/ET/CIX/249,Indempnité,28/08/1671
Hubert Antheaume,"St Severin, Paris",Famille,Madeleine Antheaume,"St Nicolas des Champs, Paris",,Langlois,MC/ET/CIX/249,Indempnité,28/08/1671
Jacques Antheaume,"St Nicolas des Champs, Paris",Famille,Madeleine Antheaume,"St Nicolas des Champs, Paris",,Langlois,MC/ET/CIX/249,Indempnité,28/08/1671
Madeleine Antheaume,"St Nicolas des Champs, Paris",Famille,Pierre de Marle,"St Nicolas des Champs, Paris",,Langlois,MC/ET/CIX/249,Indempnité,28/08/1671
Marguerite Lescallier,"St Nicolas des Champs, Paris",Famille,Jean Antheaume père,"St Nicolas des Champs, Paris",,Langlois,MC/ET/CIX/249,Indempnité,28/08/1671
Eloy Antheaume,"St Leu St Gilles, Paris",Finance ,Marguerite Lescallier,"St Nicolas des Champs, Paris",,Langlois,MC/ET/CIX/249,Indempnité,28/08/1671
Hubert Antheaume,"St Severin, Paris",Finance ,Marguerite Lescallier,"St Nicolas des Champs, Paris",,Langlois,MC/ET/CIX/249,Indempnité,28/08/1671
Jacques Antheaume,"St Nicolas des Champs, Paris",,Marguerite Lescallier,"St Nicolas des Champs, Paris",,Langlois,MC/ET/CIX/249,Indempnité,28/08/1671
Madeleine Antheaume,"St Nicolas des Champs, Paris",,Marguerite Lescallier,"St Nicolas des Champs, Paris",,Langlois,MC/ET/CIX/249,Indempnité,28/08/1671
Eloy Antheaume,"St Leu St Gilles, Paris",Famille,Anne Vallet,"St Leu St Gilles, Paris",,Langlois,MC/ET/CIX/249,Déclaration,28/08/1671
Eloy Antheaume,"St Leu St Gilles, Paris",Famille,Hubert Antheaume,"St Severin, Paris",,Langlois,MC/ET/CIX/249,Déclaration,28/08/1671
Eloy Antheaume,"St Leu St Gilles, Paris",Famille,Jacques Antheaume,"St Nicolas des Champs, Paris",,Langlois,MC/ET/CIX/249,Déclaration,28/08/1671
Eloy Antheaume,"St Leu St Gilles, Paris",Famille,Pierre de Marle,"St Nicolas des Champs, Paris",,Langlois,MC/ET/CIX/249,Déclaration,28/08/1671
Eloy Antheaume,"St Leu St Gilles, Paris",Famille,Madeleine Antheaume,"St Nicolas des Champs, Paris",,Langlois,MC/ET/CIX/249,Déclaration,28/08/1671
Hubert Antheaume,"St Severin, Paris",Famille,Jacques Antheaume,"St Nicolas des Champs, Paris",,Langlois,MC/ET/CIX/249,Déclaration,28/08/1671
Hubert Antheaume,"St Severin, Paris",Famille,Madeleine Antheaume,"St Nicolas des Champs, Paris",,Langlois,MC/ET/CIX/249,Déclaration,28/08/1671
Jacques Antheaume,"St Nicolas des Champs, Paris",Famille,Madeleine Antheaume,"St Nicolas des Champs, Paris",,Langlois,MC/ET/CIX/249,Déclaration,28/08/1671
Madeleine Antheaume,"St Nicolas des Champs, Paris",Famille,Pierre de Marle,"St Nicolas des Champs, Paris",,Langlois,MC/ET/CIX/249,Déclaration,28/08/1671
Marguerite Lescallier,"St Nicolas des Champs, Paris",Famille,Jean Antheaume père,"St Nicolas des Champs, Paris",,Langlois,MC/ET/CIX/249,Déclaration,28/08/1671
Eloy Antheaume,"St Leu St Gilles, Paris",,Marguerite Lescallier,"St Nicolas des Champs, Paris",,Langlois,MC/ET/CIX/249,Déclaration,28/08/1671
Hubert Antheaume,"St Severin, Paris",Finance ,Marguerite Lescallier,"St Nicolas des Champs, Paris",,Langlois,MC/ET/CIX/249,Déclaration,28/08/1671
Jacques Antheaume,"St Nicolas des Champs, Paris",,Marguerite Lescallier,"St Nicolas des Champs, Paris",,Langlois,MC/ET/CIX/249,Déclaration,28/08/1671
Madeleine Antheaume,"St Nicolas des Champs, Paris",,Marguerite Lescallier,"St Nicolas des Champs, Paris",,Langlois,MC/ET/CIX/249,Déclaration,28/08/1671
Eloy Antheaume,"St Leu St Gilles, Paris",,Hubert Antheaume,"St Severin, Paris",Indes,Langlois,MC/ET/CIX/249,Compte,28/08/1671
Eloy Antheaume,"St Leu St Gilles, Paris",,Jacques Antheaume,"St Nicolas des Champs, Paris",,Langlois,MC/ET/CIX/249,Compte,28/08/1671
Eloy Antheaume,"St Leu St Gilles, Paris",,Madeleine Antheaume,"St Nicolas des Champs, Paris",,Langlois,MC/ET/CIX/249,Compte,28/08/1671
Madeleine Antheaume,"St Nicolas des Champs, Paris",Famille,Pierre de Marle,"St Nicolas des Champs, Paris",,Langlois,MC/ET/CIX/249,Compte,28/08/1671
Hubert Antheaume,"St Severin, Paris",Finance ,Jacques Antheaume,"St Nicolas des Champs, Paris",,Langlois,MC/ET/CIX/249,Compte,28/08/1671
Hubert Antheaume,"St Severin, Paris",Finance ,Madeleine Antheaume,"St Nicolas des Champs, Paris",,Langlois,MC/ET/CIX/249,Compte,28/08/1671
Jacques Antheaume,"St Nicolas des Champs, Paris",,Madeleine Antheaume,"St Nicolas des Champs, Paris",,Langlois,MC/ET/CIX/249,Compte,28/08/1671
Eloy Antheaume père, ,Famille,Eloy Antheaume,"St Leu St Gilles, Paris",,Langlois,MC/ET/CIX/249,Compte,28/08/1671
Eloy Antheaume père, ,Famille,Hubert Antheaume,"St Severin, Paris",,Langlois,MC/ET/CIX/249,Compte,28/08/1671
Eloy Antheaume père, ,Famille,Jacques Antheaume,"St Nicolas des Champs, Paris",,Langlois,MC/ET/CIX/249,Compte,28/08/1671
Eloy Antheaume père,,Famille,Madeleine Antheaume,"St Nicolas des Champs, Paris",,Langlois,MC/ET/CIX/249,Compte,28/08/1671
Eloy Antheaume père,,Famille,Claude Du Mesnil,,,Langlois,MC/ET/CIX/249,Compte,28/08/1671
Claude Du Mesnil,,Famille,Eloy Antheaume,"St Leu St Gilles, Paris",,Langlois,MC/ET/CIX/249,Compte,28/08/1671
Claude Du Mesnil,,Famille,Hubert Antheaume,"St Severin, Paris",,Langlois,MC/ET/CIX/249,Compte,28/08/1671
Claude Du Mesnil,,Famille,Jacques Antheaume,"St Nicolas des Champs, Paris",,Langlois,MC/ET/CIX/249,Compte,28/08/1671
Claude Du Mesnil,,Famille,Madeleine Antheaume,"St Nicolas des Champs, Paris",,Langlois,MC/ET/CIX/249,Compte,28/08/1671
Claude Du Mesnil,,Famille,Jean Ory père,,,Langlois,MC/ET/CIX/249,Compte,28/08/1671
Claude Du Mesnil,,Famille,Jean Ory  ,,,Langlois,MC/ET/CIX/249,Compte,28/08/1671
Jean Ory père,,Famille,Jean Ory  ,,,Langlois,MC/ET/CIX/249,Compte,28/08/1671
Eloy Antheaume,"St Leu St Gilles, Paris",Famille,Antoine Antheaume,,,Langlois,MC/ET/CIX/249,Compte,28/08/1671
Marie Boucher,"St Nicolas, Nantes",,Mathurin Dugast,"St Saturnin, Nantes",Terre Neuve,Verger,4/E2/1941,Cambie,26/06/1666
Marie Boucher,"St Nicolas, Nantes",Commerce,Jean Masson Lesné,Orléans,,Verger,4/E2/1941,Cambie,26/06/1666
Marie Boucher,"St Nicolas, Nantes",Finance ,Julien Gerard sr de Nays,"St Nicolas, Nantes",Paimbeuf,Verger,4/E2/1944,Cambie,27/10/1667
Marie Boucher,"St Nicolas, Nantes",Commerce,Jean Masson Lesné,Orléans,,Verger,4/E2/1944,Cambie,27/10/1667
Marie Boucher,"St Nicolas, Nantes",Finance ,Julien Gerard sr de Nays,"St Nicolas, Nantes",,Verger,4/E2/1944,Cambie,27/10/1667
Marie Boucher,"St Nicolas, Nantes",Commerce,Jean Masson Lesné,Orléans,,Verger,4/E2/1944,Cambie,27/10/1667
Marie Boucher,"St Nicolas, Nantes",Finance ,Julien Gerard sr de Nays,"St Nicolas, Nantes",,Verger,4/E2/1944,Cambie,31/10/1667
Marie Boucher,"St Nicolas, Nantes",Commerce,Jean Masson Lesné,Orléans,,Verger,4/E2/1944,Cambie,31/10/1667
Marie Boucher,"St Nicolas, Nantes",Finance ,Julien Gerard sr de Nays,"St Nicolas, Nantes",,Verger,4/E2/1944,Cambie,01/11/1667
Marie Boucher,"St Nicolas, Nantes",Commerce,Jean Masson Lesné,Orléans,,Verger,4/E2/1944,Cambie,01/11/1667
Marie Boucher,"St Nicolas, Nantes",Finance ,Julien Gerard sr de Nays,"St Nicolas, Nantes",,Verger,4/E2/1944,Cambie,27/10/1667
Marie Boucher,"St Nicolas, Nantes",Commerce,Euzebe de Loynes,Orléans,,Verger,4/E2/1944,Cambie,27/10/1667
Marie Boucher,"St Nicolas, Nantes",Finance ,Julien Gerard sr de Nays,"St Nicolas, Nantes",,Verger,4/E2/1944,Cambie,27/10/1667
Marie Boucher,"St Nicolas, Nantes",Commerce,Euzebe de Loynes,Orléans,,Verger,4/E2/1944,Cambie,27/10/1667
Marie Boucher,"St Nicolas, Nantes",Finance ,Julien Gerard sr de Nays,"St Nicolas, Nantes",,Verger,4/E2/1945,Cambie,13/01/1668
Marie Boucher,"St Nicolas, Nantes",Commerce,Jean Masson Lesné,Orléans,,Verger,4/E2/1945,Cambie,13/01/1668
Marie Boucher,"St Nicolas, Nantes",Finance ,Jean Ruyo,Penerf,"Le Croisic, Terre-Neuve",Verger,4/E2/1946,Cambie,11/07/1668
Marie Boucher,"St Nicolas, Nantes",Finance ,François Le Pelletier,Penerf,,Verger,4/E2/1946,Cambie,11/07/1668
Marie Boucher,"St Nicolas, Nantes",Commerce,François Lemasson,Orléans,,Verger,4/E2/1946,Cambie,11/07/1668
Marie Boucher,"St Nicolas, Nantes",Finance ,Jeanne Renard,,"Le Croisic, Terre-Neuve, Paimbeuf",Verger,4/E2/1949,Cambie,19/02/1670
Jeanne Renard,,Famille,Charles Souyn défunt,,,Verger,4/E2/1949,Cambie,19/02/1670
Jeanne Renard,,Famille,Charles Souyn fils,,,Verger,4/E2/1949,Cambie,19/02/1670
Marie Boucher,"St Nicolas, Nantes",Finance ,Charles Souyn fils,,,Verger,4/E2/1949,Cambie,19/02/1670
Marie Boucher et Hubert Antheaume Cie,"St Nicolas, Nantes",Finance ,Maude Lequere,Le Croisic,"Terre-Neuve, Paimbeuf",Verger,4/E2/1953,Cambie,12/01/1672
Marie Boucher et Hubert Antheaume Cie,"St Nicolas, Nantes",Finance ,Charles Moruan,Le Croisic,,Verger,4/E2/1953,Cambie,12/01/1672
Maude Lequere,Le Croisic,Finance ,Charles Moruan,Le Croisic,,Verger,4/E2/1953,Cambie,12/01/1672
Marie Boucher et Hubert Antheaume Cie,"St Nicolas, Nantes",Commerce,Robert Miron,Orléans,,Verger,4/E2/1953,Cambie,12/01/1672
Marie Boucher et Hubert Antheaume Cie,"St Nicolas, Nantes",Commerce,Jean de Beausse,Orléans,,Verger,4/E2/1953,Cambie,12/01/1672
Robert Miron,Orléans,Commerce,Jean de Beausse,Orléans,,Verger,4/E2/1953,Cambie,12/01/1672
Marie Boucher et Hubert Antheaume Cie,"St Nicolas, Nantes",Finance ,Maude Lequere,Le Croisic,"Terre-Neuve, Paimbeuf",Verger,4/E2/1953,Cambie,02/01/1673
Marie Boucher et Hubert Antheaume Cie,"St Nicolas, Nantes",Finance ,Charles Moruan,Le Croisic,,Verger,4/E2/1953,Cambie,02/01/1673
Maude Lequere,Le Croisic,Finance ,Charles Moruan,Le Croisic,,Verger,4/E2/1953,Cambie,02/01/1673
Marie Boucher et Hubert Antheaume Cie,"St Nicolas, Nantes",Commerce,Robert Miron,Orléans,,Verger,4/E2/1953,Cambie,02/01/1673
Marie Boucher et Hubert Antheaume Cie,"St Nicolas, Nantes",Commerce,Jean de Beausse,Orléans,,Verger,4/E2/1953,Cambie,02/01/1673
Robert Miron,Orléans,Finance ,Jean de Beausse,Orléans,,Verger,4/E2/1953,Cambie,02/01/1673
Marie Boucher et Hubert Antheaume Cie,"St Nicolas, Nantes",Finance ,Nicolas Hotman,Orléans,"Le Croisic, Paimbeuf, Antilles, La Rochelle, Bordeaux",Verger,4/E2/1954,Cambie,25/08/1672
Marie Boucher et Hubert Antheaume Cie,"St Nicolas, Nantes",Commerce,François Lemasson,Orléans,,Verger,4/E2/1954,Cambie,25/08/1672
Marie Boucher et Hubert Antheaume Cie,"St Nicolas, Nantes",Finance ,Nicolas Hotman,Orléans,"Le Croisic, Paimbeuf, Antilles, La Rochelle, Bordeaux",Verger,4/E2/1954,Cambie,25/08/1672
Marie Boucher et Hubert Antheaume Cie,"St Nicolas, Nantes",Commerce,Robert Miron,Orléans,,Verger,4/E2/1954,Cambie,25/08/1672
Marie Boucher et Hubert Antheaume Cie,"St Nicolas, Nantes",Commerce,Jean de Beausse,Orléans,,Verger,4/E2/1954,Cambie,25/08/1672
Marie Boucher et Hubert Antheaume Cie,"St Nicolas, Nantes",Finance ,Nicolas Hotman,Orléans,"Le Croisic, Paimbeuf, Antilles, La Rochelle, Bordeaux",Verger,4/E2/1954,Cambie,23/09/1672
Marie Boucher et Hubert Antheaume Cie,"St Nicolas, Nantes",Commerce,François Lemasson,Orléans,,Verger,4/E2/1954,Cambie,23/09/1672