C1711_01_001,Groppi C. ,171104,Brunetta & Demonte - Forterresse - S,MI,0
C1711_01_001,Menafoglio A. ,171104,Brunetta & Demonte - Forterresse - S,MI,0
C1711_01_001,Menafoglio A. ,171104,Brunetta & Demonte - Forterresse - S,MI,0
C1711_01_001,Origone A.M. ,171104,Brunetta & Demonte - Forterresse - G,MI,0
C1711_01_001,Pinchetti D. ,171104,Brunetta & Demonte - Forterresse - S,MI,0
C1711_01_001,Violino P.G. ,171104,Brunetta & Demonte - Forterresse - G,MI,0
C1716_03_104,Capellaro F. ,171605,Brunetta - Forterresse - S,BI,0
C1716_S100_001,Sasso A. ,171605,Superga - Basilique - S,LU,0
C1716_S100_001,Steffenino P. ,171605,Superga - Basilique - S,LU,0
C1716_S100_001,Sussio A. ,171605,Superga - Basilique - S,LU,0
C1716_S100_001,Sussio G.B. ,171605,Superga - Basilique - A,LU,0
C1716_S100_001,Levis F.A. ,171605,Superga - Basilique - G,TO C,0
C1716_S100_001,Levis G. ,171605,Superga - Basilique - S,TO C,0
C1716_S100_004,Basilio P.M. ,171605,Superga - Basilique - S,TO C,0
C1716_S100_004,Basilio G. ,171605,Superga - Basilique - G,TO C,0
C1716_S100_006,Bello G. ,171605,Superga - Basilique - S,TO C,0
C1716_S100_006,Bello P.M. ,171605,Superga - Basilique - A,TO C,0
C1716_S100_006,Vitale P. ,171605,Superga - Basilique - G,MI,0
C1716_S100_009,Corino M.A. ,171605,Superga - Basilique - S,TO,0
C1716_S100_009,Andeijs G.A. ,171605,Superga - Basilique - G,TO C,0
C1716_S100_009,Bosco G. ,171605,Superga - Basilique - A,TO,0
C1716_S100_011,Bugella G.B. ,171607,Superga - Basilique - S,PI,0
C1717_05_001,Allegretto F. ,171701,Rivolli - Chateau - S,RI,0
C1717_05_002,Cribiatello F. ,171701,Brunetta - Forterresse - S,MI,0
C1717_05_002,Favre F.G. ,171701,Brunetta - Forterresse - S,AO,0
C1717_05_002,Gallo G.F. ,171701,Brunetta - Forterresse - S,TO,0
C1717_05_002,Baietto G.F. ,171701,Brunetta - Forterresse - S,TO,0
C1717_05_002,Bioletto A. ,171701,Brunetta - Forterresse - A,VL,0
C1717_05_002,De Vallon F.G. ,171701,Brunetta - Forterresse - S,Savoie,0
C1717_05_002,Girodo T. ,171701,Brunetta - Forterresse - G,CN,0
C1717_05_007,Galimberti G.M. ,171702,Nizza - Fortifications - G,MI,0
C1717_05_007,Groppi C. ,171702,Nizza - Fortifications - S,MI,0
C1717_05_007,Menafoglio A. ,171702,Nizza - Fortifications - S,MI,0
C1717_05_007,Menafoglio F.A. ,171702,Nizza - Fortifications - A,MI,0
C1717_05_007,Pianarosa G. ,171702,Nizza - Fortifications - S,MI,0
C1717_05_007,Menafoglio G.M. ,171702,Nizza - Fortifications - S,MI,0
C1717_05_007,Pinchetto B. ,171702,Nizza - Fortifications - S,MI,0
C1717_05_014,Quadrone B. ,171702,Venaria - Chapelle royale - S,MI,0
C1717_05_014,Casella A. ,171702,Venaria - Chapelle royale - S,LU,0
C1717_05_017,Parodi G.B. ,171702,Rivolli - Chateau - A,GE,0
C1717_05_017,Ugliengo C.M. ,171702,Rivolli - Chateau - G,BI,0
C1717_05_017,Giudice F.M. ,171702,Rivolli - Chateau - S,MI,0
C1717_05_021,Maciotta G. ,171702,Fleuve Ceronda - S,BI,0
C1717_05_021,Pistone G.A. ,171702,Fleuve Ceronda - S,BI,0
C1717_05_021,Romano T. ,171702,Fleuve Ceronda - S,BI,0
C1717_05_021,Boggio P. ,171702,Fleuve Ceronda - S,BI,0
C1717_05_027,Menafoglio C.A. ,171702,Fleuve Ceronda - S,MI,0
C1717_05_027,Menafoglio F.A. ,171702,Fleuve Ceronda - G,MI,0
C1717_05_027,Piazzollo F. ,171702,Fleuve Ceronda - A,MI,0
C1717_05_027,Pinchetti D. ,171702,Fleuve Ceronda - S,MI,0
C1717_05_030,Corte G. ,171703,Venaria reale - route - G,BI,0
C1717_05_030,Bello G.B. ,171703,Venaria reale - route - A,BI,0
C1717_05_030,Servo G. ,171703,Venaria reale - route - S,BI,0
C1717_05_030,Fontana G.D. ,171703,Venaria reale - route - S,BI,0
C1717_05_034,Menafoglio F.A. ,171703,Turin - Citadelle - G,MI,0
C1717_05_034,Righino P.A. ,171703,Turin - Citadelle - S,MI,0
C1717_05_034,Violino P.G. ,171703,Turin - Citadelle - A,MI,0
C1717_05_034,Richettino B. ,171703,Turin - Citadelle - S,MI,0
C1717_05_039,Galimberti G.M. ,171704,Valdocco - Forge - G,MI,0
C1717_05_039,Rechettino A. ,171704,Valdocco - Forge - S,MI,0
C1717_05_039,Righino F.M. ,171704,Valdocco - Forge - S,MI,0
C1717_05_039,Bianco A. ,171704,Valdocco - Forge - S,MI,0
C1717_05_039,Laurenti D. ,171704,Valdocco - Forge - A,_si,0
C1717_05_043,Faiola A. ,171704,Turin - Bureau des finances - S,TO C,0
C1717_05_046,Quadrone B. ,171704,Rivolli - Chateau - S,MI,0
C1717_05_046,Piazzollo C. ,171704,Rivolli - Chateau - S,MI,0
C1717_05_046,Giudice F.M. ,171704,Rivolli - Chateau - S,MI,0
C1717_05_048,Ugliengo C.M. ,171705,Venaria reale - S,BI,0
C1717_05_048,Zo C.A. ,171705,Venaria reale - G,BI,0
C1717_05_048,Tempia B. ,171705,Venaria reale - A,TO,0
C1717_05_054,Muttoni P.G. ,171706,Rivolli - Chateau - S,LU,0
C1717_05_054,Scala F.M. ,171706,Rivolli - Chateau - S,LU,0
C1717_05_054,Scala G.A. ,171706,Rivolli - Chateau - S,LU,0
C1717_05_056,Borrione L. ,171706,Venaria reale - S,BI,0
C1717_05_058,Teppa L.G. ,171706,Turin - Caserne Citadelle - S,VL,0
C1717_05_058,Clemente B. ,171706,Turin - Caserne Citadelle - S,_si,0
C1717_05_060,Castelli M.F. ,171706,Venaria reale - S,RO,0
C1717_05_060,Salié P. ,171706,Venaria reale - A,_si,0
C1717_05_060,Zo C.A. ,171706,Venaria reale - G,BI,0
C1717_05_060,Zo G.H. ,171706,Venaria reale - S,BI,0
C1717_05_063,Tirolo G.B. ,171706,Venaria reale - S,MI,0
C1717_05_063,Beltrandi G. ,171706,Venaria reale - G,CN,0
C1717_05_063,Piazzollo C. ,171706,Venaria reale - A,MI,0
C1717_05_066,Ugliengo C.M. ,171706,Venaria reale - S,BI,0
C1717_05_066,De Gotte H. ,171706,Venaria reale - A,_si,0
C1717_05_066,Lemoine F. ,171706,Venaria reale - G,FIANDRE,0
C1717_05_070,Avogadro S. ,171707,Turin - Université - S,LU,0
C1717_05_072,Cribiatello F. ,171707,Brunetta - Forterresse - S,MI,0
C1717_05_072,Toscanello F. ,171707,Brunetta - Forterresse - S,LU,0
C1717_05_072,Baietto F. ,171707,Brunetta - Forterresse - A,TO,0
C1717_05_072,De Vallon F.G. ,171707,Brunetta - Forterresse - S,Savoie,0
C1717_05_072,Girodo T. ,171707,Brunetta - Forterresse - G,CN,0
C1717_05_077,Menafoglio A. ,171707,Casale - Chateau - S,MI,0
C1717_05_077,Menafoglio C.A. ,171707,Casale - Chateau - S,MI,0
C1717_05_077,Pianarosa G. ,171707,Casale - Chateau - S,MI,0
C1717_05_077,Piazzollo F. ,171707,Casale - Chateau - G,MI,0
C1717_05_077,Pinchetti D. ,171707,Casale - Chateau - S,MI,0
C1717_05_077,Righino P. ,171707,Casale - Chateau - S,_si,0
C1717_05_077,Boggio P. ,171707,Casale - Chateau - A,BI,0
C1717_05_080,Cribiatello F. ,171707,Valenza - Fortifications - S,MI,0
C1717_05_080,Peijrone F. ,171707,Valenza - Fortifications - G,Vsu,0
C1717_05_080,Chianale G. ,171707,Valenza - Fortifications - A,_si,0
C1717_05_080,De Vallon F.G. ,171707,Valenza - Fortifications - S,Savoie,0
C1717_05_085,Bertoglio G.D. ,171707,Superga - Basilique - S,TO,0
C1717_05_086,Cuglierero G.M. ,171707,Venaria reale - S,TO,0
C1717_05_087,Rocco N. ,171707,Venaria reale - S,TO,0
C1717_05_088,Papa C. ,171708,Rivolli - Chateau - S,LU,0
C1717_05_092,Somazzo F. ,171708,Rivolli - Chateau - S,LU,0
C1717_05_094,Ferrari G. ,171709,Rivolli - Chateau - S,LU,0
C1717_05_094,Rosso F. ,171709,Rivolli - Chateau - S,LU,0
C1717_05_094,Rosso S. ,171709,Rivolli - Chateau - S,LU,0
C1717_05_094,Agli C. ,171709,Rivolli - Chateau - S,LU,0
C1717_05_094,Agli F. ,171709,Rivolli - Chateau - S,LU,0
C1717_05_094,Fossato F.A. ,171709,Rivolli - Chateau - S,LU,0
C1717_05_094,Rosso G.B. ,171709,Rivolli - Chateau - S,LU,0
C1717_05_094,Rosso G.M. ,171709,Rivolli - Chateau - S,LU,0
C1717_05_097,Ferrari G. ,171711,Rivolli - Chateau - S,LU,0
C1717_05_097,Rosso F. ,171711,Rivolli - Chateau - S,LU,0
C1717_05_097,Agli C. ,171711,Rivolli - Chateau - S,LU,0
C1717_05_097,Agli F. ,171711,Rivolli - Chateau - S,LU,0
C1717_05_097,Fossato F.A. ,171711,Rivolli - Chateau - S,LU,0
C1717_05_097,Rosso G.B. ,171711,Rivolli - Chateau - S,LU,0
C1717_05_097,Rosso G.M. ,171711,Rivolli - Chateau - S,LU,0
C1717_05_100,Bello G. ,171712,Turin - Porta Susina - Fortification  - S,TO C,0
C1717_05_100,Bello P.M. ,171712,Turin - Porta Susina - Fortification  - S,TO C,0
C1717_S100_012,Rocco N. ,171702,Superga - Basilique - S,TO,0
C1717_S100_012,Trivero G.B. ,171702,Superga - Basilique - S,TO,0
C1717_S100_012,Trivero V. ,171702,Superga - Basilique - G,TO,0
C1717_S100_012,Bertinetti P. ,171702,Superga - Basilique - A,TO,0
C1717_S100_012,Bertoglio G.D. ,171702,Superga - Basilique - S,TO,0
C1717_S100_012,Fenoglio S. ,171702,Superga - Basilique - S,TO,0
C1717_S100_014,Bertinetti P. ,171702,Superga - Basilique - G,TO,0
C1717_S100_014,Pia D. ,171702,Superga - Basilique - S,TO,0
C1717_S100_016,Calderara G.P. ,171703,Superga - Basilique - A,LU,0
C1717_S100_016,Signori S. ,171703,Superga - Basilique - S,LU,0
C1717_S100_016,Trogli F. ,171703,Superga - Basilique - S,LU,0
C1717_S100_016,Valsecchi G.D. ,171703,Superga - Basilique - G,MI,0
C1717_S100_019,Fenoglio S. ,171712,Superga - Basilique - S,TO,0
C1716_03_098,Rondoletto C.M. ,171605,Rivolli - Chateau - S,BI,0
C1716_03_104,Maciotta G.M. ,171605,Brunetta - Forterresse - A,BI,0
C1716_03_104,Pistone G.S. ,171605,Brunetta - Forterresse - S,BI,0
C1716_03_104,Pistone G.A. ,171605,Brunetta - Forterresse - S,BI,0
C1716_03_104,Vanera M. ,171605,Brunetta - Forterresse - G,VL,0
C1716_03_095,Galimberti G.M. ,171605,Fleuve Po - G,MI,0
C1716_03_095,Groppi C. ,171605,Fleuve Po - S,MI,0
C1716_03_095,Menafoglio C.A. ,171605,Fleuve Po - A,MI,0
C1716_03_095,Menafoglio C.A. ,171605,Fleuve Po - S,MI,0
C1716_03_095,Menafoglio N. ,171605,Fleuve Po - S,MI,0
C1716_03_095,Pianarosa G. ,171605,Fleuve Po - S,MI,0
C1716_03_090,Galimberti G.M. ,171604,Turin - Citadelle - G,MI,0
C1716_03_090,Groppi C. ,171604,Turin - Citadelle - S,MI,0
C1716_03_090,Menafoglio A. ,171604,Turin - Citadelle - S,MI,0
C1716_03_090,Menafoglio C.A. ,171604,Turin - Citadelle - S,MI,0
C1716_03_090,Pianarosa G. ,171604,Turin - Citadelle - S,MI,0
C1716_03_090,Pinchetti D. ,171604,Turin - Citadelle - S,MI,0
C1716_03_090,Violino P.G. ,171604,Turin - Citadelle - A,MI,0
C1716_03_077,Mosso G.E. ,171603,Venaria - Chapelle royale - G,TO C,0
C1716_03_077,Rechettino A. ,171603,Venaria - Chapelle royale - S,MI,0
C1716_03_077,Salla G. ,171603,Venaria - Chapelle royale - S,MI,0
C1716_03_077,Bellotto G. ,171603,Venaria - Chapelle royale - S,MI,0
C1716_03_085,Constanzo B. ,171604,Valenza  & Alessandria - Fortifications - S,PI,0
C1716_03_085,Groppi C. ,171604,Valenza  & Alessandria - Fortifications - S,MI,0
C1716_03_085,Menafoglio A. ,171604,Valenza  & Alessandria - Fortifications - S,MI,0
C1716_03_085,Menafoglio C.A. ,171604,Valenza  & Alessandria - Fortifications - S,MI,0
C1716_03_085,Pianarosa G. ,171604,Valenza  & Alessandria - Fortifications - S,MI,0
C1716_03_085,Piazzollo F. ,171604,Valenza  & Alessandria - Fortifications - G,MI,0
C1716_03_085,Pinchetti D. ,171604,Valenza  & Alessandria - Fortifications - S,MI,0
C1716_03_085,Bertinello P. ,171604,Valenza  & Alessandria - Fortifications - A,MI,0
C1716_03_077,Clerico S. ,171603,Venaria - Chapelle royale - A,BI,0
C1716_03_077,Gobbi A. ,171603,Venaria - Chapelle royale - S,MI,0
C1715_03_075,Rondoletto C.M. ,171512,Turin - Porta Susina - Fortification  - S,BI,0
C1715_03_063,Bianco A. ,171509,Valdocco - Forge - S,MI,0
C1715_03_068,Faiola A. ,171511,Turin - Université - A,TO C,0
C1715_03_068,Gianone P. ,171511,Turin - Université - S,TO C,0
C1715_03_068,Saccarello O. ,171511,Turin - Université - G,TO C,0
C1715_03_063,Galimberti G.M. ,171509,Valdocco - Forge - G,MI,0
C1715_03_063,Maciotta C. ,171509,Valdocco - Forge - S,BI,0
C1715_03_063,Menafoglio C.A. ,171509,Valdocco - Forge - S,MI,0
C1715_03_063,Righino P. ,171509,Valdocco - Forge - A,_si,0
C1715_03_058,Ugliengo C.M. ,171508,Turin - Université - S,BI,0
C1715_03_058,Zo C.A. ,171508,Turin - Université - A,BI,0
C1715_03_058,Zo G.B. ,171508,Turin - Université - G,BI,0
C1715_03_054,Castelli M.F. ,171508,Turin - Université - S,RO,0
C1715_03_054,Pelloli F.A. ,171508,Turin - Université - A,MI,0
C1715_03_054,Zo C.A. ,171508,Turin - Université - G,BI,0
C1715_03_054,Zo G.H. ,171508,Turin - Université - S,BI,0
C1715_03_044,Biolaro P.A. ,171508,Brunetta - Forterresse - A,VL,0
C1715_03_050,Gambassone G.M. ,171508,Turin - Université - A,_si,0
C1715_03_050,Morino C.F. ,171508,Turin - Université - G,_si,0
C1715_03_050,Tepati B. ,171508,Turin - Université - S,VL,0
C1715_03_044,Cribiatello F. ,171508,Brunetta - Forterresse - S,MI,0
C1715_03_044,Favre F.G. ,171508,Brunetta - Forterresse - S,AO,0
C1715_03_044,Bellico G.F. ,171508,Brunetta - Forterresse - G,TO C,0
C1715_03_044,Toscanello F. ,171508,Brunetta - Forterresse - S,LU,0
C1715_03_041,Compassi C.S. ,171506,Rivolli - Chateau - S,MI,0
C1715_03_041,Fontana D. ,171506,Rivolli - Chateau - G,MI,0
C1715_03_041,Giudici F.M. ,171506,Rivolli - Chateau - A,MI,0
C1715_03_041,Mazzoni C.G. ,171506,Rivolli - Chateau - S,MI,0
C1715_03_024,Menafoglio C.A. ,171505,Saluzzo - Chateau - S,MI,0
C1715_03_024,Menafoglio F.A. ,171505,Saluzzo - Chateau - G,MI,0
C1715_03_024,Romano T. ,171505,Saluzzo - Chateau - S,BI,0
C1715_03_024,Zo G.B. ,171505,Saluzzo - Chateau - A,BI,0
C1715_03_033,Corte A. ,171505,Turin - Porta Susina - Fortification  - A,MI,0
C1715_03_033,Astrano G.A. ,171505,Turin - Porta Susina - Fortification  - G,TO C,0
C1715_03_033,Bello G. ,171505,Turin - Porta Susina - Fortification  - S,TO C,0
C1715_03_033,Bello P.M. ,171505,Turin - Porta Susina - Fortification  - S,TO C,0
C1715_03_033,Bellotto G. ,171505,Turin - Porta Susina - Fortification  - S,MI,0
C1715_03_014,Capellaro G.F. ,171503,Turin - Citadelle - S,BI,0
C1715_03_019,Cribiatello F. ,171504,Fenestrelle - Forterresse - S,MI,0
C1715_03_019,Sardi P. ,171504,Fenestrelle - Forterresse - S,LU,0
C1715_03_019,Vanotti P. ,171504,Fenestrelle - Forterresse - A,TO C,0
C1715_03_019,Zanetti B. ,171504,Fenestrelle - Forterresse - G,TO C,0
C1715_03_006,Caligaris A. ,171503,Valenza - Fortifications - A,BI,0
C1715_03_014,Galimberti G.M. ,171503,Turin - Citadelle - G,MI,0
C1715_03_014,Maciotta G. ,171503,Turin - Citadelle - S,BI,0
C1715_03_014,Menafoglio C.A. ,171503,Turin - Citadelle - S,MI,0
C1715_03_014,Pinchetti D. ,171503,Turin - Citadelle - S,MI,0
C1715_03_014,Pistone G. ,171503,Turin - Citadelle - A,BI,0
C1715_03_006,Maciotta G. ,171503,Valenza - Fortifications - S,BI,0
C1715_03_006,Menafoglio C.A. ,171503,Valenza - Fortifications - S,MI,0
C1715_03_006,Pinchetti D. ,171503,Valenza - Fortifications - S,MI,0
C1715_03_006,Righino P.G. ,171503,Valenza - Fortifications - G,MI,0
C1714_02_096,Sartoris G. ,171408,Turin - Université & Susa - Castello - A,MI,0
C1714_02_096,Candellero G. ,171408,Turin - Université & Susa - Castello - S,TO C,0
C1714_02_096,Casasopra G.B. ,171408,Turin - Université & Susa - Castello - G,LU,0
C1715_03_001,Crosa T.A. ,171501,Rivolli - Chateau - S,TO C,0
C1715_03_003,Menafoglio A. ,171501,Fleuve Po - G,MI,0
C1715_03_003,Menafoglio C.A. ,171501,Fleuve Po - S,MI,0
C1715_03_003,Pinchetti D. ,171501,Fleuve Po - S,MI,0
C1715_03_003,Righino P.A. ,171501,Fleuve Po - S,MI,0
C1715_03_003,Romano T. ,171501,Fleuve Po - A,BI,0
C1714_02_092,Capellaro F. ,171408,Brunetta - Forterresse - S,BI,0
C1714_02_088,Aprile F. ,171407,Turin - Université - S,LU,0
C1714_02_088,Quadrone B. ,171407,Turin - Université - S,MI,0
C1714_02_088,Casella A. ,171407,Turin - Université - S,LU,0
C1714_02_090,Aprile F. ,171408,Turin - Université - A,LU,0
C1714_02_090,Mazzoni C.G. ,171408,Turin - Université - S,MI,0
C1714_02_090,Solari C. ,171408,Turin - Université - S,LU,0
C1714_02_090,Solari G. ,171408,Turin - Université - S,LU,0
C1714_02_090,Solari G.B. ,171408,Turin - Université - S,LU,0
C1714_02_090,Solari M. ,171408,Turin - Université - S,LU,0
C1714_02_090,Succi G.B. ,171408,Turin - Université - G,BI,0
C1714_02_092,Peraldo P. ,171408,Brunetta - Forterresse - S,BI,0
C1714_02_092,Pistone G.S. ,171408,Brunetta - Forterresse - S,BI,0
C1714_02_092,Pistone G.A. ,171408,Brunetta - Forterresse - S,BI,0
C1714_02_092,Sereno G. ,171408,Brunetta - Forterresse - S,Vsu,0
C1714_02_092,Vanera M. ,171408,Brunetta - Forterresse - S,VL,0
C1714_02_073,Boggio P. ,171405,Verrua & Chivasso - Fortifications - S,BI,0
C1714_02_073,Caligaris A. ,171405,Verrua & Chivasso - Fortifications - A,BI,0
C1714_02_079,Coda G. ,171405,Turin - Université - A,TO C,0
C1714_02_079,Gillonio P. ,171405,Turin - Université - S,BI,0
C1714_02_079,Abbondiolo P. ,171405,Turin - Université - G,LU,0
C1714_02_081,Zo G.H. ,171406,Turin - Université & Rivolli - Chateau - S,BI,0
C1714_02_083,Peraldo P. ,171407,Fenestrelle - Forterresse - S,BI,0
C1714_02_083,Pistone C. ,171407,Fenestrelle - Forterresse - G,BI,0
C1714_02_083,Pistone G.S. ,171407,Fenestrelle - Forterresse - S,BI,0
C1714_02_083,Pistone G.A. ,171407,Fenestrelle - Forterresse - S,BI,0
C1714_02_083,Sereno M. ,171407,Fenestrelle - Forterresse - S,Vsu,0
C1714_02_083,Vanera G. ,171407,Fenestrelle - Forterresse - S,VL,0
C1714_02_083,Vanera M. ,171407,Fenestrelle - Forterresse - S,VL,0
C1714_02_083,Zo G.H. ,171407,Fenestrelle - Forterresse - A,BI,0
C1714_02_059,Solari C. ,171405,Turin - Université - S,LU,0
C1714_02_059,Solari G. ,171405,Turin - Université - S,LU,0
C1714_02_059,Solari G.B. ,171405,Turin - Université - S,LU,0
C1714_02_059,Succi G.B. ,171405,Turin - Université - G,BI,0
C1714_02_073,Galimberti G.M. ,171405,Verrua & Chivasso - Fortifications - G,MI,0
C1714_02_073,Groppi C. ,171405,Verrua & Chivasso - Fortifications - S,MI,0
C1714_02_073,Maciotta G. ,171405,Verrua & Chivasso - Fortifications - S,BI,0
C1714_02_073,Menafoglio A. ,171405,Verrua & Chivasso - Fortifications - S,MI,0
C1714_02_073,Menafoglio C.A. ,171405,Verrua & Chivasso - Fortifications - S,MI,0
C1714_02_073,Pinchetti D. ,171405,Verrua & Chivasso - Fortifications - S,MI,0
C1714_02_073,Romano T. ,171405,Verrua & Chivasso - Fortifications - S,BI,0
C1714_02_057,Mosso C.G. ,171404,Valenza - Fortifications - G,BI,0
C1714_02_059,Giudici F.M. ,171405,Turin - Université - A,MI,0
C1714_02_059,Mazzoni C.G. ,171405,Turin - Université - S,MI,0
C1714_02_053,Coda G. ,171404,Alessandria - Fortifications - A,TO C,0
C1714_02_053,Gillonio G.P. ,171404,Alessandria - Fortifications - S,BI,0
C1714_02_053,Bello L. ,171404,Alessandria - Fortifications - S,BI,0
C1714_02_053,Piazzollo F. ,171404,Alessandria - Fortifications - G,MI,0
C1714_02_053,Abbondiolo P. ,171404,Alessandria - Fortifications - S,LU,0
C1714_02_048,Constanzo B. ,171404,Alessandria - Fortifications - S,PI,0
C1714_02_048,Galimberti G.M. ,171404,Alessandria - Fortifications - G,MI,0
C1714_02_048,Menafoglio A. ,171404,Alessandria - Fortifications - S,MI,0
C1714_02_048,Vanone A.M. ,171404,Alessandria - Fortifications - A,MI,0
C1714_02_042,Bianchi G. ,171404,Rivolli - Chateau - S,LU,0
C1714_02_046,Clerico S. ,171404,Casale - Fortifications - S,BI,0
C1714_02_046,Mosso G. ,171404,Casale - Fortifications - A,BI,0
C1714_02_046,Rondoletto C.M. ,171404,Casale - Fortifications - G,BI,0
C1714_02_042,Gallo G.G. ,171404,Rivolli - Chateau - S,MI,0
C1714_02_042,Somazzo F. ,171404,Rivolli - Chateau - S,LU,0
C1714_02_039,Clerico G.P. ,171404,Chivasso - Fortifications - G,BI,0
C1714_02_039,Clerico S. ,171404,Chivasso - Fortifications - S,BI,0
C1714_02_039,Mosso G. ,171404,Chivasso - Fortifications - A,BI,0
C1714_02_039,Rondoletto C.M. ,171404,Chivasso - Fortifications - S,BI,0
C1714_02_037,Galimberti G.M. ,171404,Mortara - Fortifications - S,MI,0
C1714_02_037,Menafoglio A. ,171404,Mortara - Fortifications - S,MI,0
C1714_02_037,Menafoglio F.A. ,171404,Mortara - Fortifications - G,MI,0
C1714_02_037,Vanone A.M. ,171404,Mortara - Fortifications - A,MI,0
C1714_02_031,Gillonio G.P. ,171403,Mortara - Fortifications - S,BI,0
C1714_02_031,Bello P. ,171403,Mortara - Fortifications - A,BI,0
C1714_02_031,Piazzollo F. ,171403,Mortara - Fortifications - G,MI,0
C1714_02_031,Abbondiolo P. ,171403,Mortara - Fortifications - S,LU,0
C1714_02_027,Corte G. ,171403,Brunetta - Forterresse - A,BI,0
C1714_02_027,Arduino G. ,171403,Brunetta - Forterresse - S,_si,0
C1714_02_027,Griva G.A. ,171403,Brunetta - Forterresse - G,TO C,0
C1714_02_027,Magnano G.B. ,171403,Brunetta - Forterresse - S,BI,0
C1714_02_027,Rondoletto G.M. ,171403,Brunetta - Forterresse - S,BI,0
C1714_02_027,Toscanello F. ,171403,Brunetta - Forterresse - S,LU,0
C1714_02_027,Vani A. ,171403,Brunetta - Forterresse - S,BI,0
C1714_02_019,Constanzo B. ,171403,Mortara - Fortifications - S,PI,0
C1714_02_019,Groppi C. ,171403,Mortara - Fortifications - S,MI,0
C1714_02_019,Menafoglio A. ,171403,Mortara - Fortifications - S,MI,0
C1714_02_019,Menafoglio C.A. ,171403,Mortara - Fortifications - S,MI,0
C1714_02_019,Pianarosa G. ,171403,Mortara - Fortifications - S,MI,0
C1714_02_019,Pinchetti D. ,171403,Mortara - Fortifications - S,MI,0
C1714_02_019,Righino G. ,171403,Mortara - Fortifications - G,TO C,0
C1714_02_019,Righino P.A. ,171403,Mortara - Fortifications - S,MI,0
C1714_02_019,Vanone A.M. ,171403,Mortara - Fortifications - A,MI,0
C1714_02_013,Machiolo G. ,171402,Brunetta - Forterresse - A,TO C,0
C1714_02_013,Machiolo G.G. ,171402,Brunetta - Forterresse - G,VL,0
C1714_02_013,Sereno G. ,171402,Brunetta - Forterresse - S,Vsu,0
C1714_02_013,Sereno M. ,171402,Brunetta - Forterresse - S,Vsu,0
C1714_02_013,Vanera G. ,171402,Brunetta - Forterresse - S,VL,0
C1714_02_013,Vanera G. ,171402,Brunetta - Forterresse - S,VL,0
C1714_02_013,Vanera M. ,171402,Brunetta - Forterresse - S,VL,0
C1714_02_007,Menafoglio A. ,171401,Brunetta - Forterresse - S,MI,0
C1714_02_007,Menafoglio C.A. ,171401,Brunetta - Forterresse - G,MI,0
C1714_02_007,Pianarosa G. ,171401,Brunetta - Forterresse - A,MI,0
C1714_02_007,Pinchetti D. ,171401,Brunetta - Forterresse - S,MI,0
C1714_02_007,Pistone G.A. ,171401,Brunetta - Forterresse - S,BI,0
C1714_02_007,Righino P.A. ,171401,Brunetta - Forterresse - S,MI,0
C1713_01_277,Andicola G. ,171312,Rivolli - Chateau - S,MI,0
C1714_02_001,Castelli M.F. ,171401,Rivolli - Chateau - S,RO,0
C1714_02_001,Salié P. ,171401,Rivolli - Chateau - A,_si,0
C1714_02_001,Zo G.B. ,171401,Rivolli - Chateau - G,BI,0
C1714_02_001,Zo G.H. ,171401,Rivolli - Chateau - S,BI,0
C1713_01_271,Casanova A. ,171312,Rivolli - Chateau - G,CN,0
C1713_01_277,Gambone P.G. ,171312,Rivolli - Chateau - G,_si,0
C1713_01_277,Giani G. ,171312,Rivolli - Chateau - S,BI,0
C1713_01_277,Piazzollo F. ,171312,Rivolli - Chateau - G,MI,0
C1713_01_264,Rossi G.B. ,171312,Turin - Université - G,TO C,0
C1713_01_264,Cantone D. ,171312,Turin - Université - G,TO C,0
C1713_01_271,Ugliengo C.M. ,171312,Rivolli - Chateau - S,BI,0
C1713_01_271,Zo C.A. ,171312,Rivolli - Chateau - G,BI,0
C1713_01_264,Langier G.V. ,171312,Turin - Université - S,TO C,0
C1713_01_264,Langier S. ,171312,Turin - Université - S,TO C,0
C1713_01_256,Galimberti G.M. ,171311,Brunetta - Forterresse - G,MI,0
C1713_01_256,Maciotta C. ,171311,Brunetta - Forterresse - S,BI,0
C1713_01_256,Maciotta G. ,171311,Brunetta - Forterresse - S,BI,0
C1713_01_256,Menafoglio A. ,171311,Brunetta - Forterresse - G,MI,0
C1713_01_256,Romano G.B. ,171311,Brunetta - Forterresse - S,BI,0
C1713_01_252,Remo M. ,171311,Brunetta - Forterresse - S,Vsu,0
C1713_01_252,Rippelli F. ,171311,Brunetta - Forterresse - G,VL,0
C1713_01_252,Sereno G. ,171311,Brunetta - Forterresse - S,Vsu,0
C1713_01_252,Sereno M. ,171311,Brunetta - Forterresse - G,Vsu,0
C1713_01_252,Bellotto L. ,171311,Brunetta - Forterresse - S,Vsu,0
C1713_01_252,Vanera M. ,171311,Brunetta - Forterresse - S,VL,0
C1713_01_248,Menafoglio A. ,171310,Casale - Chateau - S,MI,0
C1713_01_248,Pianarosa G. ,171310,Casale - Chateau - S,MI,0
C1713_01_248,Pinchetti P. ,171310,Casale - Chateau - S,MI,0
C1713_01_248,Rechettino A. ,171310,Casale - Chateau - G,MI,0
C1713_01_248,Righino P.A. ,171310,Casale - Chateau - S,MI,0
C1713_01_248,Tognasco C. ,171310,Casale - Chateau - G,LU,0
C1713_01_235,Bello P. ,171309,Turin - Université - G,BI,0
C1713_01_235,Quadrone B. ,171309,Turin - Université - S,MI,0
C1713_01_235,Berta G. ,171309,Turin - Université - G,LU,0
C1713_01_235,Casella A. ,171309,Turin - Université - S,LU,0
C1713_01_241,Constanzo B. ,171309,Valenza - Fortifications - S,PI,0
C1713_01_241,Galimberti G.M. ,171309,Valenza - Fortifications - G,MI,0
C1713_01_241,Menafoglio A. ,171309,Valenza - Fortifications - S,MI,0
C1713_01_241,Menafoglio F.A. ,171309,Valenza - Fortifications - G,MI,0
C1713_01_241,Pianarosa G. ,171309,Valenza - Fortifications - S,MI,0
C1713_01_241,Pinchetti D. ,171309,Valenza - Fortifications - S,MI,0
C1713_01_241,Righino P.A. ,171309,Valenza - Fortifications - S,MI,0
C1713_01_228,Lanzavecchia G. ,171309,Mondovì - Caserne - G,TO C,0
C1713_01_228,Pianarosa G. ,171309,Mondovì - Caserne - S,MI,0
C1713_01_235,Aprile F. ,171309,Turin - Université - S,LU,0
C1713_01_220,Maffei C. ,171308,Pinerolo - Arsenal - S,TO C,0
C1713_01_220,Menafoglio G. ,171308,Pinerolo - Arsenal - S,MI,0
C1713_01_220,Rizzo F.A. ,171308,Pinerolo - Arsenal - G,TO C,0
C1713_01_220,Vittino G.F. ,171308,Pinerolo - Arsenal - S,BI,0
C1713_01_220,Blenio P. ,171308,Pinerolo - Arsenal - S,MI,0
C1713_01_220,Casasopra L. ,171308,Pinerolo - Arsenal - G,LU,0
C1713_01_216,Pelloli F.A. ,171307,Turin - Citadelle - G,MI,0
C1713_01_216,Zo C.A. ,171307,Turin - Citadelle - S,BI,0
C1713_01_216,Zo G.H. ,171307,Turin - Citadelle - G,BI,0
C1713_01_204,Richiardo G.F. ,171306,Venaria reale - G,TO C,0
C1713_01_204,Candellero G. ,171306,Venaria reale - S,TO C,0
C1713_01_204,Casasopra L. ,171306,Venaria reale - G,LU,0
C1713_01_208,Castelli M.F. ,171306,Turin - Chapelle du Saint Linceul - G,RO,0
C1713_01_208,Zo C.A. ,171306,Turin - Chapelle du Saint Linceul - S,BI,0
C1713_01_208,Zo G.H. ,171306,Turin - Chapelle du Saint Linceul - G,BI,0
C1713_01_210,[Morinache] C.G. ,171306,Turin - Citadelle - G,TO C,0
C1713_01_210,Darbesio G.B. ,171306,Turin - Citadelle - S,TO,0
C1713_01_210,Oreglia C.G. ,171306,Turin - Citadelle - S,TO C,0
C1713_01_210,Tovazzo C. ,171306,Turin - Citadelle - G,_si,0
C1713_01_202,Crosa T.A. ,171305,Turin - Palais Royal - S,TO C,0
C1713_01_187,[Seitto] G. ,171304,Venaria reale - G,Vse,0
C1713_01_187,Miretto V. ,171304,Venaria reale - S,Vse,0
C1713_01_187,Valzo G.L. ,171304,Venaria reale - S,BI,0
C1713_01_187,Vercelli G.D. ,171304,Venaria reale - S,Vse,0
C1713_01_187,Vercelli G.B.C. ,171304,Venaria reale - S,Vse,0
C1713_01_194,Meietto V.,171305,Venaria reale - S,_si,0
C1713_01_194,Valzo G.L. ,171305,Venaria reale - S,BI,0
C1713_01_194,Vercelli G.D. ,171305,Venaria reale - S,Vse,0
C1713_01_194,Vercelli G.B.C. ,171305,Venaria reale - S,Vse,0
C1713_01_198,Gaja P. ,171305,Turin - Porta Susina - Fortification  - G,BI,0
C1713_01_198,Mastalone P.F. ,171305,Turin - Porta Susina - Fortification  - S,TO C,0
C1713_01_198,Rondoletto M. ,171305,Turin - Porta Susina - Fortification  - G,BI,0
C1713_01_198,Vanera M. ,171305,Turin - Porta Susina - Fortification  - S,VL,0
C1713_01_181,Castelli M.F. ,171304,Turin - Université & Rivolli - Chateau - G,RO,0
C1713_01_181,Zo C.A. ,171304,Turin - Université & Rivolli - Chateau - G,BI,0
C1713_01_181,Zo G.H. ,171304,Turin - Université & Rivolli - Chateau - S,BI,0
C1713_01_187,Gaja P. ,171304,Venaria reale - G,BI,0
C1713_01_174,Boggio P. ,171303,Turin - Citadelle - G,BI,0
C1713_01_178,Clerico G.P. ,171303,Turin - Caserne Citadelle - G,BI,0
C1713_01_178,Clerico S. ,171303,Turin - Caserne Citadelle - S,BI,0
C1713_01_178,Rondoletto C.M. ,171303,Turin - Caserne Citadelle - S,BI,0
C1713_01_178,Rosso F.P. ,171303,Turin - Caserne Citadelle - G,BI,0
C1713_01_174,Maciotta C. ,171303,Turin - Citadelle - S,BI,0
C1713_01_174,Pistone G.G. ,171303,Turin - Citadelle - G,BI,0
C1713_01_158,Raschioni B. ,171302,Turin - Université - G,TO C,0
C1713_01_158,Sardi G. ,171302,Turin - Université - S,LU,0
C1713_01_158,Sardi P. ,171302,Turin - Université - S,LU,0
C1713_01_166,Zo G.B. ,171303,Mortara - route - G,BI,0
C1713_01_166,Borrione C. ,171303,Mortara - route - S,BI,0
C1713_01_166,Borrione D. ,171303,Mortara - route - G,BI,0
C1713_01_168,Tognasco C. ,171303,Alessandria - Fortifications - G,LU,0
C1713_01_168,Vani A. ,171303,Alessandria - Fortifications - G,BI,0
C1713_01_168,Berti G.B. ,171303,Alessandria - Fortifications - S,MI,0
C1713_01_151,Biglia G.B. ,171302,Brunetta - Forterresse - S,BI,0
C1713_01_158,De Mora A. ,171302,Turin - Université - G,TO C,0
C1713_01_142,Menafoglio A. ,171302,Rivolli - Chateau - S,MI,0
C1713_01_142,Menafoglio C.A. ,171302,Rivolli - Chateau - S,MI,0
C1713_01_142,Pianarosa G. ,171302,Rivolli - Chateau - S,MI,0
C1713_01_142,Piazzollo F. ,171302,Rivolli - Chateau - G,MI,0
C1713_01_142,Pinchetti D. ,171302,Rivolli - Chateau - S,MI,0
C1713_01_142,Camerata A. ,171302,Rivolli - Chateau - S,MI,0
C1713_01_142,Camerata C. ,171302,Rivolli - Chateau - S,MI,0
C1713_01_151,Maciotta C. ,171302,Brunetta - Forterresse - G,BI,0
C1713_01_151,Maciotta G. ,171302,Brunetta - Forterresse - S,BI,0
C1713_01_151,Pistone G.G. ,171302,Brunetta - Forterresse - G,BI,0
C1713_01_151,Pistone G.S. ,171302,Brunetta - Forterresse - S,BI,0
C1713_01_151,Romano G.B. ,171302,Brunetta - Forterresse - S,BI,0
C1713_01_151,Romano T. ,171302,Brunetta - Forterresse - S,BI,0
C1713_01_138,Bello P. ,171302,Casale - Chateau - G,BI,0
C1713_01_138,Sardi G. ,171302,Casale - Chateau - S,LU,0
C1713_01_138,Sardi P. ,171302,Casale - Chateau - G,LU,0
C1713_01_142,Fontana D. ,171302,Rivolli - Chateau - S,MI,0
C1713_01_142,Galimberti G.M. ,171302,Rivolli - Chateau - G,MI,0
C1712_01_125,Quadrone B. ,171205,Venaria reale - S,MI,0
C1712_01_125,Belloto C.F. ,171205,Venaria reale - G,MI,0
C1712_01_125,Casella A. ,171205,Venaria reale - S,LU,0
C1712_01_125,Casella S. ,171205,Venaria reale - G,LU,0
C1712_01_128,Ceresio F. ,171205,ponts_de_bateaux - G,CN,0
C1712_01_128,Ceresio G.A. ,171205,ponts_de_bateaux - S,CN,0
C1712_01_128,Ceresio P.A. ,171205,ponts_de_bateaux - G,CN,0
C1712_01_128,Desio N. ,171205,ponts_de_bateaux - S,CN,0
C1712_01_128,Gaido G. ,171205,ponts_de_bateaux - S,CN,0
C1712_01_128,Bonacosa A. ,171205,ponts_de_bateaux - S,CN,0
C1712_01_132,Marcandi G. ,171209,Casale - Fortifications - G,altro,0
C1712_01_132,Sardi G. ,171209,Casale - Fortifications - S,LU,0
C1712_01_132,Sardi P. ,171209,Casale - Fortifications - G,LU,0
C1712_01_125,Aprile F. ,171205,Venaria reale - S,LU,0
C1712_01_115,Bello G. ,171204,Rivolli - Chateau - S,MI,0
C1712_01_115,Bellotto A. ,171204,Rivolli - Chateau - G,MI,0
C1712_01_115,Zo G. ,171204,Rivolli - Chateau - S,BI,0
C1712_01_115,Candellero G.B. ,171204,Rivolli - Chateau - G,TO C,0
C1712_01_119,Clerico G.P. ,171204,Turin - Citadelle - G,BI,0
C1712_01_119,Clerico S. ,171204,Turin - Citadelle - S,BI,0
C1712_01_119,Mosso C.G. ,171204,Turin - Citadelle - G,BI,0
C1712_01_112,Boggio P. ,171204,Verrua & Asti - Forterresse - G,BI,0
C1712_01_115,Fiorina G.P. ,171204,Rivolli - Chateau - S,BI,0
C1712_01_107,Clerico G.P. ,171204,Turin - Porta Susina - Fortification  - S,BI,0
C1712_01_107,Coda G. ,171204,Turin - Porta Susina - Fortification  - G,TO C,0
C1712_01_107,Gillonio G.P. ,171204,Turin - Porta Susina - Fortification  - S,BI,0
C1712_01_107,Gillonio G. ,171204,Turin - Porta Susina - Fortification  - S,BI,0
C1712_01_107,Bello P. ,171204,Turin - Porta Susina - Fortification  - G,BI,0
C1712_01_107,Rondoletto C.M. ,171204,Turin - Porta Susina - Fortification  - S,BI,0
C1712_01_112,Maciotta C. ,171204,Verrua & Asti - Forterresse - G,BI,0
C1712_01_112,Menafoglio C.A. ,171204,Verrua & Asti - Forterresse - S,MI,0
C1712_01_103,Fontana F. ,171203,Turin - Citadelle - S,MI,0
C1712_01_103,Fornione Q. ,171203,Turin - Citadelle - G,BI,0
C1712_01_103,Manfreddo G. ,171203,Turin - Citadelle - S,BI,0
C1712_01_103,Bello G. ,171203,Turin - Citadelle - G,BI,0
C1712_01_103,Rondoletto G.M. ,171203,Turin - Citadelle - S,BI,0
C1712_01_095,Boggio P. ,171203,Ivrea - Forterresse - S,MI,0
C1712_01_099,Maciotta G. ,171203,Mortara - Fortifications - G,BI,0
C1712_01_099,Menafoglio C.A. ,171203,Mortara - Fortifications - S,MI,0
C1712_01_099,Pinchetti D. ,171203,Mortara - Fortifications - S,MI,0
C1712_01_099,Righino P.A. ,171203,Mortara - Fortifications - S,MI,0
C1712_01_099,Rochettino A. ,171203,Mortara - Fortifications - S,MI,0
C1712_01_099,Romano G.B. ,171203,Mortara - Fortifications - G,BI,0
C1712_01_095,Menafoglio C.A. ,171203,Ivrea - Forterresse - S,MI,0
C1712_01_095,Pinchetti D. ,171203,Ivrea - Forterresse - G,MI,0
C1712_01_095,Pistone G.G. ,171203,Ivrea - Forterresse - S,BI,0
C1712_01_095,Righino P.A. ,171203,Ivrea - Forterresse - S,MI,0
C1712_01_095,Romano T. ,171203,Ivrea - Forterresse - G,BI,0
C1712_01_091,Maciotta C. ,171203,Fleuve Po - S,BI,0
C1712_01_091,Maciotta G. ,171203,Fleuve Po - S,BI,0
C1712_01_091,Menafoglio A. ,171203,Fleuve Po - G,MI,0
C1712_01_091,Menafoglio C.A. ,171203,Fleuve Po - S,MI,0
C1712_01_091,Pinchetti D. ,171203,Fleuve Po - S,MI,0
C1712_01_091,Pistone C. ,171203,Fleuve Po - S,BI,0
C1712_01_091,Pistone G. ,171203,Fleuve Po - G,BI,0
C1712_01_091,Rechettino A. ,171203,Fleuve Po - S,MI,0
C1712_01_082,Ugliengo C.M. ,171203,Turin - Palais Royal - S,BI,0
C1712_01_082,Zo C.A. ,171203,Turin - Palais Royal - G,BI,0
C1712_01_082,Camerata A. ,171203,Turin - Palais Royal - G,MI,0
C1712_01_085,Ferraris B. ,171203,Turin - Citadelle - G,_si,0
C1712_01_085,Sardi G. ,171203,Turin - Citadelle - S,LU,0
C1712_01_085,Sardi P. ,171203,Turin - Citadelle - S,LU,0
C1712_01_085,Vitale P. ,171203,Turin - Citadelle - G,MI,0
C1712_01_073,Biglia G.B. ,171202,Demonte - Forterresse - S,BI,0
C1712_01_073,Bodoira G.D. ,171202,Demonte - Forterresse - G,_si,0
C1712_01_076,Costanzo B. ,171203,Alessandria - Fortifications - S,MI,0
C1712_01_076,Gallo G.F. ,171203,Alessandria - Fortifications - G,TO,0
C1712_01_076,Tognasco G. ,171203,Alessandria - Fortifications - G,LU,0
C1712_01_076,Berti G.B. ,171203,Alessandria - Fortifications - S,MI,0
C1712_01_076,Bertinello P. ,171203,Alessandria - Fortifications - S,MI,0
C1712_01_071,Menafoglio A. ,171201,Exilles - Forterresse - G,MI,0
C1712_01_071,Menafoglio C.A. ,171201,Exilles - Forterresse - S,MI,0
C1712_01_071,Pistone G.G. ,171201,Exilles - Forterresse - G,BI,0
C1712_01_071,Pistone G.S. ,171201,Exilles - Forterresse - S,BI,0
C1712_01_073,Gallo G.F. ,171202,Demonte - Forterresse - S,TO,0
C1712_01_073,Vani A. ,171202,Demonte - Forterresse - S,BI,0
C1712_01_073,Berti G.B. ,171202,Demonte - Forterresse - G,MI,0
C1712_01_061,Biglia G.B. ,171201,Brunetta - Forterresse - S,BI,0
C1712_01_067,Pianarosa G. ,171201,Saorge - Forteresse - S,MI,0
C1712_01_067,Piazzollo F. ,171201,Saorge - Forteresse - G,MI,0
C1711_01_065,Clerico S. ,171110,Fleuve Dora - S,BI,0
C1711_01_065,Mosso G. ,171110,Fleuve Dora - S,BI,0
C1711_01_065,Salazza B. ,171110,Fleuve Dora - G,_si,0
C1711_01_066,Paneaglio S.G. ,171107,Turin - Citadelle - S,TO C,0
C1711_01_066,Riva M.A. ,171107,Turin - Citadelle - S,TO,0
C1712_01_061,Cucco P. ,171201,Brunetta - Forterresse - G,BI,0
C1712_01_061,Gallo G.F. ,171201,Brunetta - Forterresse - S,TO,0
C1712_01_061,Baietto G.F. ,171201,Brunetta - Forterresse - S,TO,0
C1712_01_061,[Vassi] A. ,171201,Brunetta - Forterresse - S,BI,0
C1712_01_061,Toscasco C. ,171201,Brunetta - Forterresse - G,LU,0
C1712_01_061,Vanera G. ,171201,Brunetta - Forterresse - S,VL,0
C1712_01_061,Vanera M. ,171201,Brunetta - Forterresse - S,VL,0
C1712_01_061,Berti G.B. ,171201,Brunetta - Forterresse - S,MI,0
C1711_01_057,Grecca G.A. ,171112,Brunetta - Forterresse - G,_si,0
C1711_01_057,Sardi G. ,171112,Brunetta - Forterresse - S,LU,0
C1711_01_057,Sardi P. ,171112,Brunetta - Forterresse - G,LU,0
C1711_01_054,Beletto L. ,171112,Brunetta - Forterresse - S,Vsu,0
C1711_01_054,Sereno G. ,171112,Brunetta - Forterresse - S,Vsu,0
C1711_01_038,Canova A. ,171106,Casale - Chateau - S,BI,0
C1711_01_047,Menafoglio A. ,171107,Turin - Citadelle et ville - S,MI,0
C1711_01_047,Reghino P.M. ,171107,Turin - Citadelle et ville - G,MI,0
C1711_01_047,Riccio F.A. ,171107,Turin - Citadelle et ville - S,TO C,0
C1711_01_047,Ugliengo C.M. ,171107,Turin - Citadelle et ville - G,BI,0
C1711_01_033,Toscanello F. ,171105,Turin - Arsenal - S,LU,0
C1711_01_033,Boggio P. ,171105,Turin - Arsenal - S,BI,0
C1711_01_038,Gaffino M. ,171106,Casale - Chateau - G,PI,0
C1711_01_038,Gianone G.B. ,171106,Casale - Chateau - G,BI,0
C1711_01_038,Negro B. ,171106,Casale - Chateau - S,BI,0
C1711_01_038,Tua G.B. ,171106,Casale - Chateau - S,BI,0
C1711_01_029,Pagano C. ,171105,Montcagieri - Chateau - S,MI,0
C1711_01_029,Persivale G.M. ,171105,Montcagieri - Chateau - G,CN,0
C1711_01_029,Bollino G. ,171105,Montcagieri - Chateau - S,MI,0
C1711_01_033,Gaja P. ,171105,Turin - Arsenal - S,BI,0
C1711_01_018,Gillonio G.P. ,171105,Turin - Palais Royal - G,BI,0
C1711_01_018,Bello L. ,171105,Turin - Palais Royal - S,BI,0
C1711_01_018,Bello P. ,171105,Turin - Palais Royal - G,BI,0
C1711_01_018,Vanera M. ,171105,Turin - Palais Royal - S,VL,0
C1711_01_018,Camerata A. ,171105,Turin - Palais Royal - S,MI,0
C1711_01_029,Furno G.D. ,171105,Montcagieri - Chateau - G,TO C,0
C1711_01_014,Camerata A. ,171105,Turin - Citadelle - S,MI,0
C1711_01_012,Paron F. ,171105,ponts_de_bateaux - G,TO,0
C1711_01_012,Parone C. ,171105,ponts_de_bateaux - S,_si,0
C1711_01_012,Vietto A. ,171105,ponts_de_bateaux - G,_si,0
C1711_01_014,Gillonio G.P. ,171105,Turin - Citadelle - G,BI,0
C1711_01_014,Bello L. ,171105,Turin - Citadelle - S,BI,0
C1711_01_014,Bello P. ,171105,Turin - Citadelle - G,BI,0
C1711_01_014,Vanera M. ,171105,Turin - Citadelle - S,VL,0
C1711_01_008,Gallo G.F. ,171105,Valenza & Alessandria - S,TO,0
C1711_01_008,Baietto D. ,171105,Valenza & Alessandria - S,TO,0
C1711_01_008,Berti G.B. ,171105,Valenza & Alessandria - S,MI,0
C1711_01_008,Bertinello P. ,171105,Valenza & Alessandria - S,MI,0
1,_,171108,_,altro,0
2,_,171109,_,altro,0
3,_,171111,_,altro,0
4,_,171206,_,altro,0
5,_,171207,_,altro,0
6,_,171208,_,altro,0
7,_,171210,_,altro,0
8,_,171211,_,altro,0
9,_,171212,_,altro,0
10,_,171301,_,altro,0
11,_,171409,_,altro,0
12,_,171410,_,altro,0
13,_,171210,_,altro,0
14,_,171411,_,altro,0
15,_,171412,_,altro,0
16,_,171502,_,altro,0
17,_,171507,_,altro,0
18,_,171510,_,altro,0
19,_,171601,_,altro,0
20,_,171602,_,altro,0
21,_,171606,_,altro,0
22,_,171608,_,altro,0
23,_,171609,_,altro,0
24,_,171610,_,altro,0
25,_,171611,_,altro,0
26,_,171612,_,altro,0
27,_,171710,_,altro,0
