{
    "metadata": {
        "format": "2.1.0",
        "name": "name",
        "graph type": "bipartite",
        "nodes": "nodes",
        "links": "links",
        "time_slot": "time slot",
        "entity_type": "entity_type",
        "source_entity_type": "hyperedge",
        "target_entity_type": "node",
        "community": [
            "family"
        ]
    },
    "nodes": [
        {
            "id": 6,
            "entity_type": "node",
            "name": "Joseph Labelle"
        },
        {
            "id": 133,
            "entity_type": "node",
            "name": "Madeline Boucher",
            "family": "Boucher"
        },
        {
            "id": 132,
            "entity_type": "node",
            "name": "Jean Grouart"
        },
        {
            "id": 131,
            "entity_type": "node",
            "name": "Jérome de Vocelle"
        },
        {
            "id": 20,
            "entity_type": "node",
            "name": "Robert Bussiere"
        },
        {
            "id": 29,
            "entity_type": "node",
            "name": "Madelaine Boucher",
            "family": "Boucher"
        },
        {
            "id": 158,
            "entity_type": "node",
            "name": "Jehan Ory"
        },
        {
            "id": 89,
            "entity_type": "node",
            "name": "Unknown"
        },
        {
            "id": 2,
            "entity_type": "node",
            "name": "Marie Boucher",
            "family": "Boucher"
        },
        {
            "id": 53,
            "entity_type": "node",
            "name": "François Truseau"
        },
        {
            "id": 54,
            "entity_type": "node",
            "name": "Bernard Gillabert"
        },
        {
            "id": 55,
            "entity_type": "node",
            "name": "Daniel de Vassal"
        },
        {
            "id": 56,
            "entity_type": "node",
            "name": "Michel Tessier"
        },
        {
            "id": 57,
            "entity_type": "node",
            "name": "Josué de Bargeau"
        },
        {
            "id": 58,
            "entity_type": "node",
            "name": "Jean Boucher",
            "family": "Boucher"
        },
        {
            "id": 59,
            "entity_type": "node",
            "name": "Cornelius Wils"
        },
        {
            "id": 60,
            "entity_type": "node",
            "name": "Jean Wills"
        },
        {
            "id": 69,
            "entity_type": "node",
            "name": "Euzebe de Loynes"
        },
        {
            "id": 68,
            "entity_type": "node",
            "name": "Pierre Guinebaud"
        },
        {
            "id": 63,
            "entity_type": "node",
            "name": "Moyse Febvre"
        },
        {
            "id": 75,
            "entity_type": "node",
            "name": "Daniel Caneret"
        },
        {
            "id": 61,
            "entity_type": "node",
            "name": "Anne Gallier"
        },
        {
            "id": 62,
            "entity_type": "node",
            "name": "Mathurin Marion"
        },
        {
            "id": 64,
            "entity_type": "node",
            "name": "Cornelis Wils"
        },
        {
            "id": 65,
            "entity_type": "node",
            "name": "Thymen Van Schoonhoven"
        },
        {
            "id": 66,
            "entity_type": "node",
            "name": "Wils et Van Schoonhoven Cie"
        },
        {
            "id": 67,
            "entity_type": "node",
            "name": "Pierre Guyonneau"
        },
        {
            "id": 70,
            "entity_type": "node",
            "name": "Jean Baptiste Foucaud"
        },
        {
            "id": 71,
            "entity_type": "node",
            "name": "Pierre Goudin"
        },
        {
            "id": 72,
            "entity_type": "node",
            "name": "Arnault de La Conforque"
        },
        {
            "id": 73,
            "entity_type": "node",
            "name": "Jean Batau"
        },
        {
            "id": 74,
            "entity_type": "node",
            "name": "François Laragon"
        },
        {
            "id": 179,
            "entity_type": "node",
            "name": "Jean Masson Lesné"
        },
        {
            "id": 96,
            "entity_type": "node",
            "name": "Euzèbe Foucault"
        },
        {
            "id": 37,
            "entity_type": "node",
            "name": "Jacques Souchay et Bouchaud"
        },
        {
            "id": 83,
            "entity_type": "node",
            "name": "? Bouchaud"
        },
        {
            "id": 93,
            "entity_type": "node",
            "name": "Lorant Hubac"
        },
        {
            "id": 94,
            "entity_type": "node",
            "name": "Yvon Le Danteux"
        },
        {
            "id": 92,
            "entity_type": "node",
            "name": "François Lestoubec"
        },
        {
            "id": 91,
            "entity_type": "node",
            "name": "Pierre Le Gruyer sr du Couhourdez"
        },
        {
            "id": 90,
            "entity_type": "node",
            "name": "? Jego sr Des Preaux"
        },
        {
            "id": 78,
            "entity_type": "node",
            "name": "Thomas Barnaval"
        },
        {
            "id": 88,
            "entity_type": "node",
            "name": "Jacob Van den ?"
        },
        {
            "id": 87,
            "entity_type": "node",
            "name": "Claude Marion"
        },
        {
            "id": 86,
            "entity_type": "node",
            "name": "André Boussineau"
        },
        {
            "id": 85,
            "entity_type": "node",
            "name": "Julien Gérard sr de Nays"
        },
        {
            "id": 84,
            "entity_type": "node",
            "name": "Gabriel Michel"
        },
        {
            "id": 95,
            "entity_type": "node",
            "name": "Michel Foucault"
        },
        {
            "id": 82,
            "entity_type": "node",
            "name": "Jacques Souchay"
        },
        {
            "id": 81,
            "entity_type": "node",
            "name": "? Fresneau"
        },
        {
            "id": 80,
            "entity_type": "node",
            "name": "Veuve Massuau"
        },
        {
            "id": 79,
            "entity_type": "node",
            "name": "Veuve Massuau et Fresneau"
        },
        {
            "id": 77,
            "entity_type": "node",
            "name": "? Grilleau Cie"
        },
        {
            "id": 76,
            "entity_type": "node",
            "name": "Yves Le Fauché"
        },
        {
            "id": 97,
            "entity_type": "node",
            "name": "Nicolas de Gonnor"
        },
        {
            "id": 178,
            "entity_type": "node",
            "name": "Mathurin Dugast"
        },
        {
            "id": 180,
            "entity_type": "node",
            "name": "Julien Gerard sr de Nays"
        },
        {
            "id": 99,
            "entity_type": "node",
            "name": "Unknown"
        },
        {
            "id": 106,
            "entity_type": "node",
            "name": "Julien Forget"
        },
        {
            "id": 104,
            "entity_type": "node",
            "name": "Charles Pocquelin"
        },
        {
            "id": 103,
            "entity_type": "node",
            "name": "Charles Pocquelin et Heron Cie"
        },
        {
            "id": 105,
            "entity_type": "node",
            "name": "? Heron"
        },
        {
            "id": 102,
            "entity_type": "node",
            "name": "Pierre Benasté"
        },
        {
            "id": 101,
            "entity_type": "node",
            "name": "Veuve Louis Le Vassor"
        },
        {
            "id": 100,
            "entity_type": "node",
            "name": "Euzebe de Loynes"
        },
        {
            "id": 98,
            "entity_type": "node",
            "name": "Pierre Bernard"
        },
        {
            "id": 34,
            "entity_type": "node",
            "name": "Eloy Antheaume",
            "family": "Antheaume"
        },
        {
            "id": 154,
            "entity_type": "node",
            "name": "Pierre de Marle",
            "family": "Antheaume"
        },
        {
            "id": 155,
            "entity_type": "node",
            "name": "Marguerite Antheaume",
            "family": "Antheaume"
        },
        {
            "id": 153,
            "entity_type": "node",
            "name": "Eloy Antheaume, père",
            "family": "Antheaume"
        },
        {
            "id": 183,
            "entity_type": "node",
            "name": "François Lemasson"
        },
        {
            "id": 156,
            "entity_type": "node",
            "name": "St Severin, Paris"
        },
        {
            "id": 108,
            "entity_type": "node",
            "name": "Elizabeth Monnier, dame de la Joffrairie"
        },
        {
            "id": 109,
            "entity_type": "node",
            "name": "? de Loigné"
        },
        {
            "id": 107,
            "entity_type": "node",
            "name": "Catherine Lefebvre"
        },
        {
            "id": 110,
            "entity_type": "node",
            "name": "François Masson"
        },
        {
            "id": 181,
            "entity_type": "node",
            "name": "Jean Ruyo"
        },
        {
            "id": 182,
            "entity_type": "node",
            "name": "François Le Pelletier"
        },
        {
            "id": 111,
            "entity_type": "node",
            "name": "Julien Hubin, sr de la Joffrairie"
        },
        {
            "id": 0,
            "entity_type": "node",
            "name": "Hubert Antheaume",
            "family": "Antheaume"
        },
        {
            "id": 125,
            "entity_type": "node",
            "name": "Jacques Antheaume",
            "family": "Antheaume"
        },
        {
            "id": 25,
            "entity_type": "node",
            "name": "Madeleine Boucher",
            "family": "Boucher"
        },
        {
            "id": 113,
            "entity_type": "node",
            "name": "Robert Miron"
        },
        {
            "id": 122,
            "entity_type": "node",
            "name": "Claude Du Mesnil"
        },
        {
            "id": 124,
            "entity_type": "node",
            "name": "Jean Merceron sr de la Poitevinière"
        },
        {
            "id": 186,
            "entity_type": "node",
            "name": "Charles Souyn fils"
        },
        {
            "id": 185,
            "entity_type": "node",
            "name": "Charles Souyn défunt"
        },
        {
            "id": 184,
            "entity_type": "node",
            "name": "Jeanne Renard"
        },
        {
            "id": 116,
            "entity_type": "node",
            "name": "Jean Renou"
        },
        {
            "id": 112,
            "entity_type": "node",
            "name": "Charles Cassard"
        },
        {
            "id": 114,
            "entity_type": "node",
            "name": "Denis Jaumier"
        },
        {
            "id": 115,
            "entity_type": "node",
            "name": "René Cisson"
        },
        {
            "id": 117,
            "entity_type": "node",
            "name": "Bonnaventure Dupé"
        },
        {
            "id": 118,
            "entity_type": "node",
            "name": "Jacques Boucher",
            "family": "Boucher"
        },
        {
            "id": 119,
            "entity_type": "node",
            "name": "Claude Courdon"
        },
        {
            "id": 120,
            "entity_type": "node",
            "name": "Hervé Le Prince"
        },
        {
            "id": 121,
            "entity_type": "node",
            "name": "Michel Yviquel"
        },
        {
            "id": 123,
            "entity_type": "node",
            "name": "Françoise Seurat"
        },
        {
            "id": 35,
            "entity_type": "node",
            "name": "Anne Vallet"
        },
        {
            "id": 164,
            "entity_type": "node",
            "name": "Madeleine Antheaume",
            "family": "Antheaume"
        },
        {
            "id": 166,
            "entity_type": "node",
            "name": "Jean Antheaume père",
            "family": "Antheaume"
        },
        {
            "id": 165,
            "entity_type": "node",
            "name": "Marguerite Lescallier"
        },
        {
            "id": 163,
            "entity_type": "node",
            "name": "Eloy Antheaume père",
            "family": "Antheaume"
        },
        {
            "id": 175,
            "entity_type": "node",
            "name": "Jean Ory",
            "family": "Antheaume"
        },
        {
            "id": 174,
            "entity_type": "node",
            "name": "Jean Ory père",
            "family": "Antheaume"
        },
        {
            "id": 171,
            "entity_type": "node",
            "name": "Madeleine Antheaume é",
            "family": "Antheaume"
        },
        {
            "id": 172,
            "entity_type": "node",
            "name": "Jean Estienne Martin"
        },
        {
            "id": 177,
            "entity_type": "node",
            "name": "Antoine Antheaume",
            "family": "Antheaume"
        },
        {
            "id": 170,
            "entity_type": "node",
            "name": "Madeleine Antheaume 2",
            "family": "Antheaume"
        },
        {
            "id": 169,
            "entity_type": "node",
            "name": "Marie Antheaume",
            "family": "Antheaume"
        },
        {
            "id": 168,
            "entity_type": "node",
            "name": "Jean Antheaume",
            "family": "Antheaume"
        },
        {
            "id": 167,
            "entity_type": "node",
            "name": "Joseph Estienne Antheaume",
            "family": "Antheaume"
        },
        {
            "id": 176,
            "entity_type": "node",
            "name": "Nicolas de Longueil"
        },
        {
            "id": 173,
            "entity_type": "node",
            "name": "Pierre Damoiseau"
        },
        {
            "id": 128,
            "entity_type": "node",
            "name": "Renée Leboisteux"
        },
        {
            "id": 129,
            "entity_type": "node",
            "name": "Bernard Godin"
        },
        {
            "id": 127,
            "entity_type": "node",
            "name": "Simon Chesneau"
        },
        {
            "id": 130,
            "entity_type": "node",
            "name": "? Belliotte"
        },
        {
            "id": 126,
            "entity_type": "node",
            "name": "Jean Chesneau"
        },
        {
            "id": 143,
            "entity_type": "node",
            "name": "Marie Boucher et Hubert Antheaume Cie",
            "family": "Boucher"
        },
        {
            "id": 142,
            "entity_type": "node",
            "name": "Jean de Beausse"
        },
        {
            "id": 3,
            "entity_type": "node",
            "name": "Roze Boucher",
            "family": "Boucher"
        },
        {
            "id": 140,
            "entity_type": "node",
            "name": "Jérome Merceron"
        },
        {
            "id": 187,
            "entity_type": "node",
            "name": "Maude Lequere"
        },
        {
            "id": 188,
            "entity_type": "node",
            "name": "Charles Moruan"
        },
        {
            "id": 189,
            "entity_type": "node",
            "name": "Nicolas Hotman"
        },
        {
            "id": 151,
            "entity_type": "node",
            "name": "Raoul Sanson"
        },
        {
            "id": 150,
            "entity_type": "node",
            "name": "Damoiselle de Perpignan"
        },
        {
            "id": 144,
            "entity_type": "node",
            "name": "Nicolas Bachelier"
        },
        {
            "id": 146,
            "entity_type": "node",
            "name": "? de Flacon"
        },
        {
            "id": 147,
            "entity_type": "node",
            "name": "Claude Lemasne"
        },
        {
            "id": 148,
            "entity_type": "node",
            "name": "Louis Germain"
        },
        {
            "id": 149,
            "entity_type": "node",
            "name": "Michel Germain sieur de Valecourt"
        },
        {
            "id": 141,
            "entity_type": "node",
            "name": "Claude de Cornillier"
        },
        {
            "id": 134,
            "entity_type": "node",
            "name": "Pierre Gaigneur"
        },
        {
            "id": 135,
            "entity_type": "node",
            "name": "Jean Ragniau"
        },
        {
            "id": 136,
            "entity_type": "node",
            "name": "François Pachon"
        },
        {
            "id": 137,
            "entity_type": "node",
            "name": "? Arnaud Père"
        },
        {
            "id": 138,
            "entity_type": "node",
            "name": "Josué Valens"
        },
        {
            "id": 139,
            "entity_type": "node",
            "name": "Nicolas Bachelier sr du Pinier"
        },
        {
            "id": 145,
            "entity_type": "node",
            "name": "Etienne Huet"
        },
        {
            "id": 152,
            "entity_type": "node",
            "name": "Julien Chesne le jeune"
        },
        {
            "id": 1,
            "entity_type": "node",
            "name": "Jacques Yvon, sr des Landes"
        },
        {
            "id": 159,
            "entity_type": "node",
            "name": "Jehan Du Mesnil"
        },
        {
            "id": 160,
            "entity_type": "node",
            "name": "Catherine Benard"
        },
        {
            "id": 161,
            "entity_type": "node",
            "name": "Pierre Girard"
        },
        {
            "id": 162,
            "entity_type": "node",
            "name": "Claude Gohard"
        },
        {
            "id": 19,
            "entity_type": "node",
            "name": "Michel Villette"
        },
        {
            "id": 16,
            "entity_type": "node",
            "name": "Marie-Anne de Lamarche"
        },
        {
            "id": 18,
            "entity_type": "node",
            "name": "Pierre de Lamarche"
        },
        {
            "id": 14,
            "entity_type": "node",
            "name": "Marie Paulet"
        },
        {
            "id": 21,
            "entity_type": "node",
            "name": "Christophe Provost"
        },
        {
            "id": 23,
            "entity_type": "node",
            "name": "Paul Bonneau"
        },
        {
            "id": 12,
            "entity_type": "node",
            "name": "Renexent Vanarsen"
        },
        {
            "id": 11,
            "entity_type": "node",
            "name": "Madeleine Gassau"
        },
        {
            "id": 10,
            "entity_type": "node",
            "name": "Guillaume Gray le jeune"
        },
        {
            "id": 9,
            "entity_type": "node",
            "name": "Jacques Allain"
        },
        {
            "id": 4,
            "entity_type": "node",
            "name": "? Vallet"
        },
        {
            "id": 15,
            "entity_type": "node",
            "name": "Isabelle Maheu"
        },
        {
            "id": 17,
            "entity_type": "node",
            "name": "Georges Maheu"
        },
        {
            "id": 22,
            "entity_type": "node",
            "name": "Robert Bussière"
        },
        {
            "id": 13,
            "entity_type": "node",
            "name": "Renée Maheur"
        },
        {
            "id": 8,
            "entity_type": "node",
            "name": "Jean Michel"
        },
        {
            "id": 7,
            "entity_type": "node",
            "name": "Joseph Vallet"
        },
        {
            "id": 5,
            "entity_type": "node",
            "name": "? Bec de Fort"
        },
        {
            "id": 24,
            "entity_type": "node",
            "name": "Jacques Martin"
        },
        {
            "id": 28,
            "entity_type": "node",
            "name": "Jean Baptiste Boiset, sr de Favel"
        },
        {
            "id": 26,
            "entity_type": "node",
            "name": "Louis Vassal"
        },
        {
            "id": 31,
            "entity_type": "node",
            "name": "Jean Gauret"
        },
        {
            "id": 30,
            "entity_type": "node",
            "name": "Veuve Boucher",
            "family": "Boucher"
        },
        {
            "id": 27,
            "entity_type": "node",
            "name": "? Guillocheau"
        },
        {
            "id": 32,
            "entity_type": "node",
            "name": "? Lesergent"
        },
        {
            "id": 33,
            "entity_type": "node",
            "name": "Julienne ?"
        },
        {
            "id": 38,
            "entity_type": "node",
            "name": "? Gauvain"
        },
        {
            "id": 39,
            "entity_type": "node",
            "name": "? Belot"
        },
        {
            "id": 49,
            "entity_type": "node",
            "name": "? Souchay"
        },
        {
            "id": 48,
            "entity_type": "node",
            "name": "? Montaudoin"
        },
        {
            "id": 42,
            "entity_type": "node",
            "name": "Claude Berthelot"
        },
        {
            "id": 43,
            "entity_type": "node",
            "name": "Maximilien Lebreton"
        },
        {
            "id": 44,
            "entity_type": "node",
            "name": "? De Vonnes Lucas"
        },
        {
            "id": 50,
            "entity_type": "node",
            "name": "Ancelme Beaugrand"
        },
        {
            "id": 41,
            "entity_type": "node",
            "name": "? Bruneau"
        },
        {
            "id": 45,
            "entity_type": "node",
            "name": "René Budan"
        },
        {
            "id": 46,
            "entity_type": "node",
            "name": "Jacques Danguy"
        },
        {
            "id": 47,
            "entity_type": "node",
            "name": "? Stalpart"
        },
        {
            "id": 36,
            "entity_type": "node",
            "name": "François Bouchaud sr de la Foretterie"
        },
        {
            "id": 40,
            "entity_type": "node",
            "name": "? De la Maison Rouge Perrault"
        },
        {
            "id": 51,
            "entity_type": "node",
            "name": "Jean Mersant"
        },
        {
            "id": 52,
            "entity_type": "node",
            "name": "André Delaville sr de la Foucherie"
        },
        {
            "id": "_e_0",
            "ts": "1668",
            "raw_ts": "1668",
            "entity_type": "hyperedge"
        },
        {
            "id": "_e_1",
            "ts": "1660",
            "raw_ts": "1660",
            "entity_type": "hyperedge"
        },
        {
            "id": "_e_2",
            "ts": "1670",
            "raw_ts": "1670",
            "entity_type": "hyperedge"
        },
        {
            "id": "_e_3",
            "ts": "1666",
            "raw_ts": "1666",
            "entity_type": "hyperedge"
        },
        {
            "id": "_e_4",
            "ts": "1666",
            "raw_ts": "1666",
            "entity_type": "hyperedge"
        },
        {
            "id": "_e_5",
            "ts": "1670",
            "raw_ts": "1670",
            "entity_type": "hyperedge"
        },
        {
            "id": "_e_6",
            "ts": "1662",
            "raw_ts": "1662",
            "entity_type": "hyperedge"
        },
        {
            "id": "_e_7",
            "ts": "1664",
            "raw_ts": "1664",
            "entity_type": "hyperedge"
        },
        {
            "id": "_e_8",
            "ts": "1666",
            "raw_ts": "1666",
            "entity_type": "hyperedge"
        },
        {
            "id": "_e_9",
            "ts": "1663",
            "raw_ts": "1663",
            "entity_type": "hyperedge"
        },
        {
            "id": "_e_10",
            "ts": "1667",
            "raw_ts": "1667",
            "entity_type": "hyperedge"
        },
        {
            "id": "_e_11",
            "ts": "1664",
            "raw_ts": "1664",
            "entity_type": "hyperedge"
        },
        {
            "id": "_e_12",
            "ts": "1666",
            "raw_ts": "1666",
            "entity_type": "hyperedge"
        },
        {
            "id": "_e_13",
            "ts": "1667",
            "raw_ts": "1667",
            "entity_type": "hyperedge"
        },
        {
            "id": "_e_14",
            "ts": "1666",
            "raw_ts": "1666",
            "entity_type": "hyperedge"
        },
        {
            "id": "_e_15",
            "ts": "1666",
            "raw_ts": "1666",
            "entity_type": "hyperedge"
        },
        {
            "id": "_e_16",
            "ts": "1667",
            "raw_ts": "1667",
            "entity_type": "hyperedge"
        },
        {
            "id": "_e_17",
            "ts": "1668",
            "raw_ts": "1668",
            "entity_type": "hyperedge"
        },
        {
            "id": "_e_18",
            "ts": "1667",
            "raw_ts": "1667",
            "entity_type": "hyperedge"
        },
        {
            "id": "_e_19",
            "ts": "1668",
            "raw_ts": "1668",
            "entity_type": "hyperedge"
        },
        {
            "id": "_e_20",
            "ts": "1671",
            "raw_ts": "1671",
            "entity_type": "hyperedge"
        },
        {
            "id": "_e_21",
            "ts": "1670",
            "raw_ts": "1670",
            "entity_type": "hyperedge"
        },
        {
            "id": "_e_22",
            "ts": "1674",
            "raw_ts": "1674",
            "entity_type": "hyperedge"
        },
        {
            "id": "_e_23",
            "ts": "1670",
            "raw_ts": "1670",
            "entity_type": "hyperedge"
        },
        {
            "id": "_e_24",
            "ts": "1671",
            "raw_ts": "1671",
            "entity_type": "hyperedge"
        },
        {
            "id": "_e_25",
            "ts": "1672",
            "raw_ts": "1672",
            "entity_type": "hyperedge"
        },
        {
            "id": "_e_26",
            "ts": "1675",
            "raw_ts": "1675",
            "entity_type": "hyperedge"
        },
        {
            "id": "_e_27",
            "ts": "1689",
            "raw_ts": "1689",
            "entity_type": "hyperedge"
        },
        {
            "id": "_e_28",
            "ts": "1672",
            "raw_ts": "1672",
            "entity_type": "hyperedge"
        },
        {
            "id": "_e_29",
            "ts": "1690",
            "raw_ts": "1690",
            "entity_type": "hyperedge"
        },
        {
            "id": "_e_30",
            "ts": "1668",
            "raw_ts": "1668",
            "entity_type": "hyperedge"
        },
        {
            "id": "_e_31",
            "ts": "1690",
            "raw_ts": "1690",
            "entity_type": "hyperedge"
        },
        {
            "id": "_e_32",
            "ts": "1671",
            "raw_ts": "1671",
            "entity_type": "hyperedge"
        },
        {
            "id": "_e_33",
            "ts": "1671",
            "raw_ts": "1671",
            "entity_type": "hyperedge"
        },
        {
            "id": "_e_34",
            "ts": "1671",
            "raw_ts": "1671",
            "entity_type": "hyperedge"
        },
        {
            "id": "_e_35",
            "ts": "1671",
            "raw_ts": "1671",
            "entity_type": "hyperedge"
        },
        {
            "id": "_e_36",
            "ts": "1672",
            "raw_ts": "1672",
            "entity_type": "hyperedge"
        },
        {
            "id": "_e_37",
            "ts": "1676",
            "raw_ts": "1676",
            "entity_type": "hyperedge"
        },
        {
            "id": "_e_38",
            "ts": "1671",
            "raw_ts": "1671",
            "entity_type": "hyperedge"
        },
        {
            "id": "_e_39",
            "ts": "1682",
            "raw_ts": "1682",
            "entity_type": "hyperedge"
        },
        {
            "id": "_e_40",
            "ts": "1683",
            "raw_ts": "1683",
            "entity_type": "hyperedge"
        },
        {
            "id": "_e_41",
            "ts": "1676",
            "raw_ts": "1676",
            "entity_type": "hyperedge"
        },
        {
            "id": "_e_42",
            "ts": "1669",
            "raw_ts": "1669",
            "entity_type": "hyperedge"
        },
        {
            "id": "_e_43",
            "ts": "1685",
            "raw_ts": "1685",
            "entity_type": "hyperedge"
        },
        {
            "id": "_e_44",
            "ts": "1689",
            "raw_ts": "1689",
            "entity_type": "hyperedge"
        },
        {
            "id": "_e_45",
            "ts": "1683",
            "raw_ts": "1683",
            "entity_type": "hyperedge"
        },
        {
            "id": "_e_46",
            "ts": "1689",
            "raw_ts": "1689",
            "entity_type": "hyperedge"
        },
        {
            "id": "_e_47",
            "ts": "1673",
            "raw_ts": "1673",
            "entity_type": "hyperedge"
        },
        {
            "id": "_e_48",
            "ts": "1681",
            "raw_ts": "1681",
            "entity_type": "hyperedge"
        },
        {
            "id": "_e_49",
            "ts": "1676",
            "raw_ts": "1676",
            "entity_type": "hyperedge"
        },
        {
            "id": "_e_50",
            "ts": "1676",
            "raw_ts": "1676",
            "entity_type": "hyperedge"
        },
        {
            "id": "_e_51",
            "ts": "1676",
            "raw_ts": "1676",
            "entity_type": "hyperedge"
        },
        {
            "id": "_e_52",
            "ts": "1692",
            "raw_ts": "1692",
            "entity_type": "hyperedge"
        },
        {
            "id": "_e_53",
            "ts": "1692",
            "raw_ts": "1692",
            "entity_type": "hyperedge"
        },
        {
            "id": "_e_54",
            "ts": "1672",
            "raw_ts": "1672",
            "entity_type": "hyperedge"
        },
        {
            "id": "_e_55",
            "ts": "1675",
            "raw_ts": "1675",
            "entity_type": "hyperedge"
        },
        {
            "id": "_e_56",
            "ts": "1672",
            "raw_ts": "1672",
            "entity_type": "hyperedge"
        },
        {
            "id": "_e_57",
            "ts": "1672",
            "raw_ts": "1672",
            "entity_type": "hyperedge"
        }
    ],
    "links": [
        {
            "source": "_e_0",
            "target": 2,
            "ts": "1668"
        },
        {
            "source": "_e_0",
            "target": 107,
            "ts": "1668"
        },
        {
            "source": "_e_0",
            "target": 108,
            "ts": "1668"
        },
        {
            "source": "_e_0",
            "target": 109,
            "ts": "1668"
        },
        {
            "source": "_e_0",
            "target": 110,
            "ts": "1668"
        },
        {
            "source": "_e_0",
            "target": 111,
            "ts": "1668"
        },
        {
            "source": "_e_1",
            "target": 2,
            "ts": "1660"
        },
        {
            "source": "_e_1",
            "target": 53,
            "ts": "1660"
        },
        {
            "source": "_e_2",
            "target": 2,
            "ts": "1670"
        },
        {
            "source": "_e_2",
            "target": 118,
            "ts": "1670"
        },
        {
            "source": "_e_2",
            "target": 119,
            "ts": "1670"
        },
        {
            "source": "_e_2",
            "target": 120,
            "ts": "1670"
        },
        {
            "source": "_e_2",
            "target": 121,
            "ts": "1670"
        },
        {
            "source": "_e_3",
            "target": 2,
            "ts": "1666"
        },
        {
            "source": "_e_3",
            "target": 76,
            "ts": "1666"
        },
        {
            "source": "_e_3",
            "target": 77,
            "ts": "1666"
        },
        {
            "source": "_e_3",
            "target": 78,
            "ts": "1666"
        },
        {
            "source": "_e_4",
            "target": 2,
            "ts": "1666"
        },
        {
            "source": "_e_4",
            "target": 90,
            "ts": "1666"
        },
        {
            "source": "_e_4",
            "target": 91,
            "ts": "1666"
        },
        {
            "source": "_e_4",
            "target": 92,
            "ts": "1666"
        },
        {
            "source": "_e_4",
            "target": 93,
            "ts": "1666"
        },
        {
            "source": "_e_4",
            "target": 94,
            "ts": "1666"
        },
        {
            "source": "_e_5",
            "target": 2,
            "ts": "1670"
        },
        {
            "source": "_e_5",
            "target": 184,
            "ts": "1670"
        },
        {
            "source": "_e_5",
            "target": 185,
            "ts": "1670"
        },
        {
            "source": "_e_5",
            "target": 186,
            "ts": "1670"
        },
        {
            "source": "_e_6",
            "target": 2,
            "ts": "1662"
        },
        {
            "source": "_e_6",
            "target": 54,
            "ts": "1662"
        },
        {
            "source": "_e_6",
            "target": 55,
            "ts": "1662"
        },
        {
            "source": "_e_6",
            "target": 56,
            "ts": "1662"
        },
        {
            "source": "_e_6",
            "target": 57,
            "ts": "1662"
        },
        {
            "source": "_e_7",
            "target": 2,
            "ts": "1664"
        },
        {
            "source": "_e_7",
            "target": 54,
            "ts": "1664"
        },
        {
            "source": "_e_7",
            "target": 71,
            "ts": "1664"
        },
        {
            "source": "_e_7",
            "target": 72,
            "ts": "1664"
        },
        {
            "source": "_e_7",
            "target": 73,
            "ts": "1664"
        },
        {
            "source": "_e_7",
            "target": 74,
            "ts": "1664"
        },
        {
            "source": "_e_7",
            "target": 75,
            "ts": "1664"
        },
        {
            "source": "_e_8",
            "target": 2,
            "ts": "1666"
        },
        {
            "source": "_e_8",
            "target": 58,
            "ts": "1666"
        },
        {
            "source": "_e_9",
            "target": 58,
            "ts": "1663"
        },
        {
            "source": "_e_9",
            "target": 60,
            "ts": "1663"
        },
        {
            "source": "_e_9",
            "target": 2,
            "ts": "1663"
        },
        {
            "source": "_e_9",
            "target": 59,
            "ts": "1663"
        },
        {
            "source": "_e_10",
            "target": 2,
            "ts": "1667"
        },
        {
            "source": "_e_10",
            "target": 98,
            "ts": "1667"
        },
        {
            "source": "_e_10",
            "target": 99,
            "ts": "1667"
        },
        {
            "source": "_e_10",
            "target": 58,
            "ts": "1667"
        },
        {
            "source": "_e_11",
            "target": 61,
            "ts": "1664"
        },
        {
            "source": "_e_11",
            "target": 62,
            "ts": "1664"
        },
        {
            "source": "_e_11",
            "target": 63,
            "ts": "1664"
        },
        {
            "source": "_e_11",
            "target": 64,
            "ts": "1664"
        },
        {
            "source": "_e_11",
            "target": 65,
            "ts": "1664"
        },
        {
            "source": "_e_11",
            "target": 66,
            "ts": "1664"
        },
        {
            "source": "_e_11",
            "target": 67,
            "ts": "1664"
        },
        {
            "source": "_e_11",
            "target": 68,
            "ts": "1664"
        },
        {
            "source": "_e_11",
            "target": 69,
            "ts": "1664"
        },
        {
            "source": "_e_11",
            "target": 70,
            "ts": "1664"
        },
        {
            "source": "_e_11",
            "target": 2,
            "ts": "1664"
        },
        {
            "source": "_e_12",
            "target": 2,
            "ts": "1666"
        },
        {
            "source": "_e_12",
            "target": 178,
            "ts": "1666"
        },
        {
            "source": "_e_12",
            "target": 179,
            "ts": "1666"
        },
        {
            "source": "_e_13",
            "target": 2,
            "ts": "1667"
        },
        {
            "source": "_e_13",
            "target": 58,
            "ts": "1667"
        },
        {
            "source": "_e_13",
            "target": 96,
            "ts": "1667"
        },
        {
            "source": "_e_13",
            "target": 100,
            "ts": "1667"
        },
        {
            "source": "_e_13",
            "target": 101,
            "ts": "1667"
        },
        {
            "source": "_e_13",
            "target": 102,
            "ts": "1667"
        },
        {
            "source": "_e_13",
            "target": 103,
            "ts": "1667"
        },
        {
            "source": "_e_13",
            "target": 104,
            "ts": "1667"
        },
        {
            "source": "_e_13",
            "target": 105,
            "ts": "1667"
        },
        {
            "source": "_e_13",
            "target": 106,
            "ts": "1667"
        },
        {
            "source": "_e_14",
            "target": 2,
            "ts": "1666"
        },
        {
            "source": "_e_14",
            "target": 95,
            "ts": "1666"
        },
        {
            "source": "_e_14",
            "target": 96,
            "ts": "1666"
        },
        {
            "source": "_e_14",
            "target": 97,
            "ts": "1666"
        },
        {
            "source": "_e_15",
            "target": 2,
            "ts": "1666"
        },
        {
            "source": "_e_15",
            "target": 37,
            "ts": "1666"
        },
        {
            "source": "_e_15",
            "target": 79,
            "ts": "1666"
        },
        {
            "source": "_e_15",
            "target": 80,
            "ts": "1666"
        },
        {
            "source": "_e_15",
            "target": 81,
            "ts": "1666"
        },
        {
            "source": "_e_15",
            "target": 82,
            "ts": "1666"
        },
        {
            "source": "_e_15",
            "target": 83,
            "ts": "1666"
        },
        {
            "source": "_e_15",
            "target": 84,
            "ts": "1666"
        },
        {
            "source": "_e_15",
            "target": 85,
            "ts": "1666"
        },
        {
            "source": "_e_15",
            "target": 86,
            "ts": "1666"
        },
        {
            "source": "_e_15",
            "target": 87,
            "ts": "1666"
        },
        {
            "source": "_e_15",
            "target": 88,
            "ts": "1666"
        },
        {
            "source": "_e_16",
            "target": 2,
            "ts": "1667"
        },
        {
            "source": "_e_16",
            "target": 179,
            "ts": "1667"
        },
        {
            "source": "_e_16",
            "target": 180,
            "ts": "1667"
        },
        {
            "source": "_e_17",
            "target": 2,
            "ts": "1668"
        },
        {
            "source": "_e_17",
            "target": 179,
            "ts": "1668"
        },
        {
            "source": "_e_17",
            "target": 180,
            "ts": "1668"
        },
        {
            "source": "_e_18",
            "target": 2,
            "ts": "1667"
        },
        {
            "source": "_e_18",
            "target": 69,
            "ts": "1667"
        },
        {
            "source": "_e_18",
            "target": 180,
            "ts": "1667"
        },
        {
            "source": "_e_19",
            "target": 2,
            "ts": "1668"
        },
        {
            "source": "_e_19",
            "target": 181,
            "ts": "1668"
        },
        {
            "source": "_e_19",
            "target": 182,
            "ts": "1668"
        },
        {
            "source": "_e_19",
            "target": 183,
            "ts": "1668"
        },
        {
            "source": "_e_20",
            "target": 2,
            "ts": "1671"
        },
        {
            "source": "_e_20",
            "target": 0,
            "ts": "1671"
        },
        {
            "source": "_e_20",
            "target": 25,
            "ts": "1671"
        },
        {
            "source": "_e_21",
            "target": 2,
            "ts": "1670"
        },
        {
            "source": "_e_21",
            "target": 112,
            "ts": "1670"
        },
        {
            "source": "_e_21",
            "target": 113,
            "ts": "1670"
        },
        {
            "source": "_e_21",
            "target": 114,
            "ts": "1670"
        },
        {
            "source": "_e_21",
            "target": 115,
            "ts": "1670"
        },
        {
            "source": "_e_21",
            "target": 116,
            "ts": "1670"
        },
        {
            "source": "_e_21",
            "target": 117,
            "ts": "1670"
        },
        {
            "source": "_e_22",
            "target": 0,
            "ts": "1674"
        },
        {
            "source": "_e_22",
            "target": 2,
            "ts": "1674"
        },
        {
            "source": "_e_22",
            "target": 34,
            "ts": "1674"
        },
        {
            "source": "_e_22",
            "target": 122,
            "ts": "1674"
        },
        {
            "source": "_e_22",
            "target": 125,
            "ts": "1674"
        },
        {
            "source": "_e_22",
            "target": 153,
            "ts": "1674"
        },
        {
            "source": "_e_22",
            "target": 154,
            "ts": "1674"
        },
        {
            "source": "_e_22",
            "target": 155,
            "ts": "1674"
        },
        {
            "source": "_e_22",
            "target": 159,
            "ts": "1674"
        },
        {
            "source": "_e_22",
            "target": 160,
            "ts": "1674"
        },
        {
            "source": "_e_22",
            "target": 161,
            "ts": "1674"
        },
        {
            "source": "_e_22",
            "target": 162,
            "ts": "1674"
        },
        {
            "source": "_e_23",
            "target": 0,
            "ts": "1670"
        },
        {
            "source": "_e_23",
            "target": 2,
            "ts": "1670"
        },
        {
            "source": "_e_23",
            "target": 25,
            "ts": "1670"
        },
        {
            "source": "_e_23",
            "target": 34,
            "ts": "1670"
        },
        {
            "source": "_e_23",
            "target": 58,
            "ts": "1670"
        },
        {
            "source": "_e_23",
            "target": 122,
            "ts": "1670"
        },
        {
            "source": "_e_23",
            "target": 123,
            "ts": "1670"
        },
        {
            "source": "_e_23",
            "target": 124,
            "ts": "1670"
        },
        {
            "source": "_e_24",
            "target": 0,
            "ts": "1671"
        },
        {
            "source": "_e_24",
            "target": 163,
            "ts": "1671"
        },
        {
            "source": "_e_24",
            "target": 2,
            "ts": "1671"
        },
        {
            "source": "_e_24",
            "target": 122,
            "ts": "1671"
        },
        {
            "source": "_e_25",
            "target": 2,
            "ts": "1672"
        },
        {
            "source": "_e_25",
            "target": 3,
            "ts": "1672"
        },
        {
            "source": "_e_26",
            "target": 2,
            "ts": "1675"
        },
        {
            "source": "_e_26",
            "target": 0,
            "ts": "1675"
        },
        {
            "source": "_e_26",
            "target": 3,
            "ts": "1675"
        },
        {
            "source": "_e_27",
            "target": 25,
            "ts": "1689"
        },
        {
            "source": "_e_27",
            "target": 0,
            "ts": "1689"
        },
        {
            "source": "_e_27",
            "target": 3,
            "ts": "1689"
        },
        {
            "source": "_e_27",
            "target": 2,
            "ts": "1689"
        },
        {
            "source": "_e_27",
            "target": 30,
            "ts": "1689"
        },
        {
            "source": "_e_27",
            "target": 31,
            "ts": "1689"
        },
        {
            "source": "_e_27",
            "target": 32,
            "ts": "1689"
        },
        {
            "source": "_e_27",
            "target": 33,
            "ts": "1689"
        },
        {
            "source": "_e_28",
            "target": 144,
            "ts": "1672"
        },
        {
            "source": "_e_28",
            "target": 140,
            "ts": "1672"
        },
        {
            "source": "_e_28",
            "target": 145,
            "ts": "1672"
        },
        {
            "source": "_e_28",
            "target": 143,
            "ts": "1672"
        },
        {
            "source": "_e_28",
            "target": 146,
            "ts": "1672"
        },
        {
            "source": "_e_28",
            "target": 68,
            "ts": "1672"
        },
        {
            "source": "_e_28",
            "target": 147,
            "ts": "1672"
        },
        {
            "source": "_e_28",
            "target": 148,
            "ts": "1672"
        },
        {
            "source": "_e_28",
            "target": 149,
            "ts": "1672"
        },
        {
            "source": "_e_28",
            "target": 113,
            "ts": "1672"
        },
        {
            "source": "_e_28",
            "target": 142,
            "ts": "1672"
        },
        {
            "source": "_e_28",
            "target": 150,
            "ts": "1672"
        },
        {
            "source": "_e_28",
            "target": 69,
            "ts": "1672"
        },
        {
            "source": "_e_28",
            "target": 152,
            "ts": "1672"
        },
        {
            "source": "_e_28",
            "target": 151,
            "ts": "1672"
        },
        {
            "source": "_e_29",
            "target": 25,
            "ts": "1690"
        },
        {
            "source": "_e_29",
            "target": 36,
            "ts": "1690"
        },
        {
            "source": "_e_29",
            "target": 37,
            "ts": "1690"
        },
        {
            "source": "_e_29",
            "target": 38,
            "ts": "1690"
        },
        {
            "source": "_e_29",
            "target": 39,
            "ts": "1690"
        },
        {
            "source": "_e_29",
            "target": 40,
            "ts": "1690"
        },
        {
            "source": "_e_29",
            "target": 41,
            "ts": "1690"
        },
        {
            "source": "_e_29",
            "target": 42,
            "ts": "1690"
        },
        {
            "source": "_e_29",
            "target": 43,
            "ts": "1690"
        },
        {
            "source": "_e_29",
            "target": 44,
            "ts": "1690"
        },
        {
            "source": "_e_29",
            "target": 45,
            "ts": "1690"
        },
        {
            "source": "_e_29",
            "target": 46,
            "ts": "1690"
        },
        {
            "source": "_e_29",
            "target": 47,
            "ts": "1690"
        },
        {
            "source": "_e_29",
            "target": 48,
            "ts": "1690"
        },
        {
            "source": "_e_29",
            "target": 0,
            "ts": "1690"
        },
        {
            "source": "_e_29",
            "target": 49,
            "ts": "1690"
        },
        {
            "source": "_e_29",
            "target": 50,
            "ts": "1690"
        },
        {
            "source": "_e_30",
            "target": 34,
            "ts": "1668"
        },
        {
            "source": "_e_30",
            "target": 153,
            "ts": "1668"
        },
        {
            "source": "_e_30",
            "target": 154,
            "ts": "1668"
        },
        {
            "source": "_e_30",
            "target": 155,
            "ts": "1668"
        },
        {
            "source": "_e_30",
            "target": 156,
            "ts": "1668"
        },
        {
            "source": "_e_31",
            "target": 0,
            "ts": "1690"
        },
        {
            "source": "_e_31",
            "target": 34,
            "ts": "1690"
        },
        {
            "source": "_e_31",
            "target": 35,
            "ts": "1690"
        },
        {
            "source": "_e_31",
            "target": 25,
            "ts": "1690"
        },
        {
            "source": "_e_32",
            "target": 34,
            "ts": "1671"
        },
        {
            "source": "_e_32",
            "target": 35,
            "ts": "1671"
        },
        {
            "source": "_e_32",
            "target": 0,
            "ts": "1671"
        },
        {
            "source": "_e_32",
            "target": 125,
            "ts": "1671"
        },
        {
            "source": "_e_32",
            "target": 154,
            "ts": "1671"
        },
        {
            "source": "_e_32",
            "target": 164,
            "ts": "1671"
        },
        {
            "source": "_e_32",
            "target": 165,
            "ts": "1671"
        },
        {
            "source": "_e_32",
            "target": 166,
            "ts": "1671"
        },
        {
            "source": "_e_33",
            "target": 34,
            "ts": "1671"
        },
        {
            "source": "_e_33",
            "target": 35,
            "ts": "1671"
        },
        {
            "source": "_e_33",
            "target": 0,
            "ts": "1671"
        },
        {
            "source": "_e_33",
            "target": 125,
            "ts": "1671"
        },
        {
            "source": "_e_33",
            "target": 154,
            "ts": "1671"
        },
        {
            "source": "_e_33",
            "target": 164,
            "ts": "1671"
        },
        {
            "source": "_e_33",
            "target": 165,
            "ts": "1671"
        },
        {
            "source": "_e_33",
            "target": 166,
            "ts": "1671"
        },
        {
            "source": "_e_34",
            "target": 34,
            "ts": "1671"
        },
        {
            "source": "_e_34",
            "target": 35,
            "ts": "1671"
        },
        {
            "source": "_e_34",
            "target": 0,
            "ts": "1671"
        },
        {
            "source": "_e_34",
            "target": 125,
            "ts": "1671"
        },
        {
            "source": "_e_34",
            "target": 164,
            "ts": "1671"
        },
        {
            "source": "_e_34",
            "target": 154,
            "ts": "1671"
        },
        {
            "source": "_e_34",
            "target": 165,
            "ts": "1671"
        },
        {
            "source": "_e_34",
            "target": 166,
            "ts": "1671"
        },
        {
            "source": "_e_34",
            "target": 167,
            "ts": "1671"
        },
        {
            "source": "_e_34",
            "target": 168,
            "ts": "1671"
        },
        {
            "source": "_e_34",
            "target": 169,
            "ts": "1671"
        },
        {
            "source": "_e_34",
            "target": 170,
            "ts": "1671"
        },
        {
            "source": "_e_34",
            "target": 171,
            "ts": "1671"
        },
        {
            "source": "_e_34",
            "target": 172,
            "ts": "1671"
        },
        {
            "source": "_e_34",
            "target": 173,
            "ts": "1671"
        },
        {
            "source": "_e_34",
            "target": 163,
            "ts": "1671"
        },
        {
            "source": "_e_34",
            "target": 122,
            "ts": "1671"
        },
        {
            "source": "_e_34",
            "target": 174,
            "ts": "1671"
        },
        {
            "source": "_e_34",
            "target": 175,
            "ts": "1671"
        },
        {
            "source": "_e_34",
            "target": 176,
            "ts": "1671"
        },
        {
            "source": "_e_35",
            "target": 34,
            "ts": "1671"
        },
        {
            "source": "_e_35",
            "target": 0,
            "ts": "1671"
        },
        {
            "source": "_e_35",
            "target": 125,
            "ts": "1671"
        },
        {
            "source": "_e_35",
            "target": 154,
            "ts": "1671"
        },
        {
            "source": "_e_35",
            "target": 164,
            "ts": "1671"
        },
        {
            "source": "_e_35",
            "target": 163,
            "ts": "1671"
        },
        {
            "source": "_e_35",
            "target": 122,
            "ts": "1671"
        },
        {
            "source": "_e_35",
            "target": 174,
            "ts": "1671"
        },
        {
            "source": "_e_35",
            "target": 175,
            "ts": "1671"
        },
        {
            "source": "_e_35",
            "target": 177,
            "ts": "1671"
        },
        {
            "source": "_e_36",
            "target": 143,
            "ts": "1672"
        },
        {
            "source": "_e_36",
            "target": 189,
            "ts": "1672"
        },
        {
            "source": "_e_36",
            "target": 183,
            "ts": "1672"
        },
        {
            "source": "_e_37",
            "target": 4,
            "ts": "1676"
        },
        {
            "source": "_e_37",
            "target": 5,
            "ts": "1676"
        },
        {
            "source": "_e_37",
            "target": 7,
            "ts": "1676"
        },
        {
            "source": "_e_37",
            "target": 8,
            "ts": "1676"
        },
        {
            "source": "_e_37",
            "target": 9,
            "ts": "1676"
        },
        {
            "source": "_e_37",
            "target": 10,
            "ts": "1676"
        },
        {
            "source": "_e_37",
            "target": 0,
            "ts": "1676"
        },
        {
            "source": "_e_37",
            "target": 11,
            "ts": "1676"
        },
        {
            "source": "_e_37",
            "target": 12,
            "ts": "1676"
        },
        {
            "source": "_e_38",
            "target": 126,
            "ts": "1671"
        },
        {
            "source": "_e_38",
            "target": 0,
            "ts": "1671"
        },
        {
            "source": "_e_38",
            "target": 127,
            "ts": "1671"
        },
        {
            "source": "_e_38",
            "target": 128,
            "ts": "1671"
        },
        {
            "source": "_e_38",
            "target": 129,
            "ts": "1671"
        },
        {
            "source": "_e_38",
            "target": 130,
            "ts": "1671"
        },
        {
            "source": "_e_39",
            "target": 0,
            "ts": "1682"
        },
        {
            "source": "_e_39",
            "target": 24,
            "ts": "1682"
        },
        {
            "source": "_e_40",
            "target": 0,
            "ts": "1683"
        },
        {
            "source": "_e_40",
            "target": 28,
            "ts": "1683"
        },
        {
            "source": "_e_41",
            "target": 22,
            "ts": "1676"
        },
        {
            "source": "_e_41",
            "target": 21,
            "ts": "1676"
        },
        {
            "source": "_e_41",
            "target": 0,
            "ts": "1676"
        },
        {
            "source": "_e_41",
            "target": 23,
            "ts": "1676"
        },
        {
            "source": "_e_42",
            "target": 125,
            "ts": "1669"
        },
        {
            "source": "_e_42",
            "target": 0,
            "ts": "1669"
        },
        {
            "source": "_e_43",
            "target": 0,
            "ts": "1685"
        },
        {
            "source": "_e_43",
            "target": 25,
            "ts": "1685"
        },
        {
            "source": "_e_44",
            "target": 25,
            "ts": "1689"
        },
        {
            "source": "_e_44",
            "target": 0,
            "ts": "1689"
        },
        {
            "source": "_e_44",
            "target": 26,
            "ts": "1689"
        },
        {
            "source": "_e_44",
            "target": 27,
            "ts": "1689"
        },
        {
            "source": "_e_45",
            "target": 0,
            "ts": "1683"
        },
        {
            "source": "_e_45",
            "target": 25,
            "ts": "1683"
        },
        {
            "source": "_e_46",
            "target": 0,
            "ts": "1689"
        },
        {
            "source": "_e_46",
            "target": 3,
            "ts": "1689"
        },
        {
            "source": "_e_47",
            "target": 0,
            "ts": "1673"
        },
        {
            "source": "_e_47",
            "target": 1,
            "ts": "1673"
        },
        {
            "source": "_e_48",
            "target": 0,
            "ts": "1681"
        },
        {
            "source": "_e_48",
            "target": 19,
            "ts": "1681"
        },
        {
            "source": "_e_49",
            "target": 0,
            "ts": "1676"
        },
        {
            "source": "_e_49",
            "target": 19,
            "ts": "1676"
        },
        {
            "source": "_e_50",
            "target": 13,
            "ts": "1676"
        },
        {
            "source": "_e_50",
            "target": 14,
            "ts": "1676"
        },
        {
            "source": "_e_50",
            "target": 15,
            "ts": "1676"
        },
        {
            "source": "_e_50",
            "target": 16,
            "ts": "1676"
        },
        {
            "source": "_e_50",
            "target": 0,
            "ts": "1676"
        },
        {
            "source": "_e_50",
            "target": 17,
            "ts": "1676"
        },
        {
            "source": "_e_50",
            "target": 18,
            "ts": "1676"
        },
        {
            "source": "_e_51",
            "target": 16,
            "ts": "1676"
        },
        {
            "source": "_e_51",
            "target": 19,
            "ts": "1676"
        },
        {
            "source": "_e_51",
            "target": 14,
            "ts": "1676"
        },
        {
            "source": "_e_51",
            "target": 18,
            "ts": "1676"
        },
        {
            "source": "_e_51",
            "target": 0,
            "ts": "1676"
        },
        {
            "source": "_e_51",
            "target": 1,
            "ts": "1676"
        },
        {
            "source": "_e_52",
            "target": 51,
            "ts": "1692"
        },
        {
            "source": "_e_52",
            "target": 25,
            "ts": "1692"
        },
        {
            "source": "_e_53",
            "target": 52,
            "ts": "1692"
        },
        {
            "source": "_e_53",
            "target": 25,
            "ts": "1692"
        },
        {
            "source": "_e_54",
            "target": 134,
            "ts": "1672"
        },
        {
            "source": "_e_54",
            "target": 135,
            "ts": "1672"
        },
        {
            "source": "_e_54",
            "target": 136,
            "ts": "1672"
        },
        {
            "source": "_e_54",
            "target": 137,
            "ts": "1672"
        },
        {
            "source": "_e_54",
            "target": 138,
            "ts": "1672"
        },
        {
            "source": "_e_54",
            "target": 139,
            "ts": "1672"
        },
        {
            "source": "_e_54",
            "target": 140,
            "ts": "1672"
        },
        {
            "source": "_e_54",
            "target": 141,
            "ts": "1672"
        },
        {
            "source": "_e_54",
            "target": 142,
            "ts": "1672"
        },
        {
            "source": "_e_54",
            "target": 143,
            "ts": "1672"
        },
        {
            "source": "_e_54",
            "target": 113,
            "ts": "1672"
        },
        {
            "source": "_e_55",
            "target": 143,
            "ts": "1675"
        },
        {
            "source": "_e_55",
            "target": 187,
            "ts": "1675"
        },
        {
            "source": "_e_55",
            "target": 188,
            "ts": "1675"
        },
        {
            "source": "_e_55",
            "target": 113,
            "ts": "1675"
        },
        {
            "source": "_e_55",
            "target": 142,
            "ts": "1675"
        },
        {
            "source": "_e_56",
            "target": 113,
            "ts": "1672"
        },
        {
            "source": "_e_56",
            "target": 142,
            "ts": "1672"
        },
        {
            "source": "_e_56",
            "target": 143,
            "ts": "1672"
        },
        {
            "source": "_e_56",
            "target": 187,
            "ts": "1672"
        },
        {
            "source": "_e_56",
            "target": 188,
            "ts": "1672"
        },
        {
            "source": "_e_57",
            "target": 143,
            "ts": "1672"
        },
        {
            "source": "_e_57",
            "target": 189,
            "ts": "1672"
        },
        {
            "source": "_e_57",
            "target": 113,
            "ts": "1672"
        },
        {
            "source": "_e_57",
            "target": 142,
            "ts": "1672"
        }
    ]
}